<?xml version="1.0" encoding="UTF-8"?>
<svg xmlns="http://www.w3.org/2000/svg" xmlns:xlink="http://www.w3.org/1999/xlink" width="231pt" height="77pt" viewBox="0 0 231 77" version="1.1">
<defs>
<g>
<symbol overflow="visible" id="glyph0-0">
<path style="stroke:none;" d="M 0.5 -6.015625 L 2.1875 -3.484375 L 0.5 -0.953125 Z M 0.796875 -0.5 L 2.5 -3.03125 L 4.1875 -0.5 Z M 2.796875 -3.484375 L 4.484375 -6.015625 L 4.484375 -0.953125 Z M 2.5 -3.921875 L 0.796875 -6.453125 L 4.1875 -6.453125 Z M 0 0 L 4.984375 0 L 4.984375 -6.953125 L 0 -6.953125 Z M 0 0 "/>
</symbol>
<symbol overflow="visible" id="glyph0-1">
<path style="stroke:none;" d="M 5.046875 -3.515625 C 5.078125 -3.6875 5.171875 -3.984375 5.171875 -4.109375 C 5.171875 -4.28125 5.078125 -4.375 4.75 -4.375 C 4.375 -4.375 4.390625 -3.9375 4.296875 -3.5625 L 4 -2.46875 C 3.265625 -1.203125 2.78125 -0.5 2.28125 -0.5 C 2.109375 -0.5 1.984375 -0.59375 1.984375 -0.875 C 1.984375 -1.03125 2 -1.234375 2.078125 -1.5 L 2.5 -3.125 C 2.578125 -3.453125 2.71875 -3.859375 2.71875 -4.046875 C 2.71875 -4.234375 2.65625 -4.375 2.359375 -4.375 C 1.875 -4.375 1.3125 -4.03125 0.84375 -3.453125 C 0.875 -3.359375 0.9375 -3.28125 1.078125 -3.28125 C 1.328125 -3.578125 1.671875 -3.78125 1.765625 -3.78125 C 1.828125 -3.78125 1.859375 -3.734375 1.859375 -3.609375 C 1.859375 -3.515625 1.796875 -3.296875 1.734375 -3.046875 L 1.296875 -1.359375 C 1.21875 -1.109375 1.203125 -0.890625 1.203125 -0.703125 C 1.203125 -0.125 1.515625 0.09375 1.859375 0.09375 C 2.640625 0.09375 3.140625 -0.515625 3.84375 -1.5625 L 3.875 -1.53125 L 3.765625 -1.140625 C 3.671875 -0.828125 3.59375 -0.421875 3.59375 -0.234375 C 3.59375 -0.046875 3.671875 0.09375 3.96875 0.09375 C 4.453125 0.09375 4.890625 -0.234375 5.359375 -0.828125 C 5.328125 -0.921875 5.265625 -1 5.125 -1 C 4.859375 -0.703125 4.578125 -0.5 4.46875 -0.5 C 4.40625 -0.5 4.375 -0.546875 4.375 -0.671875 C 4.375 -0.75 4.421875 -0.984375 4.484375 -1.234375 Z M 5.046875 -3.515625 "/>
</symbol>
<symbol overflow="visible" id="glyph0-2">
<path style="stroke:none;" d="M 2.75 -4.140625 C 2.75 -4.28125 2.6875 -4.34375 2.546875 -4.34375 C 2.234375 -4.34375 1.78125 -4.28125 1.3125 -4.21875 C 1.25 -4.140625 1.265625 -4.03125 1.328125 -3.9375 L 1.71875 -3.90625 C 1.84375 -3.890625 1.90625 -3.8125 1.90625 -3.703125 C 1.90625 -3.625 1.875 -3.484375 1.8125 -3.203125 L 1.25 -0.71875 C 1.203125 -0.515625 1.109375 -0.265625 1.109375 -0.171875 C 1.109375 0 1.203125 0.09375 1.53125 0.09375 C 1.90625 0.09375 1.890625 -0.34375 1.984375 -0.71875 L 2.375 -2.328125 C 3.15625 -3.453125 3.71875 -3.78125 4.03125 -3.78125 C 4.234375 -3.78125 4.296875 -3.703125 4.296875 -3.40625 C 4.296875 -3.296875 4.28125 -3.046875 4.21875 -2.734375 L 3.734375 -0.71875 C 3.6875 -0.515625 3.609375 -0.265625 3.609375 -0.171875 C 3.609375 0 3.703125 0.09375 4.015625 0.09375 C 4.390625 0.09375 4.390625 -0.34375 4.46875 -0.71875 L 4.859375 -2.28125 C 5.703125 -3.46875 6.09375 -3.78125 6.40625 -3.78125 C 6.59375 -3.78125 6.703125 -3.703125 6.703125 -3.40625 C 6.703125 -3.296875 6.6875 -3.015625 6.609375 -2.703125 L 6.21875 -1.140625 C 6.125 -0.734375 6.046875 -0.3125 6.046875 -0.234375 C 6.046875 -0.03125 6.21875 0.09375 6.359375 0.09375 C 6.953125 0.09375 7.5 -0.1875 7.828125 -1 C 7.8125 -1.09375 7.75 -1.140625 7.609375 -1.140625 C 7.375 -0.765625 7.09375 -0.5 6.921875 -0.5 C 6.875 -0.5 6.84375 -0.5625 6.84375 -0.609375 C 6.84375 -0.640625 6.875 -0.890625 6.890625 -1 L 7.359375 -2.78125 C 7.421875 -3.015625 7.46875 -3.3125 7.46875 -3.515625 C 7.46875 -4.140625 7.171875 -4.375 6.859375 -4.375 C 6.15625 -4.375 5.609375 -3.765625 5.03125 -3.046875 C 5.046875 -3.203125 5.0625 -3.375 5.0625 -3.515625 C 5.0625 -4.203125 4.765625 -4.375 4.484375 -4.375 C 3.765625 -4.375 3.125 -3.84375 2.53125 -3.09375 L 2.515625 -3.09375 C 2.609375 -3.46875 2.75 -3.96875 2.75 -4.140625 Z M 2.75 -4.140625 "/>
</symbol>
<symbol overflow="visible" id="glyph0-3">
<path style="stroke:none;" d="M 5.1875 -2.96875 C 5.1875 -2.046875 4.09375 -0.453125 3.375 -0.453125 C 2.953125 -0.453125 2.796875 -0.5 2.640625 -0.625 C 2.421875 -0.8125 2.296875 -1.09375 2.296875 -1.40625 C 2.296875 -2 2.375 -2.515625 2.765625 -3.0625 C 3.28125 -3.78125 3.4375 -3.921875 3.4375 -4.140625 C 3.4375 -4.21875 3.375 -4.28125 3.25 -4.28125 L 1.8125 -4.28125 C 1.65625 -4.28125 1.578125 -4.25 1.5 -4.171875 C 1.25 -3.90625 1.0625 -3.53125 0.9375 -3.0625 C 0.984375 -3.015625 1.03125 -2.96875 1.109375 -2.96875 C 1.140625 -2.96875 1.171875 -2.96875 1.21875 -2.984375 C 1.328125 -3.375 1.515625 -3.5625 1.59375 -3.625 C 1.6875 -3.703125 1.875 -3.765625 2.0625 -3.765625 L 2.296875 -3.765625 C 2.609375 -3.765625 2.703125 -3.6875 2.703125 -3.59375 C 2.703125 -3.515625 2.625 -3.40625 2.515625 -3.265625 C 1.65625 -2.125 1.5 -1.671875 1.5 -1.15625 C 1.5 -0.75 1.671875 -0.40625 1.96875 -0.203125 C 2.25 -0.015625 2.578125 0.0625 2.9375 0.0625 C 3.3125 0.0625 3.671875 -0.046875 3.953125 -0.25 C 5.4375 -1.3125 5.6875 -2.953125 5.6875 -3.515625 C 5.6875 -4.171875 5.34375 -4.375 5.125 -4.375 C 4.921875 -4.375 4.734375 -4.21875 4.734375 -4.015625 C 4.734375 -3.703125 5.0625 -3.546875 5.140625 -3.296875 C 5.171875 -3.203125 5.1875 -3.09375 5.1875 -2.96875 Z M 5.1875 -2.96875 "/>
</symbol>
<symbol overflow="visible" id="glyph0-4">
<path style="stroke:none;" d="M 5.890625 -4.28125 L 2.109375 -4.28125 C 1.640625 -4.28125 1.09375 -3.4375 0.890625 -2.84375 L 1.0625 -2.8125 C 1.359375 -3.375 1.703125 -3.59375 2.15625 -3.59375 L 2.328125 -3.59375 C 1.703125 -0.890625 1.1875 -0.71875 0.90625 -0.65625 C 0.65625 -0.609375 0.515625 -0.3125 0.5 -0.21875 C 0.484375 -0.171875 0.484375 -0.15625 0.484375 -0.109375 C 0.484375 0.0625 0.625 0.125 0.71875 0.125 C 1.625 0.125 2.25 -1.1875 2.8125 -3.59375 L 3.953125 -3.59375 C 3.671875 -2.453125 3.4375 -1.5 3.3125 -0.921875 C 3.265625 -0.703125 3.234375 -0.53125 3.234375 -0.40625 C 3.234375 -0.03125 3.421875 0.125 3.875 0.125 C 4.3125 0.125 4.84375 -0.390625 5.125 -0.703125 L 5 -0.859375 C 4.5625 -0.484375 4.171875 -0.40625 4.0625 -0.40625 C 3.921875 -0.40625 3.859375 -0.5 3.859375 -0.671875 C 3.859375 -0.78125 3.875 -0.90625 3.921875 -1.0625 C 4.234375 -2.4375 4.421875 -3.234375 4.53125 -3.59375 L 5.1875 -3.59375 C 5.515625 -3.59375 5.734375 -3.8125 5.96875 -4.15625 Z M 5.890625 -4.28125 "/>
</symbol>
<symbol overflow="visible" id="glyph1-0">
<path style="stroke:none;" d="M 0.5 -6.015625 L 2.1875 -3.484375 L 0.5 -0.953125 Z M 0.796875 -0.5 L 2.5 -3.03125 L 4.1875 -0.5 Z M 2.796875 -3.484375 L 4.484375 -6.015625 L 4.484375 -0.953125 Z M 2.5 -3.921875 L 0.796875 -6.453125 L 4.1875 -6.453125 Z M 0 0 L 4.984375 0 L 4.984375 -6.953125 L 0 -6.953125 Z M 0 0 "/>
</symbol>
<symbol overflow="visible" id="glyph1-1">
<path style="stroke:none;" d="M 2.75 -4.140625 C 2.75 -4.28125 2.6875 -4.34375 2.546875 -4.34375 C 2.234375 -4.34375 1.78125 -4.28125 1.3125 -4.21875 C 1.25 -4.140625 1.265625 -4.03125 1.328125 -3.9375 L 1.71875 -3.90625 C 1.84375 -3.890625 1.90625 -3.8125 1.90625 -3.703125 C 1.90625 -3.625 1.875 -3.484375 1.8125 -3.203125 L 1.25 -0.71875 C 1.203125 -0.515625 1.109375 -0.265625 1.109375 -0.171875 C 1.109375 0 1.203125 0.09375 1.53125 0.09375 C 1.90625 0.09375 1.890625 -0.34375 1.984375 -0.71875 L 2.375 -2.328125 C 3.15625 -3.453125 3.71875 -3.78125 4.03125 -3.78125 C 4.234375 -3.78125 4.296875 -3.703125 4.296875 -3.40625 C 4.296875 -3.296875 4.28125 -3.046875 4.21875 -2.734375 L 3.734375 -0.71875 C 3.6875 -0.515625 3.609375 -0.265625 3.609375 -0.171875 C 3.609375 0 3.703125 0.09375 4.015625 0.09375 C 4.390625 0.09375 4.390625 -0.34375 4.46875 -0.71875 L 4.859375 -2.28125 C 5.703125 -3.46875 6.09375 -3.78125 6.40625 -3.78125 C 6.59375 -3.78125 6.703125 -3.703125 6.703125 -3.40625 C 6.703125 -3.296875 6.6875 -3.015625 6.609375 -2.703125 L 6.21875 -1.140625 C 6.125 -0.734375 6.046875 -0.3125 6.046875 -0.234375 C 6.046875 -0.03125 6.21875 0.09375 6.359375 0.09375 C 6.953125 0.09375 7.5 -0.1875 7.828125 -1 C 7.8125 -1.09375 7.75 -1.140625 7.609375 -1.140625 C 7.375 -0.765625 7.09375 -0.5 6.921875 -0.5 C 6.875 -0.5 6.84375 -0.5625 6.84375 -0.609375 C 6.84375 -0.640625 6.875 -0.890625 6.890625 -1 L 7.359375 -2.78125 C 7.421875 -3.015625 7.46875 -3.3125 7.46875 -3.515625 C 7.46875 -4.140625 7.171875 -4.375 6.859375 -4.375 C 6.15625 -4.375 5.609375 -3.765625 5.03125 -3.046875 C 5.046875 -3.203125 5.0625 -3.375 5.0625 -3.515625 C 5.0625 -4.203125 4.765625 -4.375 4.484375 -4.375 C 3.765625 -4.375 3.125 -3.84375 2.53125 -3.09375 L 2.515625 -3.09375 C 2.609375 -3.46875 2.75 -3.96875 2.75 -4.140625 Z M 2.75 -4.140625 "/>
</symbol>
<symbol overflow="visible" id="glyph2-0">
<path style="stroke:none;" d="M 0.390625 -4.8125 L 1.75 -2.78125 L 0.390625 -0.75 Z M 0.640625 -0.390625 L 1.984375 -2.421875 L 3.34375 -0.390625 Z M 2.234375 -2.78125 L 3.578125 -4.8125 L 3.578125 -0.75 Z M 1.984375 -3.140625 L 0.640625 -5.15625 L 3.34375 -5.15625 Z M 0 0 L 3.984375 0 L 3.984375 -5.5625 L 0 -5.5625 Z M 0 0 "/>
</symbol>
<symbol overflow="visible" id="glyph2-1">
<path style="stroke:none;" d="M 2.609375 -3.515625 C 2.671875 -3.625 2.71875 -3.734375 2.71875 -3.84375 C 2.71875 -4.015625 2.625 -4.1875 2.421875 -4.28125 C 2.328125 -4.328125 2.25 -4.34375 2.1875 -4.34375 C 1.953125 -4.34375 1.78125 -4.171875 1.71875 -4 L 0.265625 -0.765625 C 0.25 -0.71875 0.234375 -0.640625 0.234375 -0.59375 C 0.234375 -0.484375 0.34375 -0.375 0.484375 -0.375 C 0.546875 -0.375 0.625 -0.453125 0.671875 -0.515625 Z M 2.609375 -3.515625 "/>
</symbol>
</g>
<linearGradient id="linear0" gradientUnits="userSpaceOnUse" x1="74" y1="391" x2="74" y2="383" gradientTransform="matrix(1,0,0,-1,-73.3,459.5)">
<stop offset="0" style="stop-color:rgb(94.1%,94.1%,94.1%);stop-opacity:1;"/>
<stop offset="1" style="stop-color:rgb(100%,100%,100%);stop-opacity:1;"/>
</linearGradient>
<linearGradient id="linear1" gradientUnits="userSpaceOnUse" x1="254" y1="424" x2="254" y2="416" gradientTransform="matrix(1,0,0,-1,-93.3,466.5)">
<stop offset="0" style="stop-color:rgb(100%,100%,100%);stop-opacity:1;"/>
<stop offset="1" style="stop-color:rgb(0%,0%,0%);stop-opacity:1;"/>
</linearGradient>
<linearGradient id="linear2" gradientUnits="userSpaceOnUse" x1="254" y1="424" x2="254" y2="416" gradientTransform="matrix(1,0,0,-1,-29.3,474.5)">
<stop offset="0" style="stop-color:rgb(100%,100%,100%);stop-opacity:1;"/>
<stop offset="1" style="stop-color:rgb(0%,0%,0%);stop-opacity:1;"/>
</linearGradient>
<linearGradient id="linear3" gradientUnits="userSpaceOnUse" x1="307.6" y1="391" x2="307.6" y2="383" gradientTransform="matrix(1,0,0,-1,-73.3,459.5)">
<stop offset="0" style="stop-color:rgb(12.9%,55.7%,98.8%);stop-opacity:1;"/>
<stop offset="1" style="stop-color:rgb(100%,100%,100%);stop-opacity:1;"/>
</linearGradient>
</defs>
<g id="surface1">
<path style=" stroke:none;fill-rule:evenodd;fill:url(#linear0);" d="M 0.699219 76.5 L 0.699219 44.5 L 6.699219 58.5 L 18.699219 39.5 L 30.699219 51.5 L 42.699219 27.5 L 54.699219 35.5 L 66.699219 13.5 L 78.699219 23.5 L 90.699219 2.5 L 102.699219 8.5 L 114.699219 24.5 L 126.699219 48.5 L 138.699219 66.5 L 144.699219 55.734375 L 144.699219 76.5 Z M 0.699219 76.5 "/>
<path style=" stroke:none;fill-rule:evenodd;fill:rgb(0%,0%,0%);fill-opacity:1;" d="M 56.5 35.5 C 56.5 33.101562 52.898438 33.101562 52.898438 35.5 C 52.898438 37.898438 56.5 37.898438 56.5 35.5 Z M 56.5 35.5 "/>
<path style=" stroke:none;fill-rule:evenodd;fill:rgb(0%,0%,0%);fill-opacity:1;" d="M 68.5 13.5 C 68.5 11.101562 64.898438 11.101562 64.898438 13.5 C 64.898438 15.898438 68.5 15.898438 68.5 13.5 Z M 68.5 13.5 "/>
<path style=" stroke:none;fill-rule:evenodd;fill:rgb(0%,0%,0%);fill-opacity:1;" d="M 80.5 23.5 C 80.5 21.101562 76.898438 21.101562 76.898438 23.5 C 76.898438 25.898438 80.5 25.898438 80.5 23.5 Z M 80.5 23.5 "/>
<path style="fill:none;stroke-width:0.8;stroke-linecap:round;stroke-linejoin:round;stroke:rgb(0%,0%,0%);stroke-opacity:1;stroke-miterlimit:10;" d="M 127.999219 424 L 139.999219 446 " transform="matrix(1,0,0,-1,-73.3,459.5)"/>
<path style="fill:none;stroke-width:0.8;stroke-linecap:round;stroke-linejoin:round;stroke:rgb(0%,0%,0%);stroke-opacity:1;stroke-miterlimit:10;" d="M 139.999219 446 L 151.999219 436 " transform="matrix(1,0,0,-1,-73.3,459.5)"/>
<path style="fill:none;stroke-width:0.8;stroke-linecap:round;stroke-linejoin:round;stroke:rgb(0%,0%,0%);stroke-opacity:1;stroke-miterlimit:10;" d="M 151.999219 436 L 163.999219 457 " transform="matrix(1,0,0,-1,-73.3,459.5)"/>
<path style="fill:none;stroke-width:0.8;stroke-linecap:round;stroke-linejoin:round;stroke:rgb(0%,0%,0%);stroke-opacity:1;stroke-miterlimit:10;" d="M 211.999219 393 L 217.999219 403.765625 " transform="matrix(1,0,0,-1,-73.3,459.5)"/>
<path style="fill:none;stroke-width:0.8;stroke-linecap:round;stroke-linejoin:round;stroke:rgb(0%,0%,0%);stroke-opacity:1;stroke-dasharray:2,3;stroke-miterlimit:10;" d="M 127.999219 424 L 193.499219 424 " transform="matrix(1,0,0,-1,-73.3,459.5)"/>
<path style=" stroke:none;fill-rule:evenodd;fill:rgb(83.6%,0%,28.9%);fill-opacity:1;" d="M 128.5 48.5 C 128.5 46.101562 124.898438 46.101562 124.898438 48.5 C 124.898438 50.898438 128.5 50.898438 128.5 48.5 Z M 128.5 48.5 "/>
<g style="fill:rgb(0%,0%,0%);fill-opacity:1;">
  <use xlink:href="#glyph0-1" x="51.9255" y="43.49"/>
</g>
<g style="fill:rgb(0%,0%,0%);fill-opacity:1;">
  <use xlink:href="#glyph0-2" x="134.6875" y="74.49"/>
</g>
<path style=" stroke:none;fill-rule:evenodd;fill:rgb(0%,0%,0%);fill-opacity:1;" d="M 44.5 27.5 C 44.5 25.101562 40.898438 25.101562 40.898438 27.5 C 40.898438 29.898438 44.5 29.898438 44.5 27.5 Z M 44.5 27.5 "/>
<path style=" stroke:none;fill-rule:evenodd;fill:rgb(0%,0%,0%);fill-opacity:1;" d="M 32.5 51.5 C 32.5 49.101562 28.898438 49.101562 28.898438 51.5 C 28.898438 53.898438 32.5 53.898438 32.5 51.5 Z M 32.5 51.5 "/>
<path style=" stroke:none;fill-rule:evenodd;fill:rgb(0%,0%,0%);fill-opacity:1;" d="M 20.5 39.5 C 20.5 37.101562 16.898438 37.101562 16.898438 39.5 C 16.898438 41.898438 20.5 41.898438 20.5 39.5 Z M 20.5 39.5 "/>
<path style="fill:none;stroke-width:0.8;stroke-linecap:round;stroke-linejoin:round;stroke:rgb(0%,0%,0%);stroke-opacity:1;stroke-miterlimit:10;" d="M 91.999219 420 L 103.999219 408 " transform="matrix(1,0,0,-1,-73.3,459.5)"/>
<path style="fill:none;stroke-width:0.8;stroke-linecap:round;stroke-linejoin:round;stroke:rgb(0%,0%,0%);stroke-opacity:1;stroke-miterlimit:10;" d="M 103.999219 408 L 115.999219 432 " transform="matrix(1,0,0,-1,-73.3,459.5)"/>
<path style="fill:none;stroke-width:0.8;stroke-linecap:round;stroke-linejoin:round;stroke:rgb(0%,0%,0%);stroke-opacity:1;stroke-miterlimit:10;" d="M 115.999219 432 L 127.999219 424 " transform="matrix(1,0,0,-1,-73.3,459.5)"/>
<path style="fill:none;stroke-width:0.8;stroke-linecap:butt;stroke-linejoin:round;stroke:rgb(83.6%,0%,28.9%);stroke-opacity:1;stroke-miterlimit:10;" d="M 175.999219 451 L 187.999219 435 " transform="matrix(1,0,0,-1,-73.3,459.5)"/>
<g style="fill:rgb(0%,0%,0%);fill-opacity:1;">
  <use xlink:href="#glyph0-3" x="75.756" y="18.49"/>
</g>
<path style=" stroke:none;fill-rule:evenodd;fill:rgb(0%,0%,0%);fill-opacity:1;" d="M 8.5 58.5 C 8.5 56.101562 4.898438 56.101562 4.898438 58.5 C 4.898438 60.898438 8.5 60.898438 8.5 58.5 Z M 8.5 58.5 "/>
<path style="fill:none;stroke-width:0.8;stroke-linecap:round;stroke-linejoin:round;stroke:rgb(0%,0%,0%);stroke-opacity:1;stroke-miterlimit:10;" d="M 73.999219 415 L 79.999219 401 " transform="matrix(1,0,0,-1,-73.3,459.5)"/>
<path style="fill:none;stroke-width:0.8;stroke-linecap:round;stroke-linejoin:round;stroke:rgb(0%,0%,0%);stroke-opacity:1;stroke-miterlimit:10;" d="M 79.999219 401 L 91.999219 420 " transform="matrix(1,0,0,-1,-73.3,459.5)"/>
<path style="fill:none;stroke-width:0.8;stroke-linecap:round;stroke-linejoin:round;stroke:rgb(83.6%,0%,28.9%);stroke-opacity:1;stroke-miterlimit:10;" d="M 163.999219 457 L 175.999219 451 " transform="matrix(1,0,0,-1,-73.3,459.5)"/>
<path style=" stroke:none;fill-rule:evenodd;fill:rgb(0%,0%,0%);fill-opacity:1;" d="M 196.5 13.5 C 196.5 11.101562 192.898438 11.101562 192.898438 13.5 C 192.898438 15.898438 196.5 15.898438 196.5 13.5 Z M 196.5 13.5 "/>
<path style=" stroke:none;fill-rule:evenodd;fill:rgb(0%,0%,0%);fill-opacity:1;" d="M 204.5 23.5 C 204.5 21.101562 200.898438 21.101562 200.898438 23.5 C 200.898438 25.898438 204.5 25.898438 204.5 23.5 Z M 204.5 23.5 "/>
<path style=" stroke:none;fill-rule:evenodd;fill:rgb(0%,0%,0%);fill-opacity:1;" d="M 188.5 27.5 C 188.5 25.101562 184.898438 25.101562 184.898438 27.5 C 184.898438 29.898438 188.5 29.898438 188.5 27.5 Z M 188.5 27.5 "/>
<path style=" stroke:none;fill-rule:evenodd;fill:rgb(0%,0%,0%);fill-opacity:1;" d="M 180.5 39.5 C 180.5 37.101562 176.898438 37.101562 176.898438 39.5 C 176.898438 41.898438 180.5 41.898438 180.5 39.5 Z M 180.5 39.5 "/>
<path style=" stroke:none;fill-rule:evenodd;fill:rgb(0%,0%,0%);fill-opacity:1;" d="M 212.5 2.5 C 212.5 0.101562 208.898438 0.101562 208.898438 2.5 C 208.898438 4.898438 212.5 4.898438 212.5 2.5 Z M 212.5 2.5 "/>
<g style="fill:rgb(0%,0%,0%);fill-opacity:1;">
  <use xlink:href="#glyph0-2" x="221.7" y="73.49"/>
</g>
<path style="fill:none;stroke-width:0.8;stroke-linecap:round;stroke-linejoin:round;stroke:rgb(0%,0%,0%);stroke-opacity:1;stroke-miterlimit:10;" d="M 235.999219 409 C 235.999219 404.582031 239.58125 401 243.999219 401 " transform="matrix(1,0,0,-1,-73.3,459.5)"/>
<path style="fill:none;stroke-width:0.8;stroke-linecap:round;stroke-linejoin:round;stroke:rgb(12.9%,55.7%,98.8%);stroke-opacity:1;stroke-miterlimit:10;" d="M 252.061719 401 C 256.092969 401 259.495313 404 259.999219 408 " transform="matrix(1,0,0,-1,-73.3,459.5)"/>
<path style="fill:none;stroke-width:0.8;stroke-linecap:round;stroke-linejoin:round;stroke:rgb(0%,0%,0%);stroke-opacity:1;stroke-miterlimit:10;" d="M 251.936719 416 C 251.936719 411.582031 255.51875 408 259.936719 408 " transform="matrix(1,0,0,-1,-73.3,459.5)"/>
<path style="fill:none;stroke-width:0.8;stroke-linecap:round;stroke-linejoin:round;stroke:rgb(0%,0%,0%);stroke-opacity:1;stroke-miterlimit:10;" d="M 251.936719 416 L 251.999219 420 " transform="matrix(1,0,0,-1,-73.3,459.5)"/>
<path style="fill:none;stroke-width:0.8;stroke-linecap:round;stroke-linejoin:round;stroke:rgb(12.9%,55.7%,98.8%);stroke-opacity:1;stroke-miterlimit:10;" d="M 259.999219 408 C 264.417188 408 267.999219 411.582031 267.999219 416 " transform="matrix(1,0,0,-1,-73.3,459.5)"/>
<path style="fill:none;stroke-width:0.8;stroke-linecap:round;stroke-linejoin:round;stroke:rgb(12.9%,55.7%,98.8%);stroke-opacity:1;stroke-miterlimit:10;" d="M 267.999219 416 L 267.999219 424 " transform="matrix(1,0,0,-1,-73.3,459.5)"/>
<path style=" stroke:none;fill-rule:evenodd;fill:url(#linear1);" d="M 162.300781 50.5 L 162.300781 42.5 L 163.101562 42.5 L 163.101562 50.5 Z M 162.300781 50.5 "/>
<path style="fill:none;stroke-width:0.8;stroke-linecap:round;stroke-linejoin:round;stroke:rgb(0%,0%,0%);stroke-opacity:1;stroke-miterlimit:10;" d="M 243.999219 401 L 247.999219 401 " transform="matrix(1,0,0,-1,-73.3,459.5)"/>
<path style="fill:none;stroke-width:0.8;stroke-linecap:round;stroke-linejoin:round;stroke:rgb(0%,0%,0%);stroke-opacity:1;stroke-miterlimit:10;" d="M 267.999219 424 C 263.58125 424 259.999219 427.582031 259.999219 432 " transform="matrix(1,0,0,-1,-73.3,459.5)"/>
<path style="fill:none;stroke-width:0.8;stroke-linecap:round;stroke-linejoin:round;stroke:rgb(0%,0%,0%);stroke-opacity:1;stroke-miterlimit:10;" d="M 268.061719 424 C 272.479688 424 276.061719 427.582031 276.061719 432 " transform="matrix(1,0,0,-1,-73.3,459.5)"/>
<path style="fill:none;stroke-width:0.8;stroke-linecap:round;stroke-linejoin:round;stroke:rgb(0%,0%,0%);stroke-opacity:1;stroke-miterlimit:10;" d="M 276.061719 432 L 275.999219 436 " transform="matrix(1,0,0,-1,-73.3,459.5)"/>
<path style="fill:none;stroke-width:0.8;stroke-linecap:round;stroke-linejoin:round;stroke:rgb(0%,0%,0%);stroke-opacity:1;stroke-miterlimit:10;" d="M 275.999219 436 C 271.58125 436 267.999219 439.582031 267.999219 444 " transform="matrix(1,0,0,-1,-73.3,459.5)"/>
<path style="fill:none;stroke-width:0.8;stroke-linecap:round;stroke-linejoin:round;stroke:rgb(0%,0%,0%);stroke-opacity:1;stroke-miterlimit:10;" d="M 267.999219 444 L 267.999219 446 " transform="matrix(1,0,0,-1,-73.3,459.5)"/>
<path style="fill:none;stroke-width:0.8;stroke-linecap:round;stroke-linejoin:round;stroke:rgb(0%,0%,0%);stroke-opacity:1;stroke-miterlimit:10;" d="M 275.999219 436 C 280.417188 436 283.999219 439.582031 283.999219 444 " transform="matrix(1,0,0,-1,-73.3,459.5)"/>
<path style="fill:none;stroke-width:0.8;stroke-linecap:round;stroke-linejoin:round;stroke:rgb(0%,0%,0%);stroke-opacity:1;stroke-miterlimit:10;" d="M 283.999219 444 L 283.999219 456 " transform="matrix(1,0,0,-1,-73.3,459.5)"/>
<path style=" stroke:none;fill-rule:evenodd;fill:url(#linear2);" d="M 226.300781 58.5 L 226.300781 50.5 L 227.101562 50.5 L 227.101562 58.5 Z M 226.300781 58.5 "/>
<path style="fill:none;stroke-width:0.8;stroke-linecap:round;stroke-linejoin:round;stroke:rgb(0%,0%,0%);stroke-opacity:1;stroke-miterlimit:10;" d="M 299.999219 401 C 299.999219 396.582031 296.417188 393 291.999219 393 " transform="matrix(1,0,0,-1,-73.3,459.5)"/>
<g style="fill:rgb(0%,0%,0%);fill-opacity:1;">
  <use xlink:href="#glyph0-1" x="196.763" y="42.49"/>
</g>
<g style="fill:rgb(0%,0%,0%);fill-opacity:1;">
  <use xlink:href="#glyph0-3" x="204.7" y="30.49"/>
</g>
<g style="fill:rgb(0%,0%,0%);fill-opacity:1;">
  <use xlink:href="#glyph1-1" x="162.3" y="67.49"/>
</g>
<g style="fill:rgb(0%,0%,0%);fill-opacity:1;">
  <use xlink:href="#glyph2-1" x="170.325" y="63.874"/>
</g>
<path style="fill:none;stroke-width:0.8;stroke-linecap:round;stroke-linejoin:round;stroke:rgb(12.9%,55.7%,98.8%);stroke-opacity:1;stroke-miterlimit:10;" d="M 291.999219 393 L 291.999219 391 " transform="matrix(1,0,0,-1,-73.3,459.5)"/>
<g style="fill:rgb(0%,0%,0%);fill-opacity:1;">
  <use xlink:href="#glyph1-1" x="1" y="67.49"/>
</g>
<g style="fill:rgb(0%,0%,0%);fill-opacity:1;">
  <use xlink:href="#glyph2-1" x="9.025" y="63.874"/>
</g>
<path style="fill:none;stroke-width:0.4;stroke-linecap:round;stroke-linejoin:round;stroke:rgb(0%,0%,0%);stroke-opacity:1;stroke-dasharray:1,1.7;stroke-miterlimit:10;" d="M 163.999219 457 L 283.999219 457 " transform="matrix(1,0,0,-1,-73.3,459.5)"/>
<path style="fill:none;stroke-width:0.4;stroke-linecap:round;stroke-linejoin:round;stroke:rgb(0%,0%,0%);stroke-opacity:1;stroke-dasharray:1,1.7;stroke-miterlimit:10;" d="M 151.999219 436 L 275.999219 436 " transform="matrix(1,0,0,-1,-73.3,459.5)"/>
<path style="fill:none;stroke-width:0.4;stroke-linecap:round;stroke-linejoin:round;stroke:rgb(0%,0%,0%);stroke-opacity:1;stroke-dasharray:1,1.7;stroke-miterlimit:10;" d="M 139.999219 446 L 267.999219 446 " transform="matrix(1,0,0,-1,-73.3,459.5)"/>
<path style="fill:none;stroke-width:0.4;stroke-linecap:round;stroke-linejoin:round;stroke:rgb(0%,0%,0%);stroke-opacity:1;stroke-dasharray:1,1.7;stroke-miterlimit:10;" d="M 115.999219 432 L 259.999219 432 " transform="matrix(1,0,0,-1,-73.3,459.5)"/>
<path style="fill:none;stroke-width:0.4;stroke-linecap:round;stroke-linejoin:round;stroke:rgb(0%,0%,0%);stroke-opacity:1;stroke-dasharray:1,1.7;stroke-miterlimit:10;" d="M 193.499219 424 L 268.061719 424 " transform="matrix(1,0,0,-1,-73.3,459.5)"/>
<path style="fill:none;stroke-width:0.4;stroke-linecap:round;stroke-linejoin:round;stroke:rgb(0%,0%,0%);stroke-opacity:1;stroke-dasharray:1,1.7;stroke-miterlimit:10;" d="M 103.999219 408 L 259.999219 408 " transform="matrix(1,0,0,-1,-73.3,459.5)"/>
<path style="fill:none;stroke-width:0.4;stroke-linecap:round;stroke-linejoin:round;stroke:rgb(0%,0%,0%);stroke-opacity:1;stroke-dasharray:1,1.7;stroke-miterlimit:10;" d="M 91.999219 420 L 251.999219 420 " transform="matrix(1,0,0,-1,-73.3,459.5)"/>
<path style="fill:none;stroke-width:0.4;stroke-linecap:round;stroke-linejoin:round;stroke:rgb(0%,0%,0%);stroke-opacity:1;stroke-dasharray:1,1.7;stroke-miterlimit:10;" d="M 79.999219 401 L 247.999219 401 " transform="matrix(1,0,0,-1,-73.3,459.5)"/>
<path style="fill:none;stroke-width:0.4;stroke-linecap:round;stroke-linejoin:round;stroke:rgb(0%,0%,0%);stroke-opacity:1;stroke-dasharray:1,1.7;stroke-miterlimit:10;" d="M 211.999219 393 L 291.999219 393 " transform="matrix(1,0,0,-1,-73.3,459.5)"/>
<path style=" stroke:none;fill-rule:evenodd;fill:rgb(83.6%,0%,28.9%);fill-opacity:1;" d="M 140.5 66.5 C 140.5 64.101562 136.898438 64.101562 136.898438 66.5 C 136.898438 68.898438 140.5 68.898438 140.5 66.5 Z M 140.5 66.5 "/>
<path style="fill:none;stroke-width:0.8;stroke-linecap:round;stroke-linejoin:round;stroke:rgb(12.9%,55.7%,98.8%);stroke-opacity:1;stroke-miterlimit:10;" d="M 247.999219 401 C 247.999219 396.582031 251.58125 393 255.999219 393 " transform="matrix(1,0,0,-1,-73.3,459.5)"/>
<path style="fill:none;stroke-width:0.8;stroke-linecap:round;stroke-linejoin:round;stroke:rgb(12.9%,55.7%,98.8%);stroke-opacity:1;stroke-miterlimit:10;" d="M 255.999219 393 L 291.999219 393 " transform="matrix(1,0,0,-1,-73.3,459.5)"/>
<path style=" stroke:none;fill-rule:evenodd;fill:rgb(12.9%,55.7%,98.8%);fill-opacity:1;" d="M 176.5 58.5 C 176.5 56.101562 172.898438 56.101562 172.898438 58.5 C 172.898438 60.898438 176.5 60.898438 176.5 58.5 Z M 176.5 58.5 "/>
<path style="fill:none;stroke-width:0.8;stroke-linecap:butt;stroke-linejoin:round;stroke:rgb(83.6%,0%,28.9%);stroke-opacity:1;stroke-miterlimit:10;" d="M 199.999219 411 L 211.999219 393 " transform="matrix(1,0,0,-1,-73.3,459.5)"/>
<path style="fill:none;stroke-width:0.8;stroke-linecap:butt;stroke-linejoin:round;stroke:rgb(83.6%,0%,28.9%);stroke-opacity:1;stroke-miterlimit:10;" d="M 187.999219 435 L 199.999219 411 " transform="matrix(1,0,0,-1,-73.3,459.5)"/>
<path style=" stroke:none;fill-rule:evenodd;fill:rgb(100%,100%,100%);fill-opacity:1;" d="M 121.699219 35.5 C 121.699219 33.5 118.699219 33.5 118.699219 35.5 C 118.699219 37.5 121.699219 37.5 121.699219 35.5 Z M 121.699219 35.5 "/>
<path style=" stroke:none;fill-rule:evenodd;fill:rgb(0%,0%,0%);fill-opacity:1;" d="M 122 35.5 C 122 33.101562 118.398438 33.101562 118.398438 35.5 C 118.398438 37.898438 122 37.898438 122 35.5 Z M 121.398438 35.5 C 121.398438 33.898438 119 33.898438 119 35.5 C 119 37.101562 121.398438 37.101562 121.398438 35.5 Z M 121.398438 35.5 "/>
<path style=" stroke:none;fill-rule:evenodd;fill:rgb(83.6%,0%,28.9%);fill-opacity:1;" d="M 116.5 24.5 C 116.5 22.101562 112.898438 22.101562 112.898438 24.5 C 112.898438 26.898438 116.5 26.898438 116.5 24.5 Z M 116.5 24.5 "/>
<path style=" stroke:none;fill-rule:evenodd;fill:rgb(83.6%,0%,28.9%);fill-opacity:1;" d="M 104.5 8.5 C 104.5 6.101562 100.898438 6.101562 100.898438 8.5 C 100.898438 10.898438 104.5 10.898438 104.5 8.5 Z M 104.5 8.5 "/>
<path style=" stroke:none;fill-rule:evenodd;fill:rgb(83.6%,0%,28.9%);fill-opacity:1;" d="M 92.5 2.5 C 92.5 0.101562 88.898438 0.101562 88.898438 2.5 C 88.898438 4.898438 92.5 4.898438 92.5 2.5 Z M 92.5 2.5 "/>
<path style=" stroke:none;fill-rule:evenodd;fill:rgb(12.9%,55.7%,98.8%);fill-opacity:1;" d="M 220.5 66.5 C 220.5 64.101562 216.898438 64.101562 216.898438 66.5 C 216.898438 68.898438 220.5 68.898438 220.5 66.5 Z M 220.5 66.5 "/>
<path style="fill:none;stroke-width:0.8;stroke-linecap:round;stroke-linejoin:round;stroke:rgb(12.9%,55.7%,98.8%);stroke-opacity:1;stroke-miterlimit:10;" d="M 247.999219 401 L 252.061719 401 " transform="matrix(1,0,0,-1,-73.3,459.5)"/>
<path style=" stroke:none;fill-rule:evenodd;fill:rgb(12.9%,55.7%,98.8%);fill-opacity:1;" d="M 188.5 51.5 C 188.5 49.101562 184.898438 49.101562 184.898438 51.5 C 184.898438 53.898438 188.5 53.898438 188.5 51.5 Z M 188.5 51.5 "/>
<path style=" stroke:none;fill-rule:evenodd;fill:rgb(12.9%,55.7%,98.8%);fill-opacity:1;" d="M 196.5 35.5 C 196.5 33.101562 192.898438 33.101562 192.898438 35.5 C 192.898438 37.898438 196.5 37.898438 196.5 35.5 Z M 196.5 35.5 "/>
<path style=" stroke:none;fill-rule:evenodd;fill:url(#linear3);" d="M 219.101562 68.5 L 219.101562 76.5 L 218.300781 76.5 L 218.300781 68.5 Z M 219.101562 68.5 "/>
<g style="fill:rgb(12.9%,55.7%,98.8%);fill-opacity:1;">
  <use xlink:href="#glyph0-4" x="192.0125" y="72.7883"/>
</g>
</g>
</svg>
