<?xml version="1.0" encoding="UTF-8"?>
<svg xmlns="http://www.w3.org/2000/svg" xmlns:xlink="http://www.w3.org/1999/xlink" width="105pt" height="49pt" viewBox="0 0 105 49" version="1.1">
<defs>
<g>
<symbol overflow="visible" id="glyph0-0">
<path style="stroke:none;" d="M 0.5 -6.015625 L 2.1875 -3.484375 L 0.5 -0.953125 Z M 0.796875 -0.5 L 2.5 -3.03125 L 4.1875 -0.5 Z M 2.796875 -3.484375 L 4.484375 -6.015625 L 4.484375 -0.953125 Z M 2.5 -3.921875 L 0.796875 -6.453125 L 4.1875 -6.453125 Z M 0 0 L 4.984375 0 L 4.984375 -6.953125 L 0 -6.953125 Z M 0 0 "/>
</symbol>
<symbol overflow="visible" id="glyph0-1">
<path style="stroke:none;" d="M 3.25 -1.890625 L 3.25 -4.421875 C 3.25 -5.5 3.3125 -5.890625 3.328125 -6.03125 C 3.328125 -6.078125 3.296875 -6.078125 3.265625 -6.078125 C 2.609375 -5.875 1.859375 -5.484375 1.078125 -5.25 L 1.140625 -4.953125 C 1.578125 -5 2.078125 -5.109375 2.265625 -5.109375 C 2.453125 -5.109375 2.453125 -4.71875 2.453125 -4.359375 L 2.453125 -1.890625 C 2.453125 -1.109375 2.4375 -0.5625 2.375 0 L 2.375 0.03125 C 2.375 0.03125 2.65625 0 2.84375 0 C 3.046875 0 3.3125 0.03125 3.3125 0.03125 L 3.34375 0 C 3.265625 -0.59375 3.25 -1.09375 3.25 -1.890625 Z M 3.25 -1.890625 "/>
</symbol>
<symbol overflow="visible" id="glyph0-2">
<path style="stroke:none;" d="M 2.21875 -5.515625 C 2.734375 -5.515625 3.265625 -5.03125 3.265625 -4.34375 C 3.265625 -3.921875 3.15625 -3.390625 2.890625 -3 C 2.171875 -1.9375 1.03125 -0.9375 0.53125 -0.46875 C 0.53125 -0.421875 0.53125 -0.390625 0.53125 -0.34375 C 0.53125 -0.1875 0.578125 -0.046875 0.625 0.046875 C 1.359375 0.03125 1.78125 0 2.515625 0 C 3.234375 0 3.53125 0.015625 4.25 0.046875 C 4.234375 -0.046875 4.21875 -0.171875 4.21875 -0.28125 C 4.21875 -0.4375 4.234375 -0.59375 4.265625 -0.75 C 3.703125 -0.703125 3.40625 -0.671875 2.4375 -0.671875 C 2.09375 -0.671875 1.890625 -0.671875 1.625 -0.640625 C 1.609375 -0.671875 1.609375 -0.671875 1.609375 -0.703125 C 1.609375 -0.78125 1.71875 -0.890625 1.78125 -0.96875 C 2.265625 -1.4375 2.734375 -1.890625 3.40625 -2.765625 C 3.765625 -3.265625 4.125 -3.90625 4.125 -4.46875 C 4.125 -5.421875 3.484375 -6.078125 2.375 -6.078125 C 1.46875 -6.078125 0.890625 -5.578125 0.65625 -5.28125 L 0.875 -4.578125 L 1 -4.578125 C 1.140625 -4.875 1.203125 -5.078125 1.453125 -5.28125 C 1.640625 -5.4375 1.9375 -5.515625 2.21875 -5.515625 Z M 2.21875 -5.515625 "/>
</symbol>
<symbol overflow="visible" id="glyph0-3">
<path style="stroke:none;" d="M 2.078125 -0.296875 C 1.296875 -0.296875 1.1875 -0.59375 0.921875 -1.171875 L 0.765625 -1.15625 L 0.546875 -0.40625 L 0.578125 -0.375 C 0.84375 -0.15625 1.265625 0.09375 2.0625 0.09375 C 2.90625 0.09375 4.25 -0.484375 4.25 -1.796875 C 4.25 -2.578125 3.640625 -3.140625 2.875 -3.203125 L 2.875 -3.265625 C 3.390625 -3.375 4.046875 -3.953125 4.046875 -4.78125 C 4.046875 -5.5 3.421875 -6.078125 2.4375 -6.078125 C 1.671875 -6.078125 1.109375 -5.734375 0.875 -5.515625 L 0.84375 -5.5 L 1.046875 -4.859375 L 1.203125 -4.84375 C 1.4375 -5.40625 1.75 -5.6875 2.359375 -5.6875 C 2.734375 -5.6875 3.1875 -5.28125 3.1875 -4.640625 C 3.1875 -4.203125 3.03125 -3.875 2.796875 -3.65625 C 2.609375 -3.46875 2.3125 -3.375 1.96875 -3.375 C 1.859375 -3.375 1.75 -3.390625 1.609375 -3.40625 L 1.609375 -2.96875 C 1.71875 -2.984375 1.9375 -2.984375 2.03125 -2.984375 C 2.34375 -2.984375 2.71875 -2.90625 3 -2.671875 C 3.265625 -2.453125 3.390625 -2.109375 3.390625 -1.71875 C 3.390625 -0.515625 2.4375 -0.296875 2.078125 -0.296875 Z M 2.078125 -0.296875 "/>
</symbol>
<symbol overflow="visible" id="glyph0-4">
<path style="stroke:none;" d="M 2.84375 -1.46875 C 2.84375 -0.703125 2.828125 -0.515625 2.765625 0 L 2.78125 0.03125 C 2.78125 0.03125 3.09375 0 3.25 0 C 3.40625 0 3.578125 0.03125 3.671875 0.03125 C 3.671875 0.03125 3.6875 0.015625 3.6875 0 C 3.65625 -0.578125 3.625 -0.890625 3.625 -1.46875 L 4.125 -1.46875 C 4.265625 -1.46875 4.421875 -1.703125 4.421875 -1.8125 C 4.421875 -1.90625 4.359375 -1.96875 4.265625 -1.96875 L 3.625 -1.96875 L 3.625 -4.5 C 3.625 -4.828125 3.640625 -5.515625 3.6875 -5.984375 C 3.6875 -6 3.671875 -6.015625 3.671875 -6.015625 C 3.578125 -6.015625 3.421875 -5.984375 3.28125 -5.984375 C 3.125 -5.984375 2.9375 -6.015625 2.9375 -6.015625 C 2.9375 -6.015625 2.90625 -5.984375 2.90625 -5.984375 C 2.296875 -5.140625 0.859375 -2.953125 0.34375 -2.0625 C 0.234375 -1.890625 0.203125 -1.78125 0.203125 -1.671875 C 0.203125 -1.53125 0.4375 -1.46875 0.796875 -1.46875 Z M 2.84375 -5.109375 L 2.84375 -1.96875 L 0.828125 -1.96875 Z M 2.84375 -5.109375 "/>
</symbol>
<symbol overflow="visible" id="glyph0-5">
<path style="stroke:none;" d="M 2.015625 0.09375 C 3.203125 0.09375 4.046875 -0.78125 4.046875 -1.953125 C 4.046875 -2.921875 3.40625 -3.78125 2.28125 -3.78125 C 1.875 -3.78125 1.421875 -3.71875 1.203125 -3.640625 L 1.40625 -5.40625 C 1.78125 -5.359375 2.203125 -5.3125 2.671875 -5.3125 C 2.96875 -5.3125 3.3125 -5.328125 3.71875 -5.375 L 3.875 -6.046875 L 3.8125 -6.078125 C 3.234375 -6.015625 2.703125 -5.984375 2.171875 -5.984375 C 1.796875 -5.984375 1.375 -6.015625 1.03125 -6.046875 L 0.71875 -3.109375 L 0.78125 -3.078125 C 1.1875 -3.234375 1.5625 -3.390625 2.03125 -3.390625 C 2.671875 -3.390625 3.171875 -2.875 3.171875 -1.78125 C 3.171875 -0.875 2.71875 -0.296875 2.03125 -0.296875 C 1.28125 -0.296875 1.15625 -0.703125 0.828125 -1.296875 L 0.6875 -1.28125 L 0.46875 -0.484375 L 0.515625 -0.453125 C 0.75 -0.234375 1.25 0.09375 2.015625 0.09375 Z M 2.015625 0.09375 "/>
</symbol>
<symbol overflow="visible" id="glyph0-6">
<path style="stroke:none;" d="M 1.265625 -2.765625 C 1.65625 -3.15625 2.046875 -3.171875 2.265625 -3.171875 C 3.28125 -3.171875 3.421875 -2.21875 3.421875 -1.71875 C 3.421875 -0.625 3.015625 -0.265625 2.546875 -0.265625 C 2.015625 -0.265625 1.25 -0.625 1.25 -2.390625 C 1.25 -2.5 1.25 -2.65625 1.265625 -2.765625 Z M 3.984375 -5.8125 L 3.953125 -6.09375 C 2.9375 -6.03125 2.203125 -5.75 1.53125 -5.0625 C 0.796875 -4.34375 0.453125 -3.390625 0.453125 -2.421875 C 0.453125 -0.328125 1.671875 0.09375 2.4375 0.09375 C 3.890625 0.09375 4.3125 -1.078125 4.3125 -1.796875 C 4.3125 -2.265625 4.03125 -3.5625 2.484375 -3.5625 C 2.078125 -3.5625 1.53125 -3.34375 1.28125 -3.046875 C 1.390625 -3.890625 1.75 -4.609375 2.234375 -5.078125 C 2.734375 -5.5625 3.296875 -5.734375 3.984375 -5.8125 Z M 3.984375 -5.8125 "/>
</symbol>
<symbol overflow="visible" id="glyph0-7">
<path style="stroke:none;" d="M 3.4375 -5.234375 C 2.65625 -3.3125 1.90625 -1.421875 1.234375 0.0625 L 1.265625 0.125 L 2 0.09375 C 2.5625 -1.609375 3.109375 -3.265625 4.234375 -5.984375 L 4.0625 -6.078125 C 3.90625 -6.03125 3.734375 -5.984375 3.421875 -5.984375 C 1.9375 -5.984375 1.0625 -5.984375 0.625 -6.046875 C 0.640625 -5.90625 0.671875 -5.78125 0.671875 -5.625 C 0.671875 -5.484375 0.640625 -5.296875 0.625 -5.140625 C 1.359375 -5.25 2.796875 -5.25 3.4375 -5.234375 Z M 3.4375 -5.234375 "/>
</symbol>
<symbol overflow="visible" id="glyph0-8">
<path style="stroke:none;" d="M 2.34375 -5.75 C 2.984375 -5.75 3.234375 -5.3125 3.234375 -4.84375 C 3.234375 -4.3125 2.703125 -3.828125 2.421875 -3.625 L 2.109375 -3.8125 C 1.484375 -4.21875 1.421875 -4.578125 1.421875 -4.890625 C 1.421875 -5.359375 1.75 -5.75 2.34375 -5.75 Z M 3.96875 -4.828125 C 3.96875 -5.546875 3.390625 -6.078125 2.40625 -6.078125 C 1.390625 -6.078125 0.671875 -5.484375 0.671875 -4.71875 C 0.671875 -4.15625 0.984375 -3.65625 1.546875 -3.328125 L 1.75 -3.21875 C 1.5 -3.03125 1.296875 -2.875 1.046875 -2.65625 C 0.640625 -2.296875 0.390625 -1.84375 0.390625 -1.453125 C 0.390625 -0.4375 1.203125 0.09375 2.25 0.09375 C 3.5625 0.09375 4.265625 -0.859375 4.265625 -1.609375 C 4.265625 -2.1875 3.953125 -2.625 3.40625 -2.984375 L 2.796875 -3.390625 C 3.234375 -3.6875 3.96875 -4.203125 3.96875 -4.828125 Z M 2.265625 -0.234375 C 1.8125 -0.234375 1.171875 -0.5625 1.171875 -1.453125 C 1.171875 -1.75 1.25 -2.421875 2.109375 -2.984375 L 2.5625 -2.703125 C 3.1875 -2.3125 3.4375 -1.875 3.4375 -1.40625 C 3.4375 -0.4375 2.734375 -0.234375 2.265625 -0.234375 Z M 2.265625 -0.234375 "/>
</symbol>
</g>
</defs>
<g id="surface1">
<path style="fill-rule:evenodd;fill:rgb(94.1%,94.1%,94.1%);fill-opacity:1;stroke-width:0.8;stroke-linecap:round;stroke-linejoin:round;stroke:rgb(0%,0%,0%);stroke-opacity:1;stroke-miterlimit:10;" d="M 95.998405 276.001562 L 95.998405 256.001562 L 111.998405 256.001562 L 111.998405 276.001562 Z M 95.998405 276.001562 " transform="matrix(1,0,0,-1,-95.599968,304.4)"/>
<path style="fill-rule:evenodd;fill:rgb(94.1%,94.1%,94.1%);fill-opacity:1;stroke-width:0.8;stroke-linecap:round;stroke-linejoin:round;stroke:rgb(0%,0%,0%);stroke-opacity:1;stroke-miterlimit:10;" d="M 95.998405 300.001562 L 95.998405 276.001562 L 123.998405 276.001562 L 123.998405 300.001562 Z M 95.998405 300.001562 " transform="matrix(1,0,0,-1,-95.599968,304.4)"/>
<path style="fill-rule:evenodd;fill:rgb(94.1%,94.1%,94.1%);fill-opacity:1;stroke-width:0.8;stroke-linecap:round;stroke-linejoin:round;stroke:rgb(0%,0%,0%);stroke-opacity:1;stroke-miterlimit:10;" d="M 123.998405 284.001562 L 123.998405 256.001562 L 135.998405 256.001562 L 135.998405 284.001562 Z M 123.998405 284.001562 " transform="matrix(1,0,0,-1,-95.599968,304.4)"/>
<path style="fill-rule:evenodd;fill:rgb(94.1%,94.1%,94.1%);fill-opacity:1;stroke-width:0.8;stroke-linecap:round;stroke-linejoin:round;stroke:rgb(0%,0%,0%);stroke-opacity:1;stroke-miterlimit:10;" d="M 159.998405 276.001562 L 159.998405 256.001562 L 175.998405 256.001562 L 175.998405 276.001562 Z M 159.998405 276.001562 " transform="matrix(1,0,0,-1,-95.599968,304.4)"/>
<path style="fill-rule:evenodd;fill:rgb(94.1%,94.1%,94.1%);fill-opacity:1;stroke-width:0.8;stroke-linecap:round;stroke-linejoin:round;stroke:rgb(0%,0%,0%);stroke-opacity:1;stroke-miterlimit:10;" d="M 175.998405 268.001562 L 175.998405 256.001562 L 195.998405 256.001562 L 195.998405 268.001562 Z M 175.998405 268.001562 " transform="matrix(1,0,0,-1,-95.599968,304.4)"/>
<path style="fill-rule:evenodd;fill:rgb(94.1%,94.1%,94.1%);fill-opacity:1;stroke-width:0.8;stroke-linecap:round;stroke-linejoin:round;stroke:rgb(0%,0%,0%);stroke-opacity:1;stroke-miterlimit:10;" d="M 179.998405 292.001562 L 179.998405 268.001562 L 195.998405 268.001562 L 195.998405 292.001562 Z M 179.998405 292.001562 " transform="matrix(1,0,0,-1,-95.599968,304.4)"/>
<g style="fill:rgb(0%,0%,0%);fill-opacity:1;">
  <use xlink:href="#glyph0-1" x="6.083532" y="41.39"/>
</g>
<path style="fill-rule:evenodd;fill:rgb(94.1%,94.1%,94.1%);fill-opacity:1;stroke-width:0.8;stroke-linecap:round;stroke-linejoin:round;stroke:rgb(0%,0%,0%);stroke-opacity:1;stroke-miterlimit:10;" d="M 111.998405 276.001562 L 111.998405 256.001562 L 123.998405 256.001562 L 123.998405 276.001562 Z M 111.998405 276.001562 " transform="matrix(1,0,0,-1,-95.599968,304.4)"/>
<path style="fill-rule:evenodd;fill:rgb(94.1%,94.1%,94.1%);fill-opacity:1;stroke-width:0.8;stroke-linecap:round;stroke-linejoin:round;stroke:rgb(0%,0%,0%);stroke-opacity:1;stroke-miterlimit:10;" d="M 159.998405 300.001562 L 159.998405 276.001562 L 179.998405 276.001562 L 179.998405 300.001562 Z M 159.998405 300.001562 " transform="matrix(1,0,0,-1,-95.599968,304.4)"/>
<g style="fill:rgb(0%,0%,0%);fill-opacity:1;">
  <use xlink:href="#glyph0-2" x="12.083532" y="19.39"/>
</g>
<g style="fill:rgb(0%,0%,0%);fill-opacity:1;">
  <use xlink:href="#glyph0-3" x="32.083532" y="37.39"/>
</g>
<g style="fill:rgb(0%,0%,0%);fill-opacity:1;">
  <use xlink:href="#glyph0-4" x="70.083532" y="41.39"/>
</g>
<g style="fill:rgb(0%,0%,0%);fill-opacity:1;">
  <use xlink:href="#glyph0-5" x="88.083532" y="45.39"/>
</g>
<g style="fill:rgb(0%,0%,0%);fill-opacity:1;">
  <use xlink:href="#glyph0-6" x="90.083532" y="27.39"/>
</g>
<g style="fill:rgb(0%,0%,0%);fill-opacity:1;">
  <use xlink:href="#glyph0-7" x="20.083532" y="41.398"/>
</g>
<g style="fill:rgb(0%,0%,0%);fill-opacity:1;">
  <use xlink:href="#glyph0-8" x="72.083532" y="19.39"/>
</g>
<path style="fill:none;stroke-width:0.8;stroke-linecap:round;stroke-linejoin:round;stroke:rgb(0%,0%,0%);stroke-opacity:1;stroke-dasharray:0.01,1.6;stroke-miterlimit:10;" d="M 95.998405 304.001562 L 95.998405 256.001562 L 135.998405 256.001562 L 135.998405 304.001562 Z M 95.998405 304.001562 " transform="matrix(1,0,0,-1,-95.599968,304.4)"/>
<path style="fill:none;stroke-width:0.8;stroke-linecap:round;stroke-linejoin:round;stroke:rgb(0%,0%,0%);stroke-opacity:1;stroke-dasharray:0.01,1.6;stroke-miterlimit:10;" d="M 159.998405 304.001562 L 159.998405 256.001562 L 199.998405 256.001562 L 199.998405 304.001562 Z M 159.998405 304.001562 " transform="matrix(1,0,0,-1,-95.599968,304.4)"/>
</g>
</svg>
