<?xml version="1.0" encoding="UTF-8"?>
<svg xmlns="http://www.w3.org/2000/svg" xmlns:xlink="http://www.w3.org/1999/xlink" width="118pt" height="81pt" viewBox="0 0 118 81" version="1.1">
<defs>
<linearGradient id="linear0" gradientUnits="userSpaceOnUse" x1="332" y1="624" x2="332" y2="616" gradientTransform="matrix(1,0,0,-1,-262.338,696.7)">
<stop offset="0" style="stop-color:rgb(0%,0%,0%);stop-opacity:1;"/>
<stop offset="1" style="stop-color:rgb(100%,100%,100%);stop-opacity:1;"/>
</linearGradient>
</defs>
<g id="surface1">
<path style="fill:none;stroke-width:0.8;stroke-linecap:butt;stroke-linejoin:round;stroke:rgb(0%,0%,0%);stroke-opacity:1;stroke-miterlimit:10;" d="M 214.963 646.160938 L 214.963 660.000781 " transform="matrix(1,0,0,-1,-118.338,696.7)"/>
<path style="fill:none;stroke-width:0.8;stroke-linecap:round;stroke-linejoin:round;stroke:rgb(0%,0%,0%);stroke-opacity:1;stroke-miterlimit:10;" d="M 157.037219 632.000781 L 206.963 632.000781 " transform="matrix(1,0,0,-1,-118.338,696.7)"/>
<path style=" stroke:none;fill-rule:evenodd;fill:rgb(0%,0%,0%);fill-opacity:1;" d="M 65.460938 64.699219 C 65.460938 62.300781 61.863281 62.300781 61.863281 64.699219 C 61.863281 67.101562 65.460938 67.101562 65.460938 64.699219 Z M 65.460938 64.699219 "/>
<path style=" stroke:none;fill-rule:evenodd;fill:url(#linear0);" d="M 63.261719 64.699219 L 63.261719 80.699219 L 64.0625 80.699219 L 64.0625 64.699219 Z M 63.261719 64.699219 "/>
<path style=" stroke:none;fill-rule:evenodd;fill:rgb(69.8%,87.4%,54.1%);fill-opacity:1;" d="M 61.59375 64.699219 C 61.59375 61.058594 56.132812 61.058594 56.132812 64.699219 C 56.132812 68.339844 61.59375 68.339844 61.59375 64.699219 Z M 61.59375 64.699219 "/>
<path style="fill:none;stroke-width:0.6;stroke-linecap:round;stroke-linejoin:round;stroke:rgb(0%,0%,0%);stroke-opacity:1;stroke-miterlimit:10;" d="M 175.888781 632.000781 L 178.509875 632.000781 " transform="matrix(1,0,0,-1,-118.338,696.7)"/>
<path style="fill:none;stroke-width:0.6;stroke-linecap:round;stroke-linejoin:round;stroke:rgb(0%,0%,0%);stroke-opacity:1;stroke-miterlimit:10;" d="M 177.201281 630.688281 L 177.201281 633.309375 " transform="matrix(1,0,0,-1,-118.338,696.7)"/>
<path style="fill:none;stroke-width:0.8;stroke-linecap:round;stroke-linejoin:round;stroke:rgb(0%,0%,0%);stroke-opacity:1;stroke-miterlimit:10;" d="M 214.963 640.000781 C 214.963 635.582813 211.380969 632.000781 206.963 632.000781 " transform="matrix(1,0,0,-1,-118.338,696.7)"/>
<path style="fill:none;stroke-width:0.8;stroke-linecap:butt;stroke-linejoin:round;stroke:rgb(0%,0%,0%);stroke-opacity:1;stroke-miterlimit:10;" d="M 149.037219 640.000781 L 149.037219 644.000781 " transform="matrix(1,0,0,-1,-118.338,696.7)"/>
<path style="fill:none;stroke-width:0.8;stroke-linecap:round;stroke-linejoin:round;stroke:rgb(0%,0%,0%);stroke-opacity:1;stroke-miterlimit:10;" d="M 214.963 640.000781 L 214.963 646.160938 " transform="matrix(1,0,0,-1,-118.338,696.7)"/>
<path style="fill:none;stroke-width:0.8;stroke-linecap:round;stroke-linejoin:round;stroke:rgb(0%,0%,0%);stroke-opacity:1;stroke-miterlimit:10;" d="M 157.037219 632.000781 C 152.61925 632.000781 149.037219 635.582813 149.037219 640.000781 " transform="matrix(1,0,0,-1,-118.338,696.7)"/>
<path style=" stroke:none;fill-rule:evenodd;fill:rgb(69.8%,87.4%,54.1%);fill-opacity:1;" d="M 71.191406 64.699219 C 71.191406 61.058594 65.730469 61.058594 65.730469 64.699219 C 65.730469 68.339844 71.191406 68.339844 71.191406 64.699219 Z M 71.191406 64.699219 "/>
<path style="fill:none;stroke-width:0.6;stroke-linecap:round;stroke-linejoin:round;stroke:rgb(0%,0%,0%);stroke-opacity:1;stroke-miterlimit:10;" d="M 185.490344 632.000781 L 188.111437 632.000781 " transform="matrix(1,0,0,-1,-118.338,696.7)"/>
<path style="fill:none;stroke-width:0.6;stroke-linecap:round;stroke-linejoin:round;stroke:rgb(0%,0%,0%);stroke-opacity:1;stroke-miterlimit:10;" d="M 186.798937 630.688281 L 186.798937 633.309375 " transform="matrix(1,0,0,-1,-118.338,696.7)"/>
<path style=" stroke:none;fill-rule:evenodd;fill:rgb(0%,0%,0%);fill-opacity:1;" d="M 98.425781 8.367188 C 98.425781 5.96875 94.824219 5.96875 94.824219 8.367188 C 94.824219 10.769531 98.425781 10.769531 98.425781 8.367188 Z M 98.425781 8.367188 "/>
<path style=" stroke:none;fill-rule:evenodd;fill:rgb(0%,0%,0%);fill-opacity:1;" d="M 108.425781 16.367188 C 108.425781 13.96875 104.824219 13.96875 104.824219 16.367188 C 104.824219 18.769531 108.425781 18.769531 108.425781 16.367188 Z M 108.425781 16.367188 "/>
<path style=" stroke:none;fill-rule:evenodd;fill:rgb(0%,0%,0%);fill-opacity:1;" d="M 82.425781 24.367188 C 82.425781 21.96875 78.824219 21.96875 78.824219 24.367188 C 78.824219 26.769531 82.425781 26.769531 82.425781 24.367188 Z M 82.425781 24.367188 "/>
<path style="fill:none;stroke-width:0.8;stroke-linecap:round;stroke-linejoin:round;stroke:rgb(0%,0%,0%);stroke-opacity:1;stroke-miterlimit:10;" d="M 198.963 672.332813 L 204.963 680.332813 " transform="matrix(1,0,0,-1,-118.338,696.7)"/>
<path style="fill:none;stroke-width:0.8;stroke-linecap:round;stroke-linejoin:round;stroke:rgb(0%,0%,0%);stroke-opacity:1;stroke-miterlimit:10;" d="M 204.963 680.332813 L 214.963 688.332813 " transform="matrix(1,0,0,-1,-118.338,696.7)"/>
<path style="fill:none;stroke-width:0.8;stroke-linecap:round;stroke-linejoin:round;stroke:rgb(0%,0%,0%);stroke-opacity:1;stroke-miterlimit:10;" d="M 214.963 688.332813 L 224.963 680.332813 " transform="matrix(1,0,0,-1,-118.338,696.7)"/>
<path style="fill:none;stroke-width:0.8;stroke-linecap:round;stroke-linejoin:round;stroke:rgb(0%,0%,0%);stroke-opacity:1;stroke-miterlimit:10;" d="M 204.963 680.332813 L 210.963 672.332813 " transform="matrix(1,0,0,-1,-118.338,696.7)"/>
<path style="fill:none;stroke-width:0.8;stroke-linecap:round;stroke-linejoin:round;stroke:rgb(0%,0%,0%);stroke-opacity:1;stroke-miterlimit:10;" d="M 224.963 680.332813 L 230.963 672.332813 " transform="matrix(1,0,0,-1,-118.338,696.7)"/>
<path style=" stroke:none;fill-rule:evenodd;fill:rgb(0%,0%,0%);fill-opacity:1;" d="M 114.425781 24.367188 C 114.425781 21.96875 110.824219 21.96875 110.824219 24.367188 C 110.824219 26.769531 114.425781 26.769531 114.425781 24.367188 Z M 114.425781 24.367188 "/>
<path style="fill:none;stroke-width:0.8;stroke-linecap:round;stroke-linejoin:round;stroke:rgb(0%,0%,0%);stroke-opacity:1;stroke-miterlimit:10;" d="M 210.963 672.332813 L 206.963 664.332813 " transform="matrix(1,0,0,-1,-118.338,696.7)"/>
<path style=" stroke:none;fill-rule:evenodd;fill:rgb(0%,0%,0%);fill-opacity:1;" d="M 90.425781 32.367188 C 90.425781 29.96875 86.824219 29.96875 86.824219 32.367188 C 86.824219 34.769531 90.425781 34.769531 90.425781 32.367188 Z M 90.425781 32.367188 "/>
<path style=" stroke:none;fill-rule:evenodd;fill:rgb(0%,0%,0%);fill-opacity:1;" d="M 94.425781 24.367188 C 94.425781 21.96875 90.824219 21.96875 90.824219 24.367188 C 90.824219 26.769531 94.425781 26.769531 94.425781 24.367188 Z M 94.425781 24.367188 "/>
<path style="fill:none;stroke-width:0.4;stroke-linecap:round;stroke-linejoin:round;stroke:rgb(0%,0%,0%);stroke-opacity:1;stroke-miterlimit:10;" d="M 194.630969 688.332813 L 194.630969 664.332813 C 194.630969 661.938281 196.568469 660.000781 198.963 660.000781 L 230.963 660.000781 C 233.353625 660.000781 235.295031 661.938281 235.295031 664.332813 L 235.295031 688.332813 C 235.295031 690.723438 233.353625 692.664844 230.963 692.664844 L 198.963 692.664844 C 196.568469 692.664844 194.630969 690.723438 194.630969 688.332813 Z M 194.630969 688.332813 " transform="matrix(1,0,0,-1,-118.338,696.7)"/>
<path style=" stroke:none;fill-rule:evenodd;fill:rgb(0%,0%,0%);fill-opacity:1;" d="M 30.5 4.699219 C 30.5 2.300781 26.898438 2.300781 26.898438 4.699219 C 26.898438 7.101562 30.5 7.101562 30.5 4.699219 Z M 30.5 4.699219 "/>
<path style=" stroke:none;fill-rule:evenodd;fill:rgb(0%,0%,0%);fill-opacity:1;" d="M 14.5 12.699219 C 14.5 10.300781 10.898438 10.300781 10.898438 12.699219 C 10.898438 15.101562 14.5 15.101562 14.5 12.699219 Z M 14.5 12.699219 "/>
<path style=" stroke:none;fill-rule:evenodd;fill:rgb(0%,0%,0%);fill-opacity:1;" d="M 46.5 12.699219 C 46.5 10.300781 42.898438 10.300781 42.898438 12.699219 C 42.898438 15.101562 46.5 15.101562 46.5 12.699219 Z M 46.5 12.699219 "/>
<path style=" stroke:none;fill-rule:evenodd;fill:rgb(0%,0%,0%);fill-opacity:1;" d="M 6.5 24.699219 C 6.5 22.300781 2.898438 22.300781 2.898438 24.699219 C 2.898438 27.101562 6.5 27.101562 6.5 24.699219 Z M 6.5 24.699219 "/>
<path style=" stroke:none;fill-rule:evenodd;fill:rgb(0%,0%,0%);fill-opacity:1;" d="M 22.5 24.699219 C 22.5 22.300781 18.898438 22.300781 18.898438 24.699219 C 18.898438 27.101562 22.5 27.101562 22.5 24.699219 Z M 22.5 24.699219 "/>
<path style=" stroke:none;fill-rule:evenodd;fill:rgb(0%,0%,0%);fill-opacity:1;" d="M 54.5 24.699219 C 54.5 22.300781 50.898438 22.300781 50.898438 24.699219 C 50.898438 27.101562 54.5 27.101562 54.5 24.699219 Z M 54.5 24.699219 "/>
<path style=" stroke:none;fill-rule:evenodd;fill:rgb(0%,0%,0%);fill-opacity:1;" d="M 10.5 36.699219 C 10.5 34.300781 6.898438 34.300781 6.898438 36.699219 C 6.898438 39.101562 10.5 39.101562 10.5 36.699219 Z M 10.5 36.699219 "/>
<path style=" stroke:none;fill-rule:evenodd;fill:rgb(0%,0%,0%);fill-opacity:1;" d="M 18.5 36.699219 C 18.5 34.300781 14.898438 34.300781 14.898438 36.699219 C 14.898438 39.101562 18.5 39.101562 18.5 36.699219 Z M 18.5 36.699219 "/>
<path style=" stroke:none;fill-rule:evenodd;fill:rgb(0%,0%,0%);fill-opacity:1;" d="M 26.5 36.699219 C 26.5 34.300781 22.898438 34.300781 22.898438 36.699219 C 22.898438 39.101562 26.5 39.101562 26.5 36.699219 Z M 26.5 36.699219 "/>
<path style=" stroke:none;fill-rule:evenodd;fill:rgb(0%,0%,0%);fill-opacity:1;" d="M 42.5 36.699219 C 42.5 34.300781 38.898438 34.300781 38.898438 36.699219 C 38.898438 39.101562 42.5 39.101562 42.5 36.699219 Z M 42.5 36.699219 "/>
<path style=" stroke:none;fill-rule:evenodd;fill:rgb(0%,0%,0%);fill-opacity:1;" d="M 50.5 36.699219 C 50.5 34.300781 46.898438 34.300781 46.898438 36.699219 C 46.898438 39.101562 50.5 39.101562 50.5 36.699219 Z M 50.5 36.699219 "/>
<path style=" stroke:none;fill-rule:evenodd;fill:rgb(0%,0%,0%);fill-opacity:1;" d="M 58.5 36.699219 C 58.5 34.300781 54.898438 34.300781 54.898438 36.699219 C 54.898438 39.101562 58.5 39.101562 58.5 36.699219 Z M 58.5 36.699219 "/>
<path style=" stroke:none;fill-rule:evenodd;fill:rgb(0%,0%,0%);fill-opacity:1;" d="M 15.5 48.699219 C 15.5 46.300781 11.898438 46.300781 11.898438 48.699219 C 11.898438 51.101562 15.5 51.101562 15.5 48.699219 Z M 15.5 48.699219 "/>
<path style=" stroke:none;fill-rule:evenodd;fill:rgb(0%,0%,0%);fill-opacity:1;" d="M 21.5 48.699219 C 21.5 46.300781 17.898438 46.300781 17.898438 48.699219 C 17.898438 51.101562 21.5 51.101562 21.5 48.699219 Z M 21.5 48.699219 "/>
<path style=" stroke:none;fill-rule:evenodd;fill:rgb(0%,0%,0%);fill-opacity:1;" d="M 45.5 48.699219 C 45.5 46.300781 41.898438 46.300781 41.898438 48.699219 C 41.898438 51.101562 45.5 51.101562 45.5 48.699219 Z M 45.5 48.699219 "/>
<path style=" stroke:none;fill-rule:evenodd;fill:rgb(0%,0%,0%);fill-opacity:1;" d="M 53.5 48.699219 C 53.5 46.300781 49.898438 46.300781 49.898438 48.699219 C 49.898438 51.101562 53.5 51.101562 53.5 48.699219 Z M 53.5 48.699219 "/>
<path style="fill:none;stroke-width:0.8;stroke-linecap:round;stroke-linejoin:round;stroke:rgb(0%,0%,0%);stroke-opacity:1;stroke-miterlimit:10;" d="M 147.037219 692.000781 L 131.037219 684.000781 " transform="matrix(1,0,0,-1,-118.338,696.7)"/>
<path style="fill:none;stroke-width:0.8;stroke-linecap:round;stroke-linejoin:round;stroke:rgb(0%,0%,0%);stroke-opacity:1;stroke-miterlimit:10;" d="M 131.037219 684.000781 L 123.037219 672.000781 " transform="matrix(1,0,0,-1,-118.338,696.7)"/>
<path style="fill:none;stroke-width:0.8;stroke-linecap:round;stroke-linejoin:round;stroke:rgb(0%,0%,0%);stroke-opacity:1;stroke-miterlimit:10;" d="M 123.037219 672.000781 L 127.037219 660.000781 " transform="matrix(1,0,0,-1,-118.338,696.7)"/>
<path style="fill:none;stroke-width:0.8;stroke-linecap:round;stroke-linejoin:round;stroke:rgb(0%,0%,0%);stroke-opacity:1;stroke-miterlimit:10;" d="M 131.037219 684.000781 L 139.037219 672.000781 " transform="matrix(1,0,0,-1,-118.338,696.7)"/>
<path style="fill:none;stroke-width:0.8;stroke-linecap:round;stroke-linejoin:round;stroke:rgb(0%,0%,0%);stroke-opacity:1;stroke-miterlimit:10;" d="M 139.037219 672.000781 L 135.037219 660.000781 " transform="matrix(1,0,0,-1,-118.338,696.7)"/>
<path style="fill:none;stroke-width:0.8;stroke-linecap:round;stroke-linejoin:round;stroke:rgb(0%,0%,0%);stroke-opacity:1;stroke-miterlimit:10;" d="M 139.037219 672.000781 L 143.037219 660.000781 " transform="matrix(1,0,0,-1,-118.338,696.7)"/>
<path style="fill:none;stroke-width:0.8;stroke-linecap:round;stroke-linejoin:round;stroke:rgb(0%,0%,0%);stroke-opacity:1;stroke-miterlimit:10;" d="M 135.037219 660.000781 L 132.037219 648.000781 " transform="matrix(1,0,0,-1,-118.338,696.7)"/>
<path style="fill:none;stroke-width:0.8;stroke-linecap:round;stroke-linejoin:round;stroke:rgb(0%,0%,0%);stroke-opacity:1;stroke-miterlimit:10;" d="M 135.037219 660.000781 L 138.037219 648.000781 " transform="matrix(1,0,0,-1,-118.338,696.7)"/>
<path style="fill:none;stroke-width:0.8;stroke-linecap:round;stroke-linejoin:round;stroke:rgb(0%,0%,0%);stroke-opacity:1;stroke-miterlimit:10;" d="M 147.037219 692.000781 L 163.037219 684.000781 " transform="matrix(1,0,0,-1,-118.338,696.7)"/>
<path style="fill:none;stroke-width:0.8;stroke-linecap:round;stroke-linejoin:round;stroke:rgb(0%,0%,0%);stroke-opacity:1;stroke-miterlimit:10;" d="M 163.037219 684.000781 L 155.037219 672.000781 " transform="matrix(1,0,0,-1,-118.338,696.7)"/>
<path style="fill:none;stroke-width:0.8;stroke-linecap:round;stroke-linejoin:round;stroke:rgb(0%,0%,0%);stroke-opacity:1;stroke-miterlimit:10;" d="M 163.037219 684.000781 L 171.037219 672.000781 " transform="matrix(1,0,0,-1,-118.338,696.7)"/>
<path style="fill:none;stroke-width:0.8;stroke-linecap:round;stroke-linejoin:round;stroke:rgb(0%,0%,0%);stroke-opacity:1;stroke-miterlimit:10;" d="M 155.037219 672.000781 L 159.037219 660.000781 " transform="matrix(1,0,0,-1,-118.338,696.7)"/>
<path style="fill:none;stroke-width:0.8;stroke-linecap:round;stroke-linejoin:round;stroke:rgb(0%,0%,0%);stroke-opacity:1;stroke-miterlimit:10;" d="M 167.037219 660.000781 L 170.037219 648.000781 " transform="matrix(1,0,0,-1,-118.338,696.7)"/>
<path style="fill:none;stroke-width:0.8;stroke-linecap:round;stroke-linejoin:round;stroke:rgb(0%,0%,0%);stroke-opacity:1;stroke-miterlimit:10;" d="M 171.037219 672.000781 L 167.037219 660.000781 " transform="matrix(1,0,0,-1,-118.338,696.7)"/>
<path style="fill:none;stroke-width:0.8;stroke-linecap:round;stroke-linejoin:round;stroke:rgb(0%,0%,0%);stroke-opacity:1;stroke-miterlimit:10;" d="M 171.037219 672.000781 L 175.037219 660.000781 " transform="matrix(1,0,0,-1,-118.338,696.7)"/>
<path style="fill:none;stroke-width:0.8;stroke-linecap:round;stroke-linejoin:round;stroke:rgb(0%,0%,0%);stroke-opacity:1;stroke-miterlimit:10;" d="M 159.037219 660.000781 L 162.037219 648.000781 " transform="matrix(1,0,0,-1,-118.338,696.7)"/>
<path style=" stroke:none;fill-rule:evenodd;fill:rgb(83.6%,0%,28.9%);fill-opacity:1;" d="M 38.5 24.699219 C 38.5 22.300781 34.898438 22.300781 34.898438 24.699219 C 34.898438 27.101562 38.5 27.101562 38.5 24.699219 Z M 38.5 24.699219 "/>
<path style="fill:none;stroke-width:0.4;stroke-linecap:round;stroke-linejoin:round;stroke:rgb(0%,0%,0%);stroke-opacity:1;stroke-miterlimit:10;" d="M 175.037219 644.000781 L 123.037219 644.000781 C 120.830187 644.000781 119.037219 645.789844 119.037219 648.000781 L 119.037219 692.000781 C 119.037219 694.207813 120.830187 696.000781 123.037219 696.000781 L 175.037219 696.000781 C 177.248156 696.000781 179.037219 694.207813 179.037219 692.000781 L 179.037219 648.000781 C 179.037219 645.789844 177.248156 644.000781 175.037219 644.000781 Z M 175.037219 644.000781 " transform="matrix(1,0,0,-1,-118.338,696.7)"/>
<path style=" stroke:none;fill-rule:evenodd;fill:rgb(83.6%,0%,28.9%);fill-opacity:1;" d="M 88.425781 16.367188 C 88.425781 13.96875 84.824219 13.96875 84.824219 16.367188 C 84.824219 18.769531 88.425781 18.769531 88.425781 16.367188 Z M 88.425781 16.367188 "/>
</g>
</svg>
