<?xml version="1.0" encoding="UTF-8"?>
<svg xmlns="http://www.w3.org/2000/svg" xmlns:xlink="http://www.w3.org/1999/xlink" width="262pt" height="59pt" viewBox="0 0 262 59" version="1.1">
<defs>
<linearGradient id="linear0" gradientUnits="userSpaceOnUse" x1="240" y1="624" x2="240" y2="616" gradientTransform="matrix(1,0,0,-1,-93.499988,674.5)">
<stop offset="0" style="stop-color:rgb(94.1%,94.1%,94.1%);stop-opacity:1;"/>
<stop offset="1" style="stop-color:rgb(100%,100%,100%);stop-opacity:1;"/>
</linearGradient>
<linearGradient id="linear1" gradientUnits="userSpaceOnUse" x1="332" y1="624" x2="332" y2="616" gradientTransform="matrix(1,0,0,-1,-93.499988,674.5)">
<stop offset="0" style="stop-color:rgb(0%,0%,0%);stop-opacity:1;"/>
<stop offset="1" style="stop-color:rgb(100%,100%,100%);stop-opacity:1;"/>
</linearGradient>
</defs>
<g id="surface1">
<path style=" stroke:none;fill-rule:evenodd;fill:url(#linear0);" d="M 2.5 50.5 L 2.5 58.5 L 138.5 58.5 L 138.5 50.5 Z M 2.5 50.5 "/>
<path style="fill:none;stroke-width:0.8;stroke-linecap:round;stroke-linejoin:round;stroke:rgb(80%,80%,80%);stroke-opacity:1;stroke-miterlimit:10;" d="M 305.999988 642.667969 L 307.999988 642.667969 " transform="matrix(1,0,0,-1,-93.499988,674.5)"/>
<path style="fill:none;stroke-width:0.8;stroke-linecap:round;stroke-linejoin:round;stroke:rgb(80%,80%,80%);stroke-opacity:1;stroke-miterlimit:10;" d="M 305.999988 642.667969 C 301.839832 642.667969 298.374988 645.855469 298.027332 650 " transform="matrix(1,0,0,-1,-93.499988,674.5)"/>
<path style=" stroke:none;fill-rule:evenodd;fill:rgb(80%,80%,80%);fill-opacity:1;" d="M 206.328125 24.5 C 206.328125 22.101562 202.726562 22.101562 202.726562 24.5 C 202.726562 26.898438 206.328125 26.898438 206.328125 24.5 Z M 206.328125 24.5 "/>
<path style="fill:none;stroke-width:0.8;stroke-linecap:round;stroke-linejoin:round;stroke:rgb(80%,80%,80%);stroke-opacity:1;stroke-miterlimit:10;" d="M 305.999988 642.667969 L 307.999988 642.667969 " transform="matrix(1,0,0,-1,-93.499988,674.5)"/>
<path style="fill:none;stroke-width:0.8;stroke-linecap:round;stroke-linejoin:round;stroke:rgb(80%,80%,80%);stroke-opacity:1;stroke-miterlimit:10;" d="M 317.999988 664 L 317.999988 653.882812 " transform="matrix(1,0,0,-1,-93.499988,674.5)"/>
<path style="fill:none;stroke-width:0.8;stroke-linecap:round;stroke-linejoin:round;stroke:rgb(80%,80%,80%);stroke-opacity:1;stroke-miterlimit:10;" d="M 109.999988 642.667969 L 111.999988 645.332031 L 119.999988 650 L 127.999988 642.667969 " transform="matrix(1,0,0,-1,-93.499988,674.5)"/>
<path style="fill:none;stroke-width:0.8;stroke-linecap:round;stroke-linejoin:round;stroke:rgb(80%,80%,80%);stroke-opacity:1;stroke-miterlimit:10;" d="M 138.207019 653.882812 L 143.999988 669.332031 L 151.999988 672 L 159.999988 664 L 167.999988 669.335938 L 173.792957 653.882812 " transform="matrix(1,0,0,-1,-93.499988,674.5)"/>
<path style="fill:none;stroke-width:0.8;stroke-linecap:round;stroke-linejoin:round;stroke:rgb(80%,80%,80%);stroke-opacity:1;stroke-miterlimit:10;" d="M 193.449207 639.496094 L 199.999988 661.335938 L 207.999988 645.332031 L 215.999988 658.667969 L 223.999988 653.332031 L 227.773426 639.496094 " transform="matrix(1,0,0,-1,-93.499988,674.5)"/>
<path style=" stroke:none;fill-rule:evenodd;fill:rgb(94.1%,94.1%,94.1%);fill-opacity:1;" d="M 138.5 50.5 L 2.5 50.5 L 10.5 39.832031 L 16.5 31.832031 L 34.5 31.832031 L 42.5 26.5 L 44.707031 20.617188 L 80.292969 20.617188 L 82.5 26.5 L 90.5 42.5 L 98.5 39.835938 L 99.949219 35.003906 L 134.273438 35.003906 Z M 138.5 50.5 "/>
<path style="fill:none;stroke-width:0.8;stroke-linecap:round;stroke-linejoin:round;stroke:rgb(80%,80%,80%);stroke-opacity:1;stroke-miterlimit:10;" d="M 317.999988 664 C 313.582019 664 309.999988 667.582031 309.999988 672 " transform="matrix(1,0,0,-1,-93.499988,674.5)"/>
<path style="fill:none;stroke-width:0.8;stroke-linecap:round;stroke-linejoin:round;stroke:rgb(80%,80%,80%);stroke-opacity:1;stroke-miterlimit:10;" d="M 343.999988 645.332031 C 339.582019 645.332031 335.999988 648.914062 335.999988 653.332031 " transform="matrix(1,0,0,-1,-93.499988,674.5)"/>
<path style="fill:none;stroke-width:0.8;stroke-linecap:round;stroke-linejoin:round;stroke:rgb(80%,80%,80%);stroke-opacity:1;stroke-miterlimit:10;" d="M 351.999988 653.332031 C 351.999988 648.914062 348.417957 645.332031 343.999988 645.332031 " transform="matrix(1,0,0,-1,-93.499988,674.5)"/>
<path style="fill:none;stroke-width:0.8;stroke-linecap:round;stroke-linejoin:round;stroke:rgb(80%,80%,80%);stroke-opacity:1;stroke-miterlimit:10;" d="M 335.999988 653.332031 L 335.999988 661.335938 " transform="matrix(1,0,0,-1,-93.499988,674.5)"/>
<path style="fill:none;stroke-width:0.8;stroke-linecap:round;stroke-linejoin:round;stroke:rgb(80%,80%,80%);stroke-opacity:1;stroke-miterlimit:10;" d="M 351.999988 653.332031 L 351.999988 658.667969 " transform="matrix(1,0,0,-1,-93.499988,674.5)"/>
<path style="fill:none;stroke-width:0.8;stroke-linecap:round;stroke-linejoin:round;stroke:rgb(0%,0%,0%);stroke-opacity:1;stroke-miterlimit:10;" d="M 343.999988 640 C 343.999988 635.582031 340.417957 632 335.999988 632 " transform="matrix(1,0,0,-1,-93.499988,674.5)"/>
<path style="fill:none;stroke-width:0.8;stroke-linecap:round;stroke-linejoin:round;stroke:rgb(0%,0%,0%);stroke-opacity:1;stroke-miterlimit:10;" d="M 315.999988 632 L 335.999988 632 " transform="matrix(1,0,0,-1,-93.499988,674.5)"/>
<path style="fill:none;stroke-width:0.8;stroke-linecap:round;stroke-linejoin:round;stroke:rgb(80%,80%,80%);stroke-opacity:1;stroke-miterlimit:10;" d="M 343.999988 640 L 343.999988 645.332031 " transform="matrix(1,0,0,-1,-93.499988,674.5)"/>
<path style="fill:none;stroke-width:0.8;stroke-linecap:round;stroke-linejoin:round;stroke:rgb(0%,0%,0%);stroke-opacity:1;stroke-miterlimit:10;" d="M 315.999988 632 C 311.582019 632 307.999988 635.582031 307.999988 640 " transform="matrix(1,0,0,-1,-93.499988,674.5)"/>
<path style="fill:none;stroke-width:0.8;stroke-linecap:round;stroke-linejoin:round;stroke:rgb(0%,0%,0%);stroke-opacity:1;stroke-miterlimit:10;" d="M 317.999988 650.667969 C 317.999988 646.25 314.417957 642.667969 309.999988 642.667969 " transform="matrix(1,0,0,-1,-93.499988,674.5)"/>
<path style="fill:none;stroke-width:0.8;stroke-linecap:round;stroke-linejoin:round;stroke:rgb(0%,0%,0%);stroke-opacity:1;stroke-miterlimit:10;" d="M 317.999988 653.882812 L 317.999988 650.667969 " transform="matrix(1,0,0,-1,-93.499988,674.5)"/>
<path style="fill:none;stroke-width:0.8;stroke-linecap:round;stroke-linejoin:round;stroke:rgb(80%,80%,80%);stroke-opacity:1;stroke-miterlimit:10;" d="M 325.999988 669.332031 C 324.871082 666.136719 321.847644 664 318.457019 664 " transform="matrix(1,0,0,-1,-93.499988,674.5)"/>
<path style="fill:none;stroke-width:0.8;stroke-linecap:round;stroke-linejoin:round;stroke:rgb(80%,80%,80%);stroke-opacity:1;stroke-miterlimit:10;" d="M 318.457019 664 L 317.999988 664 " transform="matrix(1,0,0,-1,-93.499988,674.5)"/>
<path style="fill:none;stroke-width:0.8;stroke-linecap:round;stroke-linejoin:round;stroke:rgb(0%,0%,0%);stroke-opacity:1;stroke-miterlimit:10;" d="M 95.999988 624 L 103.999988 634.667969 " transform="matrix(1,0,0,-1,-93.499988,674.5)"/>
<path style=" stroke:none;fill-rule:evenodd;fill:rgb(0%,0%,0%);fill-opacity:1;" d="M 4.300781 50.5 C 4.300781 48.101562 0.699219 48.101562 0.699219 50.5 C 0.699219 52.898438 4.300781 52.898438 4.300781 50.5 Z M 4.300781 50.5 "/>
<path style=" stroke:none;fill-rule:evenodd;fill:rgb(0%,0%,0%);fill-opacity:1;" d="M 12.300781 39.832031 C 12.300781 37.433594 8.699219 37.433594 8.699219 39.832031 C 8.699219 42.234375 12.300781 42.234375 12.300781 39.832031 Z M 12.300781 39.832031 "/>
<path style=" stroke:none;fill-rule:evenodd;fill:rgb(0%,0%,0%);fill-opacity:1;" d="M 44.300781 26.5 C 44.300781 24.101562 40.699219 24.101562 40.699219 26.5 C 40.699219 28.898438 44.300781 28.898438 44.300781 26.5 Z M 44.300781 26.5 "/>
<path style=" stroke:none;fill-rule:evenodd;fill:rgb(0%,0%,0%);fill-opacity:1;" d="M 84.300781 26.5 C 84.300781 24.101562 80.699219 24.101562 80.699219 26.5 C 80.699219 28.898438 84.300781 28.898438 84.300781 26.5 Z M 84.300781 26.5 "/>
<path style=" stroke:none;fill-rule:evenodd;fill:rgb(0%,0%,0%);fill-opacity:1;" d="M 92.300781 42.5 C 92.300781 40.101562 88.699219 40.101562 88.699219 42.5 C 88.699219 44.898438 92.300781 44.898438 92.300781 42.5 Z M 92.300781 42.5 "/>
<path style=" stroke:none;fill-rule:evenodd;fill:rgb(0%,0%,0%);fill-opacity:1;" d="M 100.300781 39.832031 C 100.300781 37.433594 96.699219 37.433594 96.699219 39.832031 C 96.699219 42.234375 100.300781 42.234375 100.300781 39.832031 Z M 100.300781 39.832031 "/>
<path style=" stroke:none;fill-rule:evenodd;fill:rgb(0%,0%,0%);fill-opacity:1;" d="M 140.300781 50.5 C 140.300781 48.101562 136.699219 48.101562 136.699219 50.5 C 136.699219 52.898438 140.300781 52.898438 140.300781 50.5 Z M 140.300781 50.5 "/>
<path style="fill:none;stroke-width:0.8;stroke-linecap:round;stroke-linejoin:round;stroke:rgb(0%,0%,0%);stroke-opacity:1;stroke-miterlimit:10;" d="M 103.999988 634.667969 L 109.999988 642.667969 " transform="matrix(1,0,0,-1,-93.499988,674.5)"/>
<path style="fill:none;stroke-width:0.8;stroke-linecap:round;stroke-linejoin:round;stroke:rgb(0%,0%,0%);stroke-opacity:1;stroke-miterlimit:10;" d="M 127.999988 642.667969 L 135.999988 648 " transform="matrix(1,0,0,-1,-93.499988,674.5)"/>
<path style="fill:none;stroke-width:0.8;stroke-linecap:round;stroke-linejoin:round;stroke:rgb(0%,0%,0%);stroke-opacity:1;stroke-miterlimit:10;" d="M 135.999988 648 L 138.207019 653.882812 " transform="matrix(1,0,0,-1,-93.499988,674.5)"/>
<path style="fill:none;stroke-width:0.8;stroke-linecap:round;stroke-linejoin:round;stroke:rgb(0%,0%,0%);stroke-opacity:1;stroke-miterlimit:10;" d="M 175.999988 648 L 183.999988 632 " transform="matrix(1,0,0,-1,-93.499988,674.5)"/>
<path style="fill:none;stroke-width:0.8;stroke-linecap:round;stroke-linejoin:round;stroke:rgb(0%,0%,0%);stroke-opacity:1;stroke-miterlimit:10;" d="M 183.999988 632 L 191.999988 634.664062 " transform="matrix(1,0,0,-1,-93.499988,674.5)"/>
<path style="fill:none;stroke-width:0.8;stroke-linecap:round;stroke-linejoin:round;stroke:rgb(0%,0%,0%);stroke-opacity:1;stroke-miterlimit:10;" d="M 191.999988 634.667969 L 193.449207 639.496094 " transform="matrix(1,0,0,-1,-93.499988,674.5)"/>
<path style="fill:none;stroke-width:0.8;stroke-linecap:round;stroke-linejoin:round;stroke:rgb(0%,0%,0%);stroke-opacity:1;stroke-miterlimit:10;" d="M 227.773426 639.496094 L 231.999988 624 " transform="matrix(1,0,0,-1,-93.499988,674.5)"/>
<path style=" stroke:none;fill-rule:evenodd;fill:rgb(0%,0%,0%);fill-opacity:1;" d="M 234.300781 42.5 C 234.300781 40.101562 230.699219 40.101562 230.699219 42.5 C 230.699219 44.898438 234.300781 44.898438 234.300781 42.5 Z M 234.300781 42.5 "/>
<path style=" stroke:none;fill-rule:evenodd;fill:rgb(80%,80%,80%);fill-opacity:1;" d="M 218.300781 2.5 C 218.300781 0.101562 214.699219 0.101562 214.699219 2.5 C 214.699219 4.898438 218.300781 4.898438 218.300781 2.5 Z M 218.300781 2.5 "/>
<path style=" stroke:none;fill-rule:evenodd;fill:rgb(80%,80%,80%);fill-opacity:1;" d="M 226.300781 10.5 C 226.300781 8.101562 222.699219 8.101562 222.699219 10.5 C 222.699219 12.898438 226.300781 12.898438 226.300781 10.5 Z M 226.300781 10.5 "/>
<path style=" stroke:none;fill-rule:evenodd;fill:rgb(80%,80%,80%);fill-opacity:1;" d="M 234.300781 5.164062 C 234.300781 2.765625 230.699219 2.765625 230.699219 5.164062 C 230.699219 7.566406 234.300781 7.566406 234.300781 5.164062 Z M 234.300781 5.164062 "/>
<path style=" stroke:none;fill-rule:evenodd;fill:rgb(80%,80%,80%);fill-opacity:1;" d="M 244.300781 13.164062 C 244.300781 10.765625 240.699219 10.765625 240.699219 13.164062 C 240.699219 15.566406 244.300781 15.566406 244.300781 13.164062 Z M 244.300781 13.164062 "/>
<path style=" stroke:none;fill-rule:evenodd;fill:rgb(80%,80%,80%);fill-opacity:1;" d="M 252.300781 29.167969 C 252.300781 26.765625 248.699219 26.765625 248.699219 29.167969 C 248.699219 31.566406 252.300781 31.566406 252.300781 29.167969 Z M 252.300781 29.167969 "/>
<path style=" stroke:none;fill-rule:evenodd;fill:rgb(80%,80%,80%);fill-opacity:1;" d="M 260.300781 15.832031 C 260.300781 13.433594 256.699219 13.433594 256.699219 15.832031 C 256.699219 18.234375 260.300781 18.234375 260.300781 15.832031 Z M 260.300781 15.832031 "/>
<path style="fill:none;stroke-width:0.4;stroke-linecap:round;stroke-linejoin:round;stroke:rgb(0%,0%,0%);stroke-opacity:1;stroke-dasharray:1,1.7;stroke-miterlimit:10;" d="M 183.999988 632 L 325.999988 632 " transform="matrix(1,0,0,-1,-93.499988,674.5)"/>
<path style="fill:none;stroke-width:0.8;stroke-linecap:round;stroke-linejoin:round;stroke:rgb(83.6%,0%,28.9%);stroke-opacity:1;stroke-miterlimit:10;" d="M 193.449207 639.496094 L 227.773426 639.496094 " transform="matrix(1,0,0,-1,-93.499988,674.5)"/>
<path style=" stroke:none;fill-rule:evenodd;fill:rgb(83.6%,0%,28.9%);fill-opacity:1;" d="M 252.585938 35.003906 C 252.585938 32.203125 248.382812 32.203125 248.382812 35.003906 C 248.382812 37.804688 252.585938 37.804688 252.585938 35.003906 Z M 252.585938 35.003906 "/>
<path style="fill:none;stroke-width:0.8;stroke-linecap:round;stroke-linejoin:round;stroke:rgb(67.8%,12.5%,67.8%);stroke-opacity:1;stroke-miterlimit:10;" d="M 127.999988 642.667969 L 109.999988 642.667969 " transform="matrix(1,0,0,-1,-93.499988,674.5)"/>
<path style=" stroke:none;fill-rule:evenodd;fill:rgb(12.9%,55.7%,98.8%);fill-opacity:1;" d="M 226.601562 20.617188 C 226.601562 17.816406 222.398438 17.816406 222.398438 20.617188 C 222.398438 23.417969 226.601562 23.417969 226.601562 20.617188 Z M 226.601562 20.617188 "/>
<path style=" stroke:none;fill-rule:evenodd;fill:rgb(0%,0%,0%);fill-opacity:1;" d="M 36.300781 31.832031 C 36.300781 29.433594 32.699219 29.433594 32.699219 31.832031 C 32.699219 34.234375 36.300781 34.234375 36.300781 31.832031 Z M 36.300781 31.832031 "/>
<path style="fill:none;stroke-width:0.8;stroke-linecap:round;stroke-linejoin:round;stroke:rgb(0%,0%,0%);stroke-opacity:1;stroke-miterlimit:10;" d="M 307.999988 642.667969 L 309.999988 642.667969 " transform="matrix(1,0,0,-1,-93.499988,674.5)"/>
<path style="fill:none;stroke-width:0.8;stroke-linecap:round;stroke-linejoin:round;stroke:rgb(0%,0%,0%);stroke-opacity:1;stroke-miterlimit:10;" d="M 307.999988 642.667969 L 307.999988 640 " transform="matrix(1,0,0,-1,-93.499988,674.5)"/>
<path style=" stroke:none;fill-rule:evenodd;fill:rgb(67.8%,12.5%,67.8%);fill-opacity:1;" d="M 216.601562 31.832031 C 216.601562 29.03125 212.398438 29.03125 212.398438 31.832031 C 212.398438 34.632812 216.601562 34.632812 216.601562 31.832031 Z M 216.601562 31.832031 "/>
<path style="fill:none;stroke-width:0.8;stroke-linecap:round;stroke-linejoin:round;stroke:rgb(0%,0%,0%);stroke-opacity:1;stroke-miterlimit:10;" d="M 173.792957 653.882812 L 175.999988 648 " transform="matrix(1,0,0,-1,-93.499988,674.5)"/>
<path style="fill:none;stroke-width:0.8;stroke-linecap:round;stroke-linejoin:round;stroke:rgb(12.9%,55.7%,98.8%);stroke-opacity:1;stroke-miterlimit:10;" d="M 173.792957 653.882812 L 138.207019 653.882812 " transform="matrix(1,0,0,-1,-93.499988,674.5)"/>
<path style="fill:none;stroke-width:0.5;stroke-linecap:round;stroke-linejoin:round;stroke:rgb(12.9%,55.7%,98.8%);stroke-opacity:1;stroke-dasharray:1,1.7;stroke-miterlimit:10;" d="M 173.792957 653.882812 L 319.128894 653.882812 " transform="matrix(1,0,0,-1,-93.499988,674.5)"/>
<path style="fill:none;stroke-width:0.5;stroke-linecap:round;stroke-linejoin:round;stroke:rgb(67.8%,12.5%,67.8%);stroke-opacity:1;stroke-dasharray:1,1.7;stroke-miterlimit:10;" d="M 127.999988 642.667969 L 307.999988 642.667969 " transform="matrix(1,0,0,-1,-93.499988,674.5)"/>
<path style="fill:none;stroke-width:0.5;stroke-linecap:round;stroke-linejoin:round;stroke:rgb(83.6%,0%,28.9%);stroke-opacity:1;stroke-dasharray:1,1.7;stroke-miterlimit:10;" d="M 227.773426 639.496094 L 343.984363 639.496094 " transform="matrix(1,0,0,-1,-93.499988,674.5)"/>
<path style=" stroke:none;fill-rule:evenodd;fill:url(#linear1);" d="M 232.101562 42.5 L 232.101562 58.5 L 232.898438 58.5 L 232.898438 42.5 Z M 232.101562 42.5 "/>
</g>
</svg>
