<?xml version="1.0" encoding="UTF-8"?>
<svg xmlns="http://www.w3.org/2000/svg" xmlns:xlink="http://www.w3.org/1999/xlink" width="233pt" height="246pt" viewBox="0 0 233 246" version="1.1">
<defs>
<g>
<symbol overflow="visible" id="glyph0-0">
<path style="stroke:none;" d="M 0.5 -6.015625 L 2.1875 -3.484375 L 0.5 -0.953125 Z M 0.796875 -0.5 L 2.5 -3.03125 L 4.1875 -0.5 Z M 2.796875 -3.484375 L 4.484375 -6.015625 L 4.484375 -0.953125 Z M 2.5 -3.921875 L 0.796875 -6.453125 L 4.1875 -6.453125 Z M 0 0 L 4.984375 0 L 4.984375 -6.953125 L 0 -6.953125 Z M 0 0 "/>
</symbol>
<symbol overflow="visible" id="glyph0-1">
<path style="stroke:none;" d="M 3.59375 -1.125 C 3.234375 -0.671875 2.78125 -0.421875 2.375 -0.421875 C 1.828125 -0.421875 1.375 -0.953125 1.375 -2.203125 C 1.375 -3.703125 2.171875 -3.984375 2.65625 -3.984375 C 3.125 -3.984375 3.359375 -3.78125 3.59375 -3.40625 Z M 3.59375 -0.578125 L 3.625 -0.578125 L 3.671875 0 C 3.671875 0.015625 3.703125 0.03125 3.765625 0.03125 C 3.890625 0.015625 3.953125 0 4.109375 0 C 4.234375 0 4.421875 0.015625 4.546875 0.03125 L 4.5625 0 C 4.484375 -0.421875 4.390625 -1.171875 4.390625 -1.90625 L 4.390625 -4.984375 C 4.390625 -5.71875 4.4375 -6.234375 4.484375 -6.859375 C 4.484375 -6.921875 4.453125 -6.953125 4.390625 -6.953125 C 4.140625 -6.859375 3.9375 -6.78125 3.53125 -6.765625 L 3.515625 -6.734375 C 3.59375 -6.296875 3.59375 -5.5625 3.59375 -4.8125 L 3.59375 -4.15625 C 3.375 -4.28125 2.953125 -4.375 2.765625 -4.375 C 1.46875 -4.375 0.515625 -3.484375 0.515625 -2.125 C 0.515625 -0.890625 1.234375 0.09375 2.3125 0.09375 C 2.796875 0.09375 3.234375 -0.125 3.59375 -0.578125 Z M 3.59375 -0.578125 "/>
</symbol>
<symbol overflow="visible" id="glyph0-2">
<path style="stroke:none;" d="M 1.25 -2.71875 C 1.421875 -3.765625 2.078125 -3.984375 2.375 -3.984375 C 2.78125 -3.984375 3.21875 -3.609375 3.21875 -2.859375 C 3.21875 -2.765625 3.1875 -2.71875 3.078125 -2.71875 Z M 3.90625 -1.03125 C 3.5625 -0.65625 3.09375 -0.484375 2.546875 -0.484375 C 2.203125 -0.484375 1.734375 -0.625 1.453125 -1.0625 C 1.28125 -1.328125 1.21875 -1.75 1.21875 -2.328125 L 3.921875 -2.328125 C 4.03125 -2.328125 4.109375 -2.375 4.109375 -2.5 C 4.109375 -3.328125 3.703125 -4.375 2.375 -4.375 C 1.359375 -4.375 0.34375 -3.546875 0.34375 -2.078125 C 0.34375 -1.515625 0.453125 -0.953125 0.78125 -0.5625 C 1.125 -0.15625 1.703125 0.09375 2.375 0.09375 C 3.09375 0.09375 3.734375 -0.265625 4.109375 -0.78125 Z M 3.90625 -1.03125 "/>
</symbol>
<symbol overflow="visible" id="glyph0-3">
<path style="stroke:none;" d="M 3.09375 -2.25 L 3.046875 -1.0625 C 3.046875 -0.921875 2.984375 -0.859375 2.90625 -0.796875 C 2.625 -0.59375 2.296875 -0.40625 2 -0.40625 C 1.546875 -0.40625 1.25 -0.703125 1.25 -1.015625 C 1.25 -1.46875 1.46875 -1.796875 2.25 -2.015625 Z M 3.09375 -0.484375 C 3.203125 -0.09375 3.5 0.09375 3.875 0.09375 C 4.109375 0.09375 4.421875 0.046875 4.671875 -0.203125 L 4.578125 -0.453125 C 4.46875 -0.421875 4.390625 -0.40625 4.3125 -0.40625 C 4.21875 -0.40625 4.09375 -0.421875 4.03125 -0.484375 C 3.921875 -0.5625 3.859375 -0.8125 3.859375 -1.25 C 3.859375 -1.546875 3.890625 -2.65625 3.890625 -2.765625 C 3.890625 -4.109375 3 -4.375 2.25 -4.375 C 1.484375 -4.375 1.03125 -4 0.78125 -3.796875 L 0.75 -3.765625 L 0.921875 -3.09375 L 1.046875 -3.078125 C 1.328125 -3.53125 1.671875 -3.921875 2.140625 -3.921875 C 2.5 -3.921875 3.09375 -3.875 3.09375 -2.75 C 3.09375 -2.6875 3.0625 -2.640625 3.03125 -2.625 L 2.109375 -2.421875 C 1.09375 -2.1875 0.453125 -1.65625 0.453125 -0.984375 C 0.453125 -0.234375 0.953125 0.09375 1.6875 0.09375 C 2.25 0.09375 2.515625 -0.03125 3.046875 -0.484375 Z M 3.09375 -0.484375 "/>
</symbol>
<symbol overflow="visible" id="glyph0-4">
<path style="stroke:none;" d="M 0.953125 -4.28125 C 0.75 -4.28125 0.53125 -4.28125 0.40625 -4.296875 C 0.34375 -4.140625 0.296875 -4.03125 0.1875 -3.890625 L 0.234375 -3.8125 C 0.40625 -3.828125 0.71875 -3.84375 0.953125 -3.84375 L 0.953125 -2.46875 C 0.953125 -1.875 0.921875 -1.15625 0.921875 -0.859375 C 0.921875 -0.203125 1.328125 0.09375 1.796875 0.09375 C 2.21875 0.09375 2.53125 0 2.953125 -0.265625 L 2.828125 -0.515625 C 2.515625 -0.40625 2.296875 -0.40625 2.046875 -0.4375 C 1.796875 -0.484375 1.71875 -0.71875 1.71875 -1.25 C 1.71875 -1.5625 1.75 -1.984375 1.75 -2.578125 L 1.75 -3.84375 L 2.125 -3.84375 C 2.359375 -3.84375 2.71875 -3.828125 2.84375 -3.8125 C 2.875 -3.984375 2.90625 -4.078125 2.953125 -4.234375 L 2.90625 -4.296875 C 2.734375 -4.28125 2.4375 -4.28125 2.21875 -4.28125 L 1.75 -4.28125 C 1.75 -5.03125 1.75 -5.15625 1.796875 -5.734375 C 1.796875 -5.796875 1.765625 -5.828125 1.703125 -5.828125 C 1.453125 -5.734375 1.328125 -5.625 1 -5.578125 L 0.984375 -5.546875 C 0.96875 -5.203125 0.953125 -4.859375 0.953125 -4.28125 Z M 0.953125 -4.28125 "/>
</symbol>
<symbol overflow="visible" id="glyph0-5">
<path style="stroke:none;" d="M 1.6875 -3.515625 L 1.6875 -5 C 1.6875 -5.734375 1.734375 -6.25 1.78125 -6.859375 C 1.78125 -6.921875 1.75 -6.953125 1.6875 -6.953125 C 1.453125 -6.859375 1.234375 -6.78125 0.828125 -6.765625 L 0.8125 -6.734375 C 0.890625 -6.296875 0.890625 -5.546875 0.890625 -4.796875 L 0.890625 -1.796875 C 0.890625 -1.0625 0.890625 -0.5625 0.8125 0 L 0.828125 0.03125 C 0.953125 0.015625 1.171875 0 1.296875 0 C 1.421875 0 1.640625 0.015625 1.765625 0.03125 L 1.78125 0 C 1.71875 -0.5625 1.6875 -1.03125 1.6875 -1.796875 L 1.6875 -2.953125 C 2.203125 -3.5625 2.796875 -3.78125 3.140625 -3.78125 C 3.65625 -3.78125 3.859375 -3.578125 3.859375 -2.765625 L 3.859375 -1.796875 C 3.859375 -1.046875 3.84375 -0.53125 3.765625 0 L 3.78125 0.03125 C 3.90625 0.015625 4.140625 0 4.25 0 C 4.375 0 4.609375 0.015625 4.71875 0.03125 L 4.75 0 C 4.671875 -0.5625 4.65625 -1.03125 4.65625 -1.796875 C 4.65625 -2.109375 4.671875 -2.484375 4.671875 -2.796875 C 4.671875 -3.84375 4.34375 -4.375 3.4375 -4.375 C 3.0625 -4.375 2.359375 -4.234375 1.71875 -3.484375 Z M 1.6875 -3.515625 "/>
</symbol>
<symbol overflow="visible" id="glyph0-6">
<path style="stroke:none;" d="M 1.609375 -0.8125 L 1.609375 -3.390625 C 2 -3.78125 2.25 -3.984375 2.65625 -3.984375 C 3.265625 -3.984375 3.8125 -3.484375 3.8125 -2.234375 C 3.8125 -1 3.4375 -0.296875 2.5 -0.296875 C 2.1875 -0.296875 1.8125 -0.5625 1.609375 -0.8125 Z M 1.609375 -4.984375 C 1.609375 -5.71875 1.625 -6.25 1.671875 -6.859375 C 1.671875 -6.921875 1.640625 -6.953125 1.578125 -6.953125 C 1.328125 -6.859375 1.125 -6.78125 0.71875 -6.765625 L 0.703125 -6.734375 C 0.78125 -6.296875 0.8125 -5.5625 0.8125 -4.8125 L 0.8125 -0.734375 C 0.8125 -0.34375 0.8125 -0.203125 0.765625 0.015625 C 0.828125 0.078125 0.953125 0.09375 1.046875 0.09375 C 1.15625 -0.015625 1.28125 -0.1875 1.375 -0.390625 C 1.671875 -0.140625 2.125 0.09375 2.546875 0.09375 C 3.5625 0.09375 4.6875 -0.625 4.6875 -2.3125 C 4.6875 -3.53125 3.828125 -4.375 2.859375 -4.375 C 2.375 -4.375 1.953125 -4.25 1.609375 -3.875 Z M 1.609375 -4.984375 "/>
</symbol>
<symbol overflow="visible" id="glyph0-7">
<path style="stroke:none;" d="M 0.796875 -5.953125 C 0.796875 -5.6875 1.03125 -5.4375 1.3125 -5.4375 C 1.578125 -5.4375 1.8125 -5.6875 1.8125 -5.953125 C 1.8125 -6.21875 1.578125 -6.453125 1.3125 -6.453125 C 1.03125 -6.453125 0.796875 -6.21875 0.796875 -5.953125 Z M 0.890625 -2.34375 L 0.890625 -1.796875 C 0.890625 -1.046875 0.875 -0.53125 0.8125 0 L 0.828125 0.03125 C 0.953125 0.015625 1.171875 0 1.296875 0 C 1.421875 0 1.640625 0.015625 1.765625 0.03125 L 1.78125 0 C 1.71875 -0.5625 1.6875 -1.03125 1.6875 -1.796875 L 1.6875 -2.5 C 1.6875 -3.25 1.71875 -3.609375 1.78125 -4.21875 C 1.78125 -4.3125 1.78125 -4.3125 1.6875 -4.3125 C 1.46875 -4.296875 1.03125 -4.28125 0.828125 -4.3125 L 0.8125 -4.28125 C 0.875 -3.84375 0.890625 -3.09375 0.890625 -2.34375 Z M 0.890625 -2.34375 "/>
</symbol>
<symbol overflow="visible" id="glyph0-8">
<path style="stroke:none;" d="M 1.671875 -3.328125 L 1.671875 -4.234375 C 1.671875 -4.3125 1.65625 -4.34375 1.609375 -4.34375 C 1.390625 -4.296875 1.03125 -4.28125 0.796875 -4.3125 L 0.78125 -4.28125 C 0.84375 -3.84375 0.875 -3.09375 0.875 -2.34375 L 0.875 -1.796875 C 0.875 -1.046875 0.859375 -0.53125 0.78125 0 L 0.796875 0.03125 C 0.921875 0.015625 1.140625 0 1.265625 0 C 1.390625 0 1.609375 0.015625 1.734375 0.03125 L 1.75 0 C 1.6875 -0.5625 1.671875 -1.03125 1.671875 -1.796875 L 1.671875 -2.3125 C 1.671875 -2.734375 1.796875 -2.96875 2 -3.296875 C 2.15625 -3.515625 2.375 -3.65625 2.5625 -3.65625 C 2.765625 -3.65625 2.953125 -3.625 3.078125 -3.515625 L 3.15625 -3.53125 L 3.359375 -4.265625 L 3.3125 -4.3125 C 3.15625 -4.359375 3.140625 -4.375 2.953125 -4.375 C 2.421875 -4.375 2.140625 -4.0625 1.6875 -3.3125 Z M 1.671875 -3.328125 "/>
</symbol>
<symbol overflow="visible" id="glyph1-0">
<path style="stroke:none;" d="M 0.5 -6.015625 L 2.1875 -3.484375 L 0.5 -0.953125 Z M 0.796875 -0.5 L 2.5 -3.03125 L 4.1875 -0.5 Z M 2.796875 -3.484375 L 4.484375 -6.015625 L 4.484375 -0.953125 Z M 2.5 -3.921875 L 0.796875 -6.453125 L 4.1875 -6.453125 Z M 0 0 L 4.984375 0 L 4.984375 -6.953125 L 0 -6.953125 Z M 0 0 "/>
</symbol>
<symbol overflow="visible" id="glyph1-1">
<path style="stroke:none;" d="M 3.53125 -3.6875 C 3.53125 -2.796875 2.5 -2.46875 1.734375 -2.359375 C 2.078125 -3.765625 2.625 -4.0625 3.046875 -4.0625 C 3.40625 -4.0625 3.53125 -3.984375 3.53125 -3.6875 Z M 1.671875 -1.984375 C 4.1875 -2.46875 4.234375 -3.203125 4.234375 -3.609375 L 4.234375 -3.640625 C 4.234375 -3.890625 4 -4.375 3.28125 -4.375 C 1.546875 -4.375 0.828125 -2.6875 0.828125 -1.421875 C 0.828125 -0.5625 1.21875 0.09375 2.046875 0.09375 C 2.71875 0.09375 3.328125 -0.25 3.921875 -1 C 3.875 -1.109375 3.8125 -1.171875 3.6875 -1.171875 C 3.125 -0.59375 2.890625 -0.5 2.40625 -0.5 C 1.96875 -0.5 1.65625 -0.734375 1.65625 -1.640625 C 1.65625 -1.6875 1.65625 -1.90625 1.671875 -1.984375 Z M 1.671875 -1.984375 "/>
</symbol>
<symbol overflow="visible" id="glyph1-2">
<path style="stroke:none;" d="M 5.1875 -2.96875 C 5.1875 -2.046875 4.09375 -0.453125 3.375 -0.453125 C 2.953125 -0.453125 2.796875 -0.5 2.640625 -0.625 C 2.421875 -0.8125 2.296875 -1.09375 2.296875 -1.40625 C 2.296875 -2 2.375 -2.515625 2.765625 -3.0625 C 3.28125 -3.78125 3.4375 -3.921875 3.4375 -4.140625 C 3.4375 -4.21875 3.375 -4.28125 3.25 -4.28125 L 1.8125 -4.28125 C 1.65625 -4.28125 1.578125 -4.25 1.5 -4.171875 C 1.25 -3.90625 1.0625 -3.53125 0.9375 -3.0625 C 0.984375 -3.015625 1.03125 -2.96875 1.109375 -2.96875 C 1.140625 -2.96875 1.171875 -2.96875 1.21875 -2.984375 C 1.328125 -3.375 1.515625 -3.5625 1.59375 -3.625 C 1.6875 -3.703125 1.875 -3.765625 2.0625 -3.765625 L 2.296875 -3.765625 C 2.609375 -3.765625 2.703125 -3.6875 2.703125 -3.59375 C 2.703125 -3.515625 2.625 -3.40625 2.515625 -3.265625 C 1.65625 -2.125 1.5 -1.671875 1.5 -1.15625 C 1.5 -0.75 1.671875 -0.40625 1.96875 -0.203125 C 2.25 -0.015625 2.578125 0.0625 2.9375 0.0625 C 3.3125 0.0625 3.671875 -0.046875 3.953125 -0.25 C 5.4375 -1.3125 5.6875 -2.953125 5.6875 -3.515625 C 5.6875 -4.171875 5.34375 -4.375 5.125 -4.375 C 4.921875 -4.375 4.734375 -4.21875 4.734375 -4.015625 C 4.734375 -3.703125 5.0625 -3.546875 5.140625 -3.296875 C 5.171875 -3.203125 5.1875 -3.09375 5.1875 -2.96875 Z M 5.1875 -2.96875 "/>
</symbol>
<symbol overflow="visible" id="glyph2-0">
<path style="stroke:none;" d="M 0.5 -6.015625 L 2.1875 -3.484375 L 0.5 -0.953125 Z M 0.796875 -0.5 L 2.5 -3.03125 L 4.1875 -0.5 Z M 2.796875 -3.484375 L 4.484375 -6.015625 L 4.484375 -0.953125 Z M 2.5 -3.921875 L 0.796875 -6.453125 L 4.1875 -6.453125 Z M 0 0 L 4.984375 0 L 4.984375 -6.953125 L 0 -6.953125 Z M 0 0 "/>
</symbol>
<symbol overflow="visible" id="glyph2-1">
<path style="stroke:none;" d="M 5.1875 -2.96875 C 5.1875 -2.046875 4.09375 -0.453125 3.375 -0.453125 C 2.953125 -0.453125 2.796875 -0.5 2.640625 -0.625 C 2.421875 -0.8125 2.296875 -1.09375 2.296875 -1.40625 C 2.296875 -2 2.375 -2.515625 2.765625 -3.0625 C 3.28125 -3.78125 3.4375 -3.921875 3.4375 -4.140625 C 3.4375 -4.21875 3.375 -4.28125 3.25 -4.28125 L 1.8125 -4.28125 C 1.65625 -4.28125 1.578125 -4.25 1.5 -4.171875 C 1.25 -3.90625 1.0625 -3.53125 0.9375 -3.0625 C 0.984375 -3.015625 1.03125 -2.96875 1.109375 -2.96875 C 1.140625 -2.96875 1.171875 -2.96875 1.21875 -2.984375 C 1.328125 -3.375 1.515625 -3.5625 1.59375 -3.625 C 1.6875 -3.703125 1.875 -3.765625 2.0625 -3.765625 L 2.296875 -3.765625 C 2.609375 -3.765625 2.703125 -3.6875 2.703125 -3.59375 C 2.703125 -3.515625 2.625 -3.40625 2.515625 -3.265625 C 1.65625 -2.125 1.5 -1.671875 1.5 -1.15625 C 1.5 -0.75 1.671875 -0.40625 1.96875 -0.203125 C 2.25 -0.015625 2.578125 0.0625 2.9375 0.0625 C 3.3125 0.0625 3.671875 -0.046875 3.953125 -0.25 C 5.4375 -1.3125 5.6875 -2.953125 5.6875 -3.515625 C 5.6875 -4.171875 5.34375 -4.375 5.125 -4.375 C 4.921875 -4.375 4.734375 -4.21875 4.734375 -4.015625 C 4.734375 -3.703125 5.0625 -3.546875 5.140625 -3.296875 C 5.171875 -3.203125 5.1875 -3.09375 5.1875 -2.96875 Z M 5.1875 -2.96875 "/>
</symbol>
<symbol overflow="visible" id="glyph3-0">
<path style="stroke:none;" d="M 0.390625 -4.8125 L 1.75 -2.78125 L 0.390625 -0.75 Z M 0.640625 -0.390625 L 1.984375 -2.421875 L 3.34375 -0.390625 Z M 2.234375 -2.78125 L 3.578125 -4.8125 L 3.578125 -0.75 Z M 1.984375 -3.140625 L 0.640625 -5.15625 L 3.34375 -5.15625 Z M 0 0 L 3.984375 0 L 3.984375 -5.5625 L 0 -5.5625 Z M 0 0 "/>
</symbol>
<symbol overflow="visible" id="glyph3-1">
<path style="stroke:none;" d="M 2.296875 -0.96875 L 2.296875 -3.734375 C 2.296875 -4.21875 2.296875 -4.703125 2.3125 -4.8125 C 2.3125 -4.84375 2.296875 -4.84375 2.265625 -4.84375 C 1.828125 -4.578125 1.40625 -4.375 0.703125 -4.046875 C 0.71875 -3.953125 0.75 -3.875 0.828125 -3.828125 C 1.1875 -3.984375 1.375 -4.03125 1.515625 -4.03125 C 1.65625 -4.03125 1.6875 -3.84375 1.6875 -3.5625 L 1.6875 -0.96875 C 1.6875 -0.3125 1.46875 -0.265625 0.90625 -0.25 C 0.890625 -0.21875 0.875 -0.171875 0.875 -0.109375 C 0.875 -0.0625 0.890625 -0.015625 0.90625 0.015625 C 1.296875 0.015625 1.578125 0 2.015625 0 C 2.40625 0 2.59375 0.015625 2.984375 0.015625 C 3.015625 -0.015625 3.03125 -0.0625 3.03125 -0.109375 C 3.03125 -0.171875 3.015625 -0.21875 2.984375 -0.25 C 2.4375 -0.265625 2.296875 -0.3125 2.296875 -0.96875 Z M 2.296875 -0.96875 "/>
</symbol>
<symbol overflow="visible" id="glyph3-2">
<path style="stroke:none;" d="M 0.484375 -3.734375 C 0.484375 -3.5625 0.640625 -3.421875 0.8125 -3.421875 C 0.9375 -3.421875 1.171875 -3.5625 1.171875 -3.734375 C 1.171875 -3.796875 1.15625 -3.84375 1.140625 -3.90625 C 1.125 -3.953125 1.078125 -4.03125 1.078125 -4.09375 C 1.078125 -4.296875 1.296875 -4.578125 1.875 -4.578125 C 2.15625 -4.578125 2.5625 -4.375 2.5625 -3.625 C 2.5625 -3.109375 2.375 -2.6875 1.90625 -2.21875 L 1.328125 -1.640625 C 0.546875 -0.84375 0.421875 -0.453125 0.421875 0.015625 C 0.421875 0.015625 0.828125 0 1.078125 0 L 2.46875 0 C 2.71875 0 3.09375 0.015625 3.09375 0.015625 C 3.203125 -0.40625 3.28125 -1 3.28125 -1.25 C 3.234375 -1.28125 3.125 -1.296875 3.046875 -1.28125 C 2.921875 -0.71875 2.78125 -0.515625 2.5 -0.515625 L 1.078125 -0.515625 C 1.078125 -0.90625 1.625 -1.4375 1.671875 -1.484375 L 2.46875 -2.25 C 2.921875 -2.6875 3.265625 -3.046875 3.265625 -3.65625 C 3.265625 -4.515625 2.5625 -4.859375 1.921875 -4.859375 C 1.03125 -4.859375 0.484375 -4.203125 0.484375 -3.734375 Z M 0.484375 -3.734375 "/>
</symbol>
<symbol overflow="visible" id="glyph4-0">
<path style="stroke:none;" d="M 0.5 -6.015625 L 2.1875 -3.484375 L 0.5 -0.953125 Z M 0.796875 -0.5 L 2.5 -3.03125 L 4.1875 -0.5 Z M 2.796875 -3.484375 L 4.484375 -6.015625 L 4.484375 -0.953125 Z M 2.5 -3.921875 L 0.796875 -6.453125 L 4.1875 -6.453125 Z M 0 0 L 4.984375 0 L 4.984375 -6.953125 L 0 -6.953125 Z M 0 0 "/>
</symbol>
<symbol overflow="visible" id="glyph4-1">
<path style="stroke:none;" d="M 4.125 -6.5625 C 3.21875 -6.5625 2.375 -6.3125 1.75 -5.828125 C 0.96875 -5.203125 0.515625 -4.1875 0.515625 -3.09375 C 0.515625 -2.046875 0.953125 -1 1.75 -0.484375 C 2.34375 -0.078125 2.9375 0.09375 3.78125 0.09375 C 4.671875 0.09375 5.671875 -0.171875 6.515625 -1.046875 L 6.265625 -1.390625 C 5.515625 -0.671875 4.96875 -0.5 4.046875 -0.5 C 2.953125 -0.5 2.140625 -1.578125 2.140625 -3.28125 C 2.140625 -5.296875 3.234375 -6.015625 4.0625 -6.015625 C 4.953125 -6.015625 5.484375 -5.59375 5.890625 -4.78125 L 6.1875 -4.78125 C 6.234375 -5.296875 6.265625 -5.59375 6.390625 -6.078125 L 6.375 -6.109375 C 6.375 -6.109375 5.34375 -6.5625 4.125 -6.5625 Z M 4.125 -6.5625 "/>
</symbol>
<symbol overflow="visible" id="glyph4-2">
<path style="stroke:none;" d="M 3.09375 -2.21875 L 3.078125 -1.28125 C 3.078125 -1.15625 3 -0.90625 2.9375 -0.84375 C 2.703125 -0.609375 2.46875 -0.5 2.1875 -0.5 C 1.890625 -0.5 1.671875 -0.796875 1.671875 -1.0625 C 1.671875 -1.421875 1.796875 -1.875 2.296875 -2 Z M 4.359375 -0.796875 C 4.359375 -1.09375 4.390625 -2.65625 4.390625 -2.765625 C 4.390625 -3.359375 4.28125 -3.734375 4 -3.984375 C 3.671875 -4.265625 3.078125 -4.375 2.609375 -4.375 C 1.890625 -4.375 0.921875 -4.0625 0.6875 -3.84375 L 0.65625 -3.8125 L 0.859375 -3.0625 L 1.1875 -3.046875 C 1.53125 -3.546875 1.96875 -3.84375 2.40625 -3.84375 C 2.84375 -3.84375 3.09375 -3.59375 3.09375 -2.828125 C 3.09375 -2.75 3.078125 -2.71875 3.046875 -2.703125 L 1.875 -2.390625 C 0.921875 -2.15625 0.34375 -1.65625 0.34375 -0.984375 C 0.34375 -0.296875 1 0.09375 1.703125 0.09375 C 2.09375 0.09375 2.625 -0.03125 3.078125 -0.484375 L 3.09375 -0.484375 C 3.234375 -0.0625 3.453125 0.09375 3.875 0.09375 C 4.265625 0.09375 4.765625 0 5.0625 -0.234375 C 5.046875 -0.3125 5.03125 -0.390625 4.96875 -0.4375 C 4.5625 -0.4375 4.359375 -0.46875 4.359375 -0.796875 Z M 4.359375 -0.796875 "/>
</symbol>
<symbol overflow="visible" id="glyph4-3">
<path style="stroke:none;" d="M 0.53125 -1.125 L 0.375 -0.171875 C 0.921875 0.03125 1.578125 0.09375 1.9375 0.09375 C 3.234375 0.09375 3.78125 -0.53125 3.78125 -1.21875 C 3.78125 -2.109375 3.078125 -2.390625 2.359375 -2.765625 C 2.03125 -2.953125 1.765625 -3.125 1.765625 -3.4375 C 1.765625 -3.71875 1.859375 -3.921875 2.25 -3.921875 C 2.734375 -3.921875 3.03125 -3.453125 3.15625 -3.1875 L 3.421875 -3.1875 L 3.625 -4.09375 L 3.59375 -4.109375 C 3.328125 -4.265625 2.75 -4.375 2.265625 -4.375 C 1.375 -4.375 0.59375 -3.9375 0.59375 -3.171875 C 0.59375 -2.46875 1.078125 -2.109375 1.640625 -1.796875 C 2.375 -1.40625 2.59375 -1.21875 2.59375 -0.828125 C 2.59375 -0.359375 2.28125 -0.34375 1.90625 -0.34375 C 1.5625 -0.34375 1.140625 -0.5625 0.84375 -1.140625 Z M 0.53125 -1.125 "/>
</symbol>
<symbol overflow="visible" id="glyph4-4">
<path style="stroke:none;" d="M 1.71875 -2.546875 C 1.765625 -3.03125 1.890625 -3.375 2.03125 -3.578125 C 2.15625 -3.75 2.359375 -3.875 2.625 -3.875 C 3.046875 -3.875 3.28125 -3.421875 3.28125 -2.546875 Z M 4.46875 -1.0625 C 4 -0.703125 3.515625 -0.65625 3.09375 -0.65625 C 2.609375 -0.65625 2.25 -0.78125 2.015625 -1.046875 C 1.796875 -1.28125 1.6875 -1.640625 1.6875 -2.09375 L 2.6875 -2.09375 C 3.671875 -2.09375 4.53125 -2.078125 4.53125 -2.078125 L 4.578125 -2.140625 C 4.578125 -3.375 4.234375 -4.375 2.703125 -4.375 C 2.15625 -4.375 1.5625 -4.203125 1.171875 -3.875 C 0.671875 -3.484375 0.34375 -2.875 0.34375 -2.046875 C 0.34375 -1.46875 0.5625 -0.84375 0.984375 -0.421875 C 1.3125 -0.0625 1.90625 0.09375 2.65625 0.09375 C 3.375 0.09375 4.09375 -0.125 4.625 -0.75 C 4.625 -0.890625 4.5625 -1.0625 4.46875 -1.0625 Z M 4.46875 -1.0625 "/>
</symbol>
<symbol overflow="visible" id="glyph4-5">
<path style="stroke:none;" d="M 3.703125 -1.890625 L 3.703125 -2.71875 C 3.703125 -3.78125 3.78125 -4.203125 3.8125 -4.34375 C 3.8125 -4.390625 3.78125 -4.390625 3.734375 -4.390625 C 3.09375 -4.171875 1.984375 -3.84375 1.0625 -3.640625 L 1.078125 -3.203125 C 1.515625 -3.265625 1.96875 -3.265625 2.15625 -3.265625 C 2.328125 -3.265625 2.34375 -2.984375 2.34375 -2.625 L 2.34375 -1.890625 C 2.34375 -1.109375 2.328125 -0.5625 2.234375 0 L 2.25 0.03125 C 2.25 0.03125 2.640625 0 3.015625 0 C 3.375 0 3.796875 0.03125 3.796875 0.03125 L 3.8125 0 C 3.734375 -0.59375 3.703125 -1.09375 3.703125 -1.890625 Z M 3.703125 -1.890625 "/>
</symbol>
<symbol overflow="visible" id="glyph4-6">
<path style="stroke:none;" d="M 2.71875 -0.890625 L 2.546875 -0.890625 C 2.515625 -0.984375 2.46875 -1.109375 2.65625 -1.25 L 3.03125 -1.5625 C 3.765625 -2.140625 4.25 -2.71875 4.140625 -3.359375 C 4.0625 -3.8125 3.71875 -4.421875 2.546875 -4.421875 C 1.703125 -4.421875 1 -3.765625 0.8125 -3.421875 C 0.640625 -3.109375 0.65625 -2.9375 0.84375 -2.796875 C 1 -2.671875 1.109375 -2.78125 1.203125 -3 C 1.359375 -3.40625 1.625 -3.65625 2.109375 -3.65625 C 2.4375 -3.65625 2.640625 -3.34375 2.71875 -3.125 C 2.828125 -2.828125 2.734375 -2.1875 2.390625 -1.796875 L 1.90625 -1.265625 C 1.5 -0.8125 1.0625 -0.53125 0.625 -0.234375 C 0.59375 -0.125 0.609375 -0.046875 0.671875 0.015625 C 0.671875 0.015625 0.890625 0 1.203125 0 L 2.828125 0 C 3.5625 0 3.8125 0.015625 4.5625 0.046875 C 4.53125 -0.09375 4.5 -0.296875 4.5 -0.421875 C 4.5 -0.5625 4.53125 -0.859375 4.5625 -0.984375 C 3.984375 -0.953125 3.703125 -0.890625 2.71875 -0.890625 Z M 2.71875 -0.890625 "/>
</symbol>
<symbol overflow="visible" id="glyph5-0">
<path style="stroke:none;" d="M 0.5 -6.015625 L 2.1875 -3.484375 L 0.5 -0.953125 Z M 0.796875 -0.5 L 2.5 -3.03125 L 4.1875 -0.5 Z M 2.796875 -3.484375 L 4.484375 -6.015625 L 4.484375 -0.953125 Z M 2.5 -3.921875 L 0.796875 -6.453125 L 4.1875 -6.453125 Z M 0 0 L 4.984375 0 L 4.984375 -6.953125 L 0 -6.953125 Z M 0 0 "/>
</symbol>
<symbol overflow="visible" id="glyph5-1">
<path style="stroke:none;" d="M 4.125 -6.5625 C 3.21875 -6.5625 2.375 -6.3125 1.75 -5.828125 C 0.96875 -5.203125 0.515625 -4.1875 0.515625 -3.09375 C 0.515625 -2.046875 0.953125 -1 1.75 -0.484375 C 2.34375 -0.078125 2.9375 0.09375 3.78125 0.09375 C 4.671875 0.09375 5.671875 -0.171875 6.515625 -1.046875 L 6.265625 -1.390625 C 5.515625 -0.671875 4.96875 -0.5 4.046875 -0.5 C 2.953125 -0.5 2.140625 -1.578125 2.140625 -3.28125 C 2.140625 -5.296875 3.234375 -6.015625 4.0625 -6.015625 C 4.953125 -6.015625 5.484375 -5.59375 5.890625 -4.78125 L 6.1875 -4.78125 C 6.234375 -5.296875 6.265625 -5.59375 6.390625 -6.078125 L 6.375 -6.109375 C 6.375 -6.109375 5.34375 -6.5625 4.125 -6.5625 Z M 4.125 -6.5625 "/>
</symbol>
<symbol overflow="visible" id="glyph5-2">
<path style="stroke:none;" d="M 3.09375 -2.21875 L 3.078125 -1.28125 C 3.078125 -1.15625 3 -0.90625 2.9375 -0.84375 C 2.703125 -0.609375 2.46875 -0.5 2.1875 -0.5 C 1.890625 -0.5 1.671875 -0.796875 1.671875 -1.0625 C 1.671875 -1.421875 1.796875 -1.875 2.296875 -2 Z M 4.359375 -0.796875 C 4.359375 -1.09375 4.390625 -2.65625 4.390625 -2.765625 C 4.390625 -3.359375 4.28125 -3.734375 4 -3.984375 C 3.671875 -4.265625 3.078125 -4.375 2.609375 -4.375 C 1.890625 -4.375 0.921875 -4.0625 0.6875 -3.84375 L 0.65625 -3.8125 L 0.859375 -3.0625 L 1.1875 -3.046875 C 1.53125 -3.546875 1.96875 -3.84375 2.40625 -3.84375 C 2.84375 -3.84375 3.09375 -3.59375 3.09375 -2.828125 C 3.09375 -2.75 3.078125 -2.71875 3.046875 -2.703125 L 1.875 -2.390625 C 0.921875 -2.15625 0.34375 -1.65625 0.34375 -0.984375 C 0.34375 -0.296875 1 0.09375 1.703125 0.09375 C 2.09375 0.09375 2.625 -0.03125 3.078125 -0.484375 L 3.09375 -0.484375 C 3.234375 -0.0625 3.453125 0.09375 3.875 0.09375 C 4.265625 0.09375 4.765625 0 5.0625 -0.234375 C 5.046875 -0.3125 5.03125 -0.390625 4.96875 -0.4375 C 4.5625 -0.4375 4.359375 -0.46875 4.359375 -0.796875 Z M 4.359375 -0.796875 "/>
</symbol>
<symbol overflow="visible" id="glyph5-3">
<path style="stroke:none;" d="M 0.53125 -1.125 L 0.375 -0.171875 C 0.921875 0.03125 1.578125 0.09375 1.9375 0.09375 C 3.234375 0.09375 3.78125 -0.53125 3.78125 -1.21875 C 3.78125 -2.109375 3.078125 -2.390625 2.359375 -2.765625 C 2.03125 -2.953125 1.765625 -3.125 1.765625 -3.4375 C 1.765625 -3.71875 1.859375 -3.921875 2.25 -3.921875 C 2.734375 -3.921875 3.03125 -3.453125 3.15625 -3.1875 L 3.421875 -3.1875 L 3.625 -4.09375 L 3.59375 -4.109375 C 3.328125 -4.265625 2.75 -4.375 2.265625 -4.375 C 1.375 -4.375 0.59375 -3.9375 0.59375 -3.171875 C 0.59375 -2.46875 1.078125 -2.109375 1.640625 -1.796875 C 2.375 -1.40625 2.59375 -1.21875 2.59375 -0.828125 C 2.59375 -0.359375 2.28125 -0.34375 1.90625 -0.34375 C 1.5625 -0.34375 1.140625 -0.5625 0.84375 -1.140625 Z M 0.53125 -1.125 "/>
</symbol>
<symbol overflow="visible" id="glyph5-4">
<path style="stroke:none;" d="M 1.71875 -2.546875 C 1.765625 -3.03125 1.890625 -3.375 2.03125 -3.578125 C 2.15625 -3.75 2.359375 -3.875 2.625 -3.875 C 3.046875 -3.875 3.28125 -3.421875 3.28125 -2.546875 Z M 4.46875 -1.0625 C 4 -0.703125 3.515625 -0.65625 3.09375 -0.65625 C 2.609375 -0.65625 2.25 -0.78125 2.015625 -1.046875 C 1.796875 -1.28125 1.6875 -1.640625 1.6875 -2.09375 L 2.6875 -2.09375 C 3.671875 -2.09375 4.53125 -2.078125 4.53125 -2.078125 L 4.578125 -2.140625 C 4.578125 -3.375 4.234375 -4.375 2.703125 -4.375 C 2.15625 -4.375 1.5625 -4.203125 1.171875 -3.875 C 0.671875 -3.484375 0.34375 -2.875 0.34375 -2.046875 C 0.34375 -1.46875 0.5625 -0.84375 0.984375 -0.421875 C 1.3125 -0.0625 1.90625 0.09375 2.65625 0.09375 C 3.375 0.09375 4.09375 -0.125 4.625 -0.75 C 4.625 -0.890625 4.5625 -1.0625 4.46875 -1.0625 Z M 4.46875 -1.0625 "/>
</symbol>
<symbol overflow="visible" id="glyph5-5">
<path style="stroke:none;" d="M 3.703125 -1.890625 L 3.703125 -2.71875 C 3.703125 -3.78125 3.78125 -4.203125 3.8125 -4.34375 C 3.8125 -4.390625 3.78125 -4.390625 3.734375 -4.390625 C 3.09375 -4.171875 1.984375 -3.84375 1.0625 -3.640625 L 1.078125 -3.203125 C 1.515625 -3.265625 1.96875 -3.265625 2.15625 -3.265625 C 2.328125 -3.265625 2.34375 -2.984375 2.34375 -2.625 L 2.34375 -1.890625 C 2.34375 -1.109375 2.328125 -0.5625 2.234375 0 L 2.25 0.03125 C 2.25 0.03125 2.640625 0 3.015625 0 C 3.375 0 3.796875 0.03125 3.796875 0.03125 L 3.8125 0 C 3.734375 -0.59375 3.703125 -1.09375 3.703125 -1.890625 Z M 3.703125 -1.890625 "/>
</symbol>
<symbol overflow="visible" id="glyph5-6">
<path style="stroke:none;" d="M 2.34375 -0.53125 C 2.203125 -0.625 2.171875 -0.796875 2.171875 -1.078125 L 2.171875 -3.265625 C 2.65625 -3.625 2.875 -3.703125 3.109375 -3.703125 C 3.71875 -3.703125 4.046875 -3.1875 4.046875 -2.21875 C 4.046875 -1.640625 3.984375 -1.1875 3.828125 -0.875 C 3.65625 -0.515625 3.34375 -0.40625 3.078125 -0.40625 C 2.734375 -0.40625 2.5 -0.4375 2.34375 -0.53125 Z M 2.171875 -4.984375 C 2.171875 -5.71875 2.21875 -6.25 2.296875 -6.859375 C 2.296875 -6.921875 2.265625 -6.953125 2.203125 -6.953125 C 1.953125 -6.859375 1.15625 -6.65625 0.75 -6.625 L 0.734375 -6.59375 C 0.8125 -6.171875 0.859375 -5.484375 0.859375 -4.71875 L 0.859375 -1.328125 C 0.859375 -0.953125 0.8125 -0.15625 0.78125 0.0625 C 0.8125 0.078125 0.828125 0.09375 0.890625 0.109375 C 1 0.09375 1.453125 -0.109375 1.609375 -0.109375 C 1.71875 -0.109375 2.015625 -0.046875 2.171875 0.015625 C 2.328125 0.09375 2.765625 0.09375 3.125 0.09375 C 3.65625 0.09375 4.1875 -0.0625 4.625 -0.421875 C 5.109375 -0.84375 5.46875 -1.53125 5.46875 -2.40625 C 5.46875 -3 5.28125 -3.53125 4.921875 -3.875 C 4.53125 -4.234375 4.078125 -4.375 3.546875 -4.375 C 3.125 -4.375 2.765625 -4.28125 2.171875 -3.828125 Z M 2.171875 -4.984375 "/>
</symbol>
<symbol overflow="visible" id="glyph6-0">
<path style="stroke:none;" d="M 0.5 -6.015625 L 2.1875 -3.484375 L 0.5 -0.953125 Z M 0.796875 -0.5 L 2.5 -3.03125 L 4.1875 -0.5 Z M 2.796875 -3.484375 L 4.484375 -6.015625 L 4.484375 -0.953125 Z M 2.5 -3.921875 L 0.796875 -6.453125 L 4.1875 -6.453125 Z M 0 0 L 4.984375 0 L 4.984375 -6.953125 L 0 -6.953125 Z M 0 0 "/>
</symbol>
<symbol overflow="visible" id="glyph6-1">
<path style="stroke:none;" d="M 4.125 -6.5625 C 3.21875 -6.5625 2.375 -6.3125 1.75 -5.828125 C 0.96875 -5.203125 0.515625 -4.1875 0.515625 -3.09375 C 0.515625 -2.046875 0.953125 -1 1.75 -0.484375 C 2.34375 -0.078125 2.9375 0.09375 3.78125 0.09375 C 4.671875 0.09375 5.671875 -0.171875 6.515625 -1.046875 L 6.265625 -1.390625 C 5.515625 -0.671875 4.96875 -0.5 4.046875 -0.5 C 2.953125 -0.5 2.140625 -1.578125 2.140625 -3.28125 C 2.140625 -5.296875 3.234375 -6.015625 4.0625 -6.015625 C 4.953125 -6.015625 5.484375 -5.59375 5.890625 -4.78125 L 6.1875 -4.78125 C 6.234375 -5.296875 6.265625 -5.59375 6.390625 -6.078125 L 6.375 -6.109375 C 6.375 -6.109375 5.34375 -6.5625 4.125 -6.5625 Z M 4.125 -6.5625 "/>
</symbol>
<symbol overflow="visible" id="glyph6-2">
<path style="stroke:none;" d="M 3.09375 -2.21875 L 3.078125 -1.28125 C 3.078125 -1.15625 3 -0.90625 2.9375 -0.84375 C 2.703125 -0.609375 2.46875 -0.5 2.1875 -0.5 C 1.890625 -0.5 1.671875 -0.796875 1.671875 -1.0625 C 1.671875 -1.421875 1.796875 -1.875 2.296875 -2 Z M 4.359375 -0.796875 C 4.359375 -1.09375 4.390625 -2.65625 4.390625 -2.765625 C 4.390625 -3.359375 4.28125 -3.734375 4 -3.984375 C 3.671875 -4.265625 3.078125 -4.375 2.609375 -4.375 C 1.890625 -4.375 0.921875 -4.0625 0.6875 -3.84375 L 0.65625 -3.8125 L 0.859375 -3.0625 L 1.1875 -3.046875 C 1.53125 -3.546875 1.96875 -3.84375 2.40625 -3.84375 C 2.84375 -3.84375 3.09375 -3.59375 3.09375 -2.828125 C 3.09375 -2.75 3.078125 -2.71875 3.046875 -2.703125 L 1.875 -2.390625 C 0.921875 -2.15625 0.34375 -1.65625 0.34375 -0.984375 C 0.34375 -0.296875 1 0.09375 1.703125 0.09375 C 2.09375 0.09375 2.625 -0.03125 3.078125 -0.484375 L 3.09375 -0.484375 C 3.234375 -0.0625 3.453125 0.09375 3.875 0.09375 C 4.265625 0.09375 4.765625 0 5.0625 -0.234375 C 5.046875 -0.3125 5.03125 -0.390625 4.96875 -0.4375 C 4.5625 -0.4375 4.359375 -0.46875 4.359375 -0.796875 Z M 4.359375 -0.796875 "/>
</symbol>
<symbol overflow="visible" id="glyph6-3">
<path style="stroke:none;" d="M 0.53125 -1.125 L 0.375 -0.171875 C 0.921875 0.03125 1.578125 0.09375 1.9375 0.09375 C 3.234375 0.09375 3.78125 -0.53125 3.78125 -1.21875 C 3.78125 -2.109375 3.078125 -2.390625 2.359375 -2.765625 C 2.03125 -2.953125 1.765625 -3.125 1.765625 -3.4375 C 1.765625 -3.71875 1.859375 -3.921875 2.25 -3.921875 C 2.734375 -3.921875 3.03125 -3.453125 3.15625 -3.1875 L 3.421875 -3.1875 L 3.625 -4.09375 L 3.59375 -4.109375 C 3.328125 -4.265625 2.75 -4.375 2.265625 -4.375 C 1.375 -4.375 0.59375 -3.9375 0.59375 -3.171875 C 0.59375 -2.46875 1.078125 -2.109375 1.640625 -1.796875 C 2.375 -1.40625 2.59375 -1.21875 2.59375 -0.828125 C 2.59375 -0.359375 2.28125 -0.34375 1.90625 -0.34375 C 1.5625 -0.34375 1.140625 -0.5625 0.84375 -1.140625 Z M 0.53125 -1.125 "/>
</symbol>
<symbol overflow="visible" id="glyph6-4">
<path style="stroke:none;" d="M 1.71875 -2.546875 C 1.765625 -3.03125 1.890625 -3.375 2.03125 -3.578125 C 2.15625 -3.75 2.359375 -3.875 2.625 -3.875 C 3.046875 -3.875 3.28125 -3.421875 3.28125 -2.546875 Z M 4.46875 -1.0625 C 4 -0.703125 3.515625 -0.65625 3.09375 -0.65625 C 2.609375 -0.65625 2.25 -0.78125 2.015625 -1.046875 C 1.796875 -1.28125 1.6875 -1.640625 1.6875 -2.09375 L 2.6875 -2.09375 C 3.671875 -2.09375 4.53125 -2.078125 4.53125 -2.078125 L 4.578125 -2.140625 C 4.578125 -3.375 4.234375 -4.375 2.703125 -4.375 C 2.15625 -4.375 1.5625 -4.203125 1.171875 -3.875 C 0.671875 -3.484375 0.34375 -2.875 0.34375 -2.046875 C 0.34375 -1.46875 0.5625 -0.84375 0.984375 -0.421875 C 1.3125 -0.0625 1.90625 0.09375 2.65625 0.09375 C 3.375 0.09375 4.09375 -0.125 4.625 -0.75 C 4.625 -0.890625 4.5625 -1.0625 4.46875 -1.0625 Z M 4.46875 -1.0625 "/>
</symbol>
<symbol overflow="visible" id="glyph6-5">
<path style="stroke:none;" d="M 2.140625 1.34375 C 1.390625 1.34375 1.359375 0.953125 1.03125 0.359375 L 0.59375 0.375 L 0.375 1.15625 L 0.421875 1.203125 C 0.671875 1.421875 1.203125 1.765625 2.125 1.765625 C 3.5625 1.765625 4.671875 1.078125 4.671875 -0.140625 C 4.671875 -1.09375 3.84375 -1.53125 3.09375 -1.59375 L 3.09375 -1.625 C 3.828125 -1.8125 4.390625 -2.3125 4.390625 -3.15625 C 4.390625 -4.09375 3.609375 -4.421875 2.390625 -4.421875 C 1.515625 -4.421875 0.78125 -4.09375 0.53125 -3.875 L 0.5 -3.828125 L 0.703125 -3.046875 L 1.140625 -3.03125 C 1.453125 -3.65625 1.640625 -4 2.296875 -4 C 2.6875 -4 3.125 -3.515625 3.125 -2.984375 C 3.125 -2.15625 2.5625 -1.71875 1.546875 -1.65625 L 1.546875 -1.25 C 1.671875 -1.28125 1.9375 -1.28125 2.03125 -1.28125 C 2.609375 -1.28125 3.15625 -1.0625 3.15625 -0.109375 C 3.15625 1.046875 2.5 1.34375 2.140625 1.34375 Z M 2.140625 1.34375 "/>
</symbol>
</g>
<linearGradient id="linear0" gradientUnits="userSpaceOnUse" x1="116" y1="648" x2="116" y2="656" gradientTransform="matrix(0,-1,-1,0,721.859,224.2)">
<stop offset="0" style="stop-color:rgb(0%,0%,0%);stop-opacity:1;"/>
<stop offset="1" style="stop-color:rgb(100%,100%,100%);stop-opacity:1;"/>
</linearGradient>
<linearGradient id="linear1" gradientUnits="userSpaceOnUse" x1="172" y1="680" x2="172" y2="688" gradientTransform="matrix(1,0,0,-1,-72.141,752.2)">
<stop offset="0" style="stop-color:rgb(80%,80%,80%);stop-opacity:1;"/>
<stop offset="1" style="stop-color:rgb(100%,100%,100%);stop-opacity:1;"/>
</linearGradient>
<linearGradient id="linear2" gradientUnits="userSpaceOnUse" x1="172" y1="680" x2="172" y2="688" gradientTransform="matrix(1,0,0,-1,-72.141,752.2)">
<stop offset="0" style="stop-color:rgb(80%,80%,80%);stop-opacity:1;"/>
<stop offset="1" style="stop-color:rgb(100%,100%,100%);stop-opacity:1;"/>
</linearGradient>
<linearGradient id="linear3" gradientUnits="userSpaceOnUse" x1="116" y1="648" x2="116" y2="656" gradientTransform="matrix(0,-1,-1,0,849.859,224.2)">
<stop offset="0" style="stop-color:rgb(0%,0%,0%);stop-opacity:1;"/>
<stop offset="1" style="stop-color:rgb(100%,100%,100%);stop-opacity:1;"/>
</linearGradient>
<linearGradient id="linear4" gradientUnits="userSpaceOnUse" x1="172" y1="680" x2="172" y2="688" gradientTransform="matrix(1,0,0,-1,67.859,752.2)">
<stop offset="0" style="stop-color:rgb(80%,80%,80%);stop-opacity:1;"/>
<stop offset="1" style="stop-color:rgb(100%,100%,100%);stop-opacity:1;"/>
</linearGradient>
<linearGradient id="linear5" gradientUnits="userSpaceOnUse" x1="172" y1="680" x2="172" y2="688" gradientTransform="matrix(1,0,0,-1,67.859,752.2)">
<stop offset="0" style="stop-color:rgb(80%,80%,80%);stop-opacity:1;"/>
<stop offset="1" style="stop-color:rgb(100%,100%,100%);stop-opacity:1;"/>
</linearGradient>
<linearGradient id="linear6" gradientUnits="userSpaceOnUse" x1="116" y1="648" x2="116" y2="656" gradientTransform="matrix(0,-1,-1,0,721.859,160.2)">
<stop offset="0" style="stop-color:rgb(0%,0%,0%);stop-opacity:1;"/>
<stop offset="1" style="stop-color:rgb(100%,100%,100%);stop-opacity:1;"/>
</linearGradient>
<linearGradient id="linear7" gradientUnits="userSpaceOnUse" x1="172" y1="680" x2="172" y2="688" gradientTransform="matrix(1,0,0,-1,-72.141,688.2)">
<stop offset="0" style="stop-color:rgb(80%,80%,80%);stop-opacity:1;"/>
<stop offset="1" style="stop-color:rgb(100%,100%,100%);stop-opacity:1;"/>
</linearGradient>
<linearGradient id="linear8" gradientUnits="userSpaceOnUse" x1="172" y1="680" x2="172" y2="688" gradientTransform="matrix(1,0,0,-1,-72.141,688.2)">
<stop offset="0" style="stop-color:rgb(80%,80%,80%);stop-opacity:1;"/>
<stop offset="1" style="stop-color:rgb(100%,100%,100%);stop-opacity:1;"/>
</linearGradient>
<linearGradient id="linear9" gradientUnits="userSpaceOnUse" x1="116" y1="648" x2="116" y2="656" gradientTransform="matrix(0,-1,-1,0,849.859,160.2)">
<stop offset="0" style="stop-color:rgb(0%,0%,0%);stop-opacity:1;"/>
<stop offset="1" style="stop-color:rgb(100%,100%,100%);stop-opacity:1;"/>
</linearGradient>
<linearGradient id="linear10" gradientUnits="userSpaceOnUse" x1="172" y1="680" x2="172" y2="688" gradientTransform="matrix(1,0,0,-1,67.859,688.2)">
<stop offset="0" style="stop-color:rgb(80%,80%,80%);stop-opacity:1;"/>
<stop offset="1" style="stop-color:rgb(100%,100%,100%);stop-opacity:1;"/>
</linearGradient>
<linearGradient id="linear11" gradientUnits="userSpaceOnUse" x1="172" y1="680" x2="172" y2="688" gradientTransform="matrix(1,0,0,-1,67.859,688.2)">
<stop offset="0" style="stop-color:rgb(80%,80%,80%);stop-opacity:1;"/>
<stop offset="1" style="stop-color:rgb(100%,100%,100%);stop-opacity:1;"/>
</linearGradient>
<linearGradient id="linear12" gradientUnits="userSpaceOnUse" x1="116" y1="648" x2="116" y2="656" gradientTransform="matrix(0,-1,-1,0,721.859,288.2)">
<stop offset="0" style="stop-color:rgb(0%,0%,0%);stop-opacity:1;"/>
<stop offset="1" style="stop-color:rgb(100%,100%,100%);stop-opacity:1;"/>
</linearGradient>
<linearGradient id="linear13" gradientUnits="userSpaceOnUse" x1="256.4" y1="368" x2="256.4" y2="360" gradientTransform="matrix(1,0,0,-1,-188.141,496.2)">
<stop offset="0" style="stop-color:rgb(100%,100%,100%);stop-opacity:1;"/>
<stop offset="1" style="stop-color:rgb(0%,0%,0%);stop-opacity:1;"/>
</linearGradient>
<linearGradient id="linear14" gradientUnits="userSpaceOnUse" x1="172" y1="680" x2="172" y2="688" gradientTransform="matrix(1,0,0,-1,-72.141,816.2)">
<stop offset="0" style="stop-color:rgb(80%,80%,80%);stop-opacity:1;"/>
<stop offset="1" style="stop-color:rgb(100%,100%,100%);stop-opacity:1;"/>
</linearGradient>
<linearGradient id="linear15" gradientUnits="userSpaceOnUse" x1="116" y1="648" x2="116" y2="656" gradientTransform="matrix(0,-1,-1,0,849.859,288.2)">
<stop offset="0" style="stop-color:rgb(0%,0%,0%);stop-opacity:1;"/>
<stop offset="1" style="stop-color:rgb(100%,100%,100%);stop-opacity:1;"/>
</linearGradient>
<linearGradient id="linear16" gradientUnits="userSpaceOnUse" x1="172" y1="680" x2="172" y2="688" gradientTransform="matrix(1,0,0,-1,67.859,816.2)">
<stop offset="0" style="stop-color:rgb(80%,80%,80%);stop-opacity:1;"/>
<stop offset="1" style="stop-color:rgb(100%,100%,100%);stop-opacity:1;"/>
</linearGradient>
<linearGradient id="linear17" gradientUnits="userSpaceOnUse" x1="256.4" y1="368" x2="256.4" y2="360" gradientTransform="matrix(1,0,0,-1,-48.141,496.2)">
<stop offset="0" style="stop-color:rgb(100%,100%,100%);stop-opacity:1;"/>
<stop offset="1" style="stop-color:rgb(0%,0%,0%);stop-opacity:1;"/>
</linearGradient>
<linearGradient id="linear18" gradientUnits="userSpaceOnUse" x1="262" y1="554" x2="254" y2="554" gradientTransform="matrix(1,0,0,-1,-188.141,800.2)">
<stop offset="0" style="stop-color:rgb(80%,80%,80%);stop-opacity:1;"/>
<stop offset="1" style="stop-color:rgb(100%,100%,100%);stop-opacity:1;"/>
</linearGradient>
<linearGradient id="linear19" gradientUnits="userSpaceOnUse" x1="172" y1="680" x2="172" y2="688" gradientTransform="matrix(1,0,0,-1,-72.141,880.2)">
<stop offset="0" style="stop-color:rgb(80%,80%,80%);stop-opacity:1;"/>
<stop offset="1" style="stop-color:rgb(100%,100%,100%);stop-opacity:1;"/>
</linearGradient>
<linearGradient id="linear20" gradientUnits="userSpaceOnUse" x1="172" y1="680" x2="172" y2="688" gradientTransform="matrix(1,0,0,-1,-72.141,880.2)">
<stop offset="0" style="stop-color:rgb(80%,80%,80%);stop-opacity:1;"/>
<stop offset="1" style="stop-color:rgb(100%,100%,100%);stop-opacity:1;"/>
</linearGradient>
<linearGradient id="linear21" gradientUnits="userSpaceOnUse" x1="172" y1="680" x2="172" y2="688" gradientTransform="matrix(1,0,0,-1,67.859,880.2)">
<stop offset="0" style="stop-color:rgb(80%,80%,80%);stop-opacity:1;"/>
<stop offset="1" style="stop-color:rgb(100%,100%,100%);stop-opacity:1;"/>
</linearGradient>
<linearGradient id="linear22" gradientUnits="userSpaceOnUse" x1="172" y1="680" x2="172" y2="688" gradientTransform="matrix(1,0,0,-1,67.859,880.2)">
<stop offset="0" style="stop-color:rgb(80%,80%,80%);stop-opacity:1;"/>
<stop offset="1" style="stop-color:rgb(100%,100%,100%);stop-opacity:1;"/>
</linearGradient>
<linearGradient id="linear23" gradientUnits="userSpaceOnUse" x1="262" y1="554" x2="254" y2="554" gradientTransform="matrix(1,0,0,-1,-60.141,800.2)">
<stop offset="0" style="stop-color:rgb(80%,80%,80%);stop-opacity:1;"/>
<stop offset="1" style="stop-color:rgb(100%,100%,100%);stop-opacity:1;"/>
</linearGradient>
</defs>
<g id="surface1">
<path style="fill:none;stroke-width:0.8;stroke-linecap:round;stroke-linejoin:round;stroke:rgb(80%,80%,80%);stroke-opacity:1;stroke-miterlimit:10;" d="M 400.000375 492.000781 L 400.000375 496.000781 " transform="matrix(1,0,0,-1,-188.141,528.2)"/>
<path style="fill:none;stroke-width:0.8;stroke-linecap:round;stroke-linejoin:round;stroke:rgb(80%,80%,80%);stroke-opacity:1;stroke-miterlimit:10;" d="M 272.000375 441.227344 L 272.000375 448.000781 " transform="matrix(1,0,0,-1,-188.141,528.2)"/>
<path style="fill:none;stroke-width:0.8;stroke-linecap:round;stroke-linejoin:round;stroke:rgb(80%,80%,80%);stroke-opacity:1;stroke-miterlimit:10;" d="M 412.000375 448.000781 L 412.000375 441.227344 " transform="matrix(1,0,0,-1,-188.141,528.2)"/>
<path style="fill:none;stroke-width:0.8;stroke-linecap:round;stroke-linejoin:round;stroke:rgb(0%,0%,0%);stroke-opacity:1;stroke-miterlimit:10;" d="M 412.000375 440.000781 C 412.000375 435.582813 408.418344 432.000781 404.000375 432.000781 " transform="matrix(1,0,0,-1,-188.141,528.2)"/>
<path style="fill:none;stroke-width:0.8;stroke-linecap:round;stroke-linejoin:round;stroke:rgb(0%,0%,0%);stroke-opacity:1;stroke-miterlimit:10;" d="M 262.000375 416.000781 L 264.000375 416.000781 " transform="matrix(1,0,0,-1,-188.141,528.2)"/>
<path style="fill:none;stroke-width:0.8;stroke-linecap:round;stroke-linejoin:round;stroke:rgb(0%,0%,0%);stroke-opacity:1;stroke-miterlimit:10;" d="M 272.000375 424.000781 C 272.000375 419.582813 268.418344 416.000781 264.000375 416.000781 " transform="matrix(1,0,0,-1,-188.141,528.2)"/>
<path style="fill:none;stroke-width:0.8;stroke-linecap:round;stroke-linejoin:round;stroke:rgb(0%,0%,0%);stroke-opacity:1;stroke-miterlimit:10;" d="M 272.000375 424.000781 L 272.000375 441.227344 " transform="matrix(1,0,0,-1,-188.141,528.2)"/>
<path style=" stroke:none;fill-rule:evenodd;fill:url(#linear0);" d="M 65.859375 112.601562 L 73.859375 112.601562 L 73.859375 111.800781 L 65.859375 111.800781 Z M 65.859375 112.601562 "/>
<path style=" stroke:none;fill-rule:evenodd;fill:rgb(80%,80%,80%);fill-opacity:1;" d="M 85.660156 80.199219 C 85.660156 77.800781 82.058594 77.800781 82.058594 80.199219 C 82.058594 82.601562 85.660156 82.601562 85.660156 80.199219 Z M 85.660156 80.199219 "/>
<path style="fill:none;stroke-width:0.8;stroke-linecap:round;stroke-linejoin:round;stroke:rgb(80%,80%,80%);stroke-opacity:1;stroke-miterlimit:10;" d="M 272.000375 448.000781 C 267.582406 448.000781 264.000375 451.582813 264.000375 456.000781 " transform="matrix(1,0,0,-1,-188.141,528.2)"/>
<path style="fill:none;stroke-width:0.8;stroke-linecap:round;stroke-linejoin:round;stroke:rgb(80%,80%,80%);stroke-opacity:1;stroke-miterlimit:10;" d="M 280.000375 456.000781 C 280.000375 451.582813 276.418344 448.000781 272.000375 448.000781 " transform="matrix(1,0,0,-1,-188.141,528.2)"/>
<path style=" stroke:none;fill-rule:evenodd;fill:url(#linear1);" d="M 75.460938 64.199219 L 75.460938 72.199219 L 76.257812 72.199219 L 76.257812 64.199219 Z M 75.460938 64.199219 "/>
<path style=" stroke:none;fill-rule:evenodd;fill:url(#linear2);" d="M 91.460938 64.199219 L 91.460938 72.199219 L 92.257812 72.199219 L 92.257812 64.199219 Z M 91.460938 64.199219 "/>
<path style=" stroke:none;fill-rule:evenodd;fill:rgb(69.8%,87.4%,54.1%);fill-opacity:1;" d="M 77.390625 112.199219 C 77.390625 108.558594 71.929688 108.558594 71.929688 112.199219 C 71.929688 115.839844 77.390625 115.839844 77.390625 112.199219 Z M 77.390625 112.199219 "/>
<path style="fill:none;stroke-width:0.6;stroke-linecap:round;stroke-linejoin:round;stroke:rgb(0%,0%,0%);stroke-opacity:1;stroke-miterlimit:10;" d="M 261.488656 416.000781 L 264.10975 416.000781 " transform="matrix(1,0,0,-1,-188.141,528.2)"/>
<path style="fill:none;stroke-width:0.6;stroke-linecap:round;stroke-linejoin:round;stroke:rgb(0%,0%,0%);stroke-opacity:1;stroke-miterlimit:10;" d="M 262.801156 414.688281 L 262.801156 417.309375 " transform="matrix(1,0,0,-1,-188.141,528.2)"/>
<g style="fill:rgb(0%,0%,0%);fill-opacity:1;">
  <use xlink:href="#glyph0-1" x="136.138" y="115.982"/>
  <use xlink:href="#glyph0-2" x="141.418178" y="115.982"/>
  <use xlink:href="#glyph0-3" x="145.931236" y="115.982"/>
  <use xlink:href="#glyph0-4" x="150.723246" y="115.982"/>
  <use xlink:href="#glyph0-5" x="154.11053" y="115.982"/>
</g>
<g style="fill:rgb(0%,0%,0%);fill-opacity:1;">
  <use xlink:href="#glyph0-6" x="137.8565" y="81.982"/>
  <use xlink:href="#glyph0-7" x="142.87765" y="81.982"/>
  <use xlink:href="#glyph0-8" x="145.467926" y="81.982"/>
  <use xlink:href="#glyph0-4" x="149.004649" y="81.982"/>
  <use xlink:href="#glyph0-5" x="152.391933" y="81.982"/>
</g>
<path style="fill:none;stroke-width:1.2;stroke-linecap:round;stroke-linejoin:round;stroke:rgb(0%,0%,0%);stroke-opacity:1;stroke-miterlimit:10;" d="M 320.000375 436.000781 L 352.000375 436.000781 " transform="matrix(1,0,0,-1,-188.141,528.2)"/>
<path style="fill-rule:evenodd;fill:rgb(0%,0%,0%);fill-opacity:1;stroke-width:1.2;stroke-linecap:round;stroke-linejoin:round;stroke:rgb(0%,0%,0%);stroke-opacity:1;stroke-miterlimit:10;" d="M 352.000375 436.000781 L 347.000375 437.664844 L 347.000375 434.336719 Z M 352.000375 436.000781 " transform="matrix(1,0,0,-1,-188.141,528.2)"/>
<path style="fill:none;stroke-width:1.2;stroke-linecap:round;stroke-linejoin:round;stroke:rgb(0%,0%,0%);stroke-opacity:1;stroke-miterlimit:10;" d="M 320.000375 428.000781 L 352.000375 428.000781 " transform="matrix(1,0,0,-1,-188.141,528.2)"/>
<path style="fill-rule:evenodd;fill:rgb(0%,0%,0%);fill-opacity:1;stroke-width:1.2;stroke-linecap:round;stroke-linejoin:round;stroke:rgb(0%,0%,0%);stroke-opacity:1;stroke-miterlimit:10;" d="M 320.000375 428.000781 L 325.000375 426.336719 L 325.000375 429.664844 Z M 320.000375 428.000781 " transform="matrix(1,0,0,-1,-188.141,528.2)"/>
<path style="fill:none;stroke-width:0.8;stroke-linecap:round;stroke-linejoin:round;stroke:rgb(0%,0%,0%);stroke-opacity:1;stroke-miterlimit:10;" d="M 390.000375 416.000781 L 392.000375 416.000781 " transform="matrix(1,0,0,-1,-188.141,528.2)"/>
<path style="fill:none;stroke-width:0.8;stroke-linecap:round;stroke-linejoin:round;stroke:rgb(0%,0%,0%);stroke-opacity:1;stroke-miterlimit:10;" d="M 400.000375 432.000781 L 404.000375 432.000781 " transform="matrix(1,0,0,-1,-188.141,528.2)"/>
<path style="fill:none;stroke-width:0.8;stroke-linecap:round;stroke-linejoin:round;stroke:rgb(80%,80%,80%);stroke-opacity:1;stroke-miterlimit:10;" d="M 396.000375 432.000781 L 400.000375 432.000781 " transform="matrix(1,0,0,-1,-188.141,528.2)"/>
<path style="fill:none;stroke-width:0.8;stroke-linecap:round;stroke-linejoin:round;stroke:rgb(0%,0%,0%);stroke-opacity:1;stroke-miterlimit:10;" d="M 400.000375 424.000781 C 400.000375 419.582813 396.418344 416.000781 392.000375 416.000781 " transform="matrix(1,0,0,-1,-188.141,528.2)"/>
<path style="fill:none;stroke-width:0.8;stroke-linecap:round;stroke-linejoin:round;stroke:rgb(0%,0%,0%);stroke-opacity:1;stroke-miterlimit:10;" d="M 400.000375 424.000781 L 400.000375 432.000781 " transform="matrix(1,0,0,-1,-188.141,528.2)"/>
<path style=" stroke:none;fill-rule:evenodd;fill:url(#linear3);" d="M 193.859375 112.601562 L 201.859375 112.601562 L 201.859375 111.800781 L 193.859375 111.800781 Z M 193.859375 112.601562 "/>
<path style=" stroke:none;fill-rule:evenodd;fill:rgb(0%,0%,0%);fill-opacity:1;" d="M 213.660156 96.199219 C 213.660156 93.800781 210.058594 93.800781 210.058594 96.199219 C 210.058594 98.601562 213.660156 98.601562 213.660156 96.199219 Z M 213.660156 96.199219 "/>
<path style="fill:none;stroke-width:0.8;stroke-linecap:round;stroke-linejoin:round;stroke:rgb(80%,80%,80%);stroke-opacity:1;stroke-miterlimit:10;" d="M 396.000375 432.000781 C 391.582406 432.000781 388.000375 435.582813 388.000375 440.000781 " transform="matrix(1,0,0,-1,-188.141,528.2)"/>
<path style=" stroke:none;fill-rule:evenodd;fill:rgb(80%,80%,80%);fill-opacity:1;" d="M 225.660156 80.199219 C 225.660156 77.800781 222.058594 77.800781 222.058594 80.199219 C 222.058594 82.601562 225.660156 82.601562 225.660156 80.199219 Z M 225.660156 80.199219 "/>
<path style="fill:none;stroke-width:0.8;stroke-linecap:round;stroke-linejoin:round;stroke:rgb(80%,80%,80%);stroke-opacity:1;stroke-miterlimit:10;" d="M 412.000375 448.000781 C 407.582406 448.000781 404.000375 451.582813 404.000375 456.000781 " transform="matrix(1,0,0,-1,-188.141,528.2)"/>
<path style="fill:none;stroke-width:0.8;stroke-linecap:round;stroke-linejoin:round;stroke:rgb(80%,80%,80%);stroke-opacity:1;stroke-miterlimit:10;" d="M 420.000375 456.000781 C 420.000375 451.582813 416.418344 448.000781 412.000375 448.000781 " transform="matrix(1,0,0,-1,-188.141,528.2)"/>
<path style=" stroke:none;fill-rule:evenodd;fill:url(#linear4);" d="M 215.460938 64.199219 L 215.460938 72.199219 L 216.257812 72.199219 L 216.257812 64.199219 Z M 215.460938 64.199219 "/>
<path style=" stroke:none;fill-rule:evenodd;fill:url(#linear5);" d="M 231.460938 64.199219 L 231.460938 72.199219 L 232.257812 72.199219 L 232.257812 64.199219 Z M 231.460938 64.199219 "/>
<path style=" stroke:none;fill-rule:evenodd;fill:rgb(69.8%,87.4%,54.1%);fill-opacity:1;" d="M 219.386719 96.160156 C 219.386719 92.519531 213.929688 92.519531 213.929688 96.160156 C 213.929688 99.800781 219.386719 99.800781 219.386719 96.160156 Z M 219.386719 96.160156 "/>
<path style="fill:none;stroke-width:0.6;stroke-linecap:round;stroke-linejoin:round;stroke:rgb(0%,0%,0%);stroke-opacity:1;stroke-miterlimit:10;" d="M 403.488656 432.039844 L 406.10975 432.039844 " transform="matrix(1,0,0,-1,-188.141,528.2)"/>
<path style="fill:none;stroke-width:0.6;stroke-linecap:round;stroke-linejoin:round;stroke:rgb(0%,0%,0%);stroke-opacity:1;stroke-miterlimit:10;" d="M 404.79725 430.73125 L 404.79725 433.352344 " transform="matrix(1,0,0,-1,-188.141,528.2)"/>
<path style=" stroke:none;fill-rule:evenodd;fill:rgb(98.4%,60.3%,60%);fill-opacity:1;" d="M 222.011719 78.761719 C 222.011719 75.121094 216.550781 75.121094 216.550781 78.761719 C 216.550781 82.398438 222.011719 82.398438 222.011719 78.761719 Z M 222.011719 78.761719 "/>
<path style="fill:none;stroke-width:0.6;stroke-linecap:round;stroke-linejoin:round;stroke:rgb(0%,0%,0%);stroke-opacity:1;stroke-miterlimit:10;" d="M 406.113656 449.438281 L 408.730844 449.438281 " transform="matrix(1,0,0,-1,-188.141,528.2)"/>
<path style=" stroke:none;fill-rule:evenodd;fill:rgb(98.4%,60.3%,60%);fill-opacity:1;" d="M 231.167969 78.761719 C 231.167969 75.121094 225.707031 75.121094 225.707031 78.761719 C 225.707031 82.398438 231.167969 82.398438 231.167969 78.761719 Z M 231.167969 78.761719 "/>
<path style="fill:none;stroke-width:0.6;stroke-linecap:round;stroke-linejoin:round;stroke:rgb(0%,0%,0%);stroke-opacity:1;stroke-miterlimit:10;" d="M 415.266 449.438281 L 417.887094 449.438281 " transform="matrix(1,0,0,-1,-188.141,528.2)"/>
<path style=" stroke:none;fill-rule:evenodd;fill:rgb(80%,80%,80%);fill-opacity:1;" d="M 201.660156 88.199219 C 201.660156 85.800781 198.058594 85.800781 198.058594 88.199219 C 198.058594 90.601562 201.660156 90.601562 201.660156 88.199219 Z M 201.660156 88.199219 "/>
<path style=" stroke:none;fill-rule:evenodd;fill:rgb(98.4%,60.3%,60%);fill-opacity:1;" d="M 209.789062 96.160156 C 209.789062 92.519531 204.328125 92.519531 204.328125 96.160156 C 204.328125 99.800781 209.789062 99.800781 209.789062 96.160156 Z M 209.789062 96.160156 "/>
<path style="fill:none;stroke-width:0.6;stroke-linecap:round;stroke-linejoin:round;stroke:rgb(0%,0%,0%);stroke-opacity:1;stroke-miterlimit:10;" d="M 393.891 432.039844 L 396.512094 432.039844 " transform="matrix(1,0,0,-1,-188.141,528.2)"/>
<path style="fill:none;stroke-width:0.8;stroke-linecap:round;stroke-linejoin:round;stroke:rgb(0%,0%,0%);stroke-opacity:1;stroke-miterlimit:10;" d="M 412.000375 440.000781 L 412.000375 441.227344 " transform="matrix(1,0,0,-1,-188.141,528.2)"/>
<path style="fill:none;stroke-width:0.8;stroke-linecap:round;stroke-linejoin:round;stroke:rgb(0%,0%,0%);stroke-opacity:1;stroke-miterlimit:10;" d="M 390.000375 416.000781 L 392.000375 416.000781 " transform="matrix(1,0,0,-1,-188.141,528.2)"/>
<path style=" stroke:none;fill-rule:evenodd;fill:rgb(98.4%,60.3%,60%);fill-opacity:1;" d="M 82.011719 78.761719 C 82.011719 75.121094 76.550781 75.121094 76.550781 78.761719 C 76.550781 82.398438 82.011719 82.398438 82.011719 78.761719 Z M 82.011719 78.761719 "/>
<path style="fill:none;stroke-width:0.6;stroke-linecap:round;stroke-linejoin:round;stroke:rgb(0%,0%,0%);stroke-opacity:1;stroke-miterlimit:10;" d="M 266.113656 449.438281 L 268.730844 449.438281 " transform="matrix(1,0,0,-1,-188.141,528.2)"/>
<path style=" stroke:none;fill-rule:evenodd;fill:rgb(98.4%,60.3%,60%);fill-opacity:1;" d="M 91.167969 78.761719 C 91.167969 75.121094 85.707031 75.121094 85.707031 78.761719 C 85.707031 82.398438 91.167969 82.398438 91.167969 78.761719 Z M 91.167969 78.761719 "/>
<path style="fill:none;stroke-width:0.6;stroke-linecap:round;stroke-linejoin:round;stroke:rgb(0%,0%,0%);stroke-opacity:1;stroke-miterlimit:10;" d="M 275.266 449.438281 L 277.887094 449.438281 " transform="matrix(1,0,0,-1,-188.141,528.2)"/>
<path style="fill:none;stroke-width:0.8;stroke-linecap:round;stroke-linejoin:round;stroke:rgb(80%,80%,80%);stroke-opacity:1;stroke-miterlimit:10;" d="M 272.000375 492.000781 L 272.000375 512.000781 " transform="matrix(1,0,0,-1,-188.141,528.2)"/>
<path style="fill:none;stroke-width:0.8;stroke-linecap:round;stroke-linejoin:round;stroke:rgb(80%,80%,80%);stroke-opacity:1;stroke-miterlimit:10;" d="M 412.000375 512.000781 L 412.000375 504.000781 " transform="matrix(1,0,0,-1,-188.141,528.2)"/>
<path style="fill:none;stroke-width:0.8;stroke-linecap:round;stroke-linejoin:round;stroke:rgb(80%,80%,80%);stroke-opacity:1;stroke-miterlimit:10;" d="M 412.000375 504.000781 C 412.000375 499.582813 408.418344 496.000781 404.000375 496.000781 " transform="matrix(1,0,0,-1,-188.141,528.2)"/>
<path style="fill:none;stroke-width:0.8;stroke-linecap:round;stroke-linejoin:round;stroke:rgb(0%,0%,0%);stroke-opacity:1;stroke-miterlimit:10;" d="M 262.000375 480.000781 L 264.000375 480.000781 " transform="matrix(1,0,0,-1,-188.141,528.2)"/>
<path style="fill:none;stroke-width:0.8;stroke-linecap:round;stroke-linejoin:round;stroke:rgb(0%,0%,0%);stroke-opacity:1;stroke-miterlimit:10;" d="M 272.000375 488.000781 C 272.000375 483.582813 268.418344 480.000781 264.000375 480.000781 " transform="matrix(1,0,0,-1,-188.141,528.2)"/>
<path style="fill:none;stroke-width:0.8;stroke-linecap:round;stroke-linejoin:round;stroke:rgb(0%,0%,0%);stroke-opacity:1;stroke-miterlimit:10;" d="M 272.000375 488.000781 L 272.000375 492.000781 " transform="matrix(1,0,0,-1,-188.141,528.2)"/>
<path style=" stroke:none;fill-rule:evenodd;fill:url(#linear6);" d="M 65.859375 48.601562 L 73.859375 48.601562 L 73.859375 47.800781 L 65.859375 47.800781 Z M 65.859375 48.601562 "/>
<path style=" stroke:none;fill-rule:evenodd;fill:rgb(80%,80%,80%);fill-opacity:1;" d="M 85.660156 16.199219 C 85.660156 13.800781 82.058594 13.800781 82.058594 16.199219 C 82.058594 18.601562 85.660156 18.601562 85.660156 16.199219 Z M 85.660156 16.199219 "/>
<path style="fill:none;stroke-width:0.8;stroke-linecap:round;stroke-linejoin:round;stroke:rgb(80%,80%,80%);stroke-opacity:1;stroke-miterlimit:10;" d="M 272.000375 512.000781 C 267.582406 512.000781 264.000375 515.582813 264.000375 520.000781 " transform="matrix(1,0,0,-1,-188.141,528.2)"/>
<path style="fill:none;stroke-width:0.8;stroke-linecap:round;stroke-linejoin:round;stroke:rgb(80%,80%,80%);stroke-opacity:1;stroke-miterlimit:10;" d="M 280.000375 520.000781 C 280.000375 515.582813 276.418344 512.000781 272.000375 512.000781 " transform="matrix(1,0,0,-1,-188.141,528.2)"/>
<path style=" stroke:none;fill-rule:evenodd;fill:url(#linear7);" d="M 75.460938 0.199219 L 75.460938 8.199219 L 76.257812 8.199219 L 76.257812 0.199219 Z M 75.460938 0.199219 "/>
<path style=" stroke:none;fill-rule:evenodd;fill:url(#linear8);" d="M 91.460938 0.199219 L 91.460938 8.199219 L 92.257812 8.199219 L 92.257812 0.199219 Z M 91.460938 0.199219 "/>
<path style=" stroke:none;fill-rule:evenodd;fill:rgb(69.8%,87.4%,54.1%);fill-opacity:1;" d="M 77.390625 48.199219 C 77.390625 44.558594 71.929688 44.558594 71.929688 48.199219 C 71.929688 51.839844 77.390625 51.839844 77.390625 48.199219 Z M 77.390625 48.199219 "/>
<path style="fill:none;stroke-width:0.6;stroke-linecap:round;stroke-linejoin:round;stroke:rgb(0%,0%,0%);stroke-opacity:1;stroke-miterlimit:10;" d="M 261.488656 480.000781 L 264.10975 480.000781 " transform="matrix(1,0,0,-1,-188.141,528.2)"/>
<path style="fill:none;stroke-width:0.6;stroke-linecap:round;stroke-linejoin:round;stroke:rgb(0%,0%,0%);stroke-opacity:1;stroke-miterlimit:10;" d="M 262.801156 478.688281 L 262.801156 481.309375 " transform="matrix(1,0,0,-1,-188.141,528.2)"/>
<g style="fill:rgb(0%,0%,0%);fill-opacity:1;">
  <use xlink:href="#glyph0-1" x="136.138" y="51.982"/>
  <use xlink:href="#glyph0-2" x="141.418178" y="51.982"/>
  <use xlink:href="#glyph0-3" x="145.931236" y="51.982"/>
  <use xlink:href="#glyph0-4" x="150.723246" y="51.982"/>
  <use xlink:href="#glyph0-5" x="154.11053" y="51.982"/>
</g>
<g style="fill:rgb(0%,0%,0%);fill-opacity:1;">
  <use xlink:href="#glyph0-6" x="137.8565" y="17.982"/>
  <use xlink:href="#glyph0-7" x="142.87765" y="17.982"/>
  <use xlink:href="#glyph0-8" x="145.467926" y="17.982"/>
  <use xlink:href="#glyph0-4" x="149.004649" y="17.982"/>
  <use xlink:href="#glyph0-5" x="152.391933" y="17.982"/>
</g>
<path style="fill:none;stroke-width:1.2;stroke-linecap:round;stroke-linejoin:round;stroke:rgb(0%,0%,0%);stroke-opacity:1;stroke-miterlimit:10;" d="M 320.000375 500.000781 L 352.000375 500.000781 " transform="matrix(1,0,0,-1,-188.141,528.2)"/>
<path style="fill-rule:evenodd;fill:rgb(0%,0%,0%);fill-opacity:1;stroke-width:1.2;stroke-linecap:round;stroke-linejoin:round;stroke:rgb(0%,0%,0%);stroke-opacity:1;stroke-miterlimit:10;" d="M 352.000375 500.000781 L 347.000375 501.664844 L 347.000375 498.336719 Z M 352.000375 500.000781 " transform="matrix(1,0,0,-1,-188.141,528.2)"/>
<path style="fill:none;stroke-width:1.2;stroke-linecap:round;stroke-linejoin:round;stroke:rgb(0%,0%,0%);stroke-opacity:1;stroke-miterlimit:10;" d="M 320.000375 492.000781 L 352.000375 492.000781 " transform="matrix(1,0,0,-1,-188.141,528.2)"/>
<path style="fill-rule:evenodd;fill:rgb(0%,0%,0%);fill-opacity:1;stroke-width:1.2;stroke-linecap:round;stroke-linejoin:round;stroke:rgb(0%,0%,0%);stroke-opacity:1;stroke-miterlimit:10;" d="M 320.000375 492.000781 L 325.000375 490.336719 L 325.000375 493.664844 Z M 320.000375 492.000781 " transform="matrix(1,0,0,-1,-188.141,528.2)"/>
<path style="fill:none;stroke-width:0.8;stroke-linecap:round;stroke-linejoin:round;stroke:rgb(0%,0%,0%);stroke-opacity:1;stroke-miterlimit:10;" d="M 390.000375 480.000781 L 392.000375 480.000781 " transform="matrix(1,0,0,-1,-188.141,528.2)"/>
<path style="fill:none;stroke-width:0.8;stroke-linecap:round;stroke-linejoin:round;stroke:rgb(80%,80%,80%);stroke-opacity:1;stroke-miterlimit:10;" d="M 400.000375 496.000781 L 404.000375 496.000781 " transform="matrix(1,0,0,-1,-188.141,528.2)"/>
<path style="fill:none;stroke-width:0.8;stroke-linecap:round;stroke-linejoin:round;stroke:rgb(80%,80%,80%);stroke-opacity:1;stroke-miterlimit:10;" d="M 396.000375 496.000781 L 400.000375 496.000781 " transform="matrix(1,0,0,-1,-188.141,528.2)"/>
<path style="fill:none;stroke-width:0.8;stroke-linecap:round;stroke-linejoin:round;stroke:rgb(0%,0%,0%);stroke-opacity:1;stroke-miterlimit:10;" d="M 400.000375 488.000781 C 400.000375 483.582813 396.418344 480.000781 392.000375 480.000781 " transform="matrix(1,0,0,-1,-188.141,528.2)"/>
<path style="fill:none;stroke-width:0.8;stroke-linecap:round;stroke-linejoin:round;stroke:rgb(0%,0%,0%);stroke-opacity:1;stroke-miterlimit:10;" d="M 400.000375 488.000781 L 400.000375 492.000781 " transform="matrix(1,0,0,-1,-188.141,528.2)"/>
<path style=" stroke:none;fill-rule:evenodd;fill:url(#linear9);" d="M 193.859375 48.601562 L 201.859375 48.601562 L 201.859375 47.800781 L 193.859375 47.800781 Z M 193.859375 48.601562 "/>
<path style=" stroke:none;fill-rule:evenodd;fill:rgb(80%,80%,80%);fill-opacity:1;" d="M 213.660156 32.199219 C 213.660156 29.800781 210.058594 29.800781 210.058594 32.199219 C 210.058594 34.601562 213.660156 34.601562 213.660156 32.199219 Z M 213.660156 32.199219 "/>
<path style="fill:none;stroke-width:0.8;stroke-linecap:round;stroke-linejoin:round;stroke:rgb(80%,80%,80%);stroke-opacity:1;stroke-miterlimit:10;" d="M 396.000375 496.000781 C 391.582406 496.000781 388.000375 499.582813 388.000375 504.000781 " transform="matrix(1,0,0,-1,-188.141,528.2)"/>
<path style=" stroke:none;fill-rule:evenodd;fill:rgb(80%,80%,80%);fill-opacity:1;" d="M 225.660156 16.199219 C 225.660156 13.800781 222.058594 13.800781 222.058594 16.199219 C 222.058594 18.601562 225.660156 18.601562 225.660156 16.199219 Z M 225.660156 16.199219 "/>
<path style="fill:none;stroke-width:0.8;stroke-linecap:round;stroke-linejoin:round;stroke:rgb(80%,80%,80%);stroke-opacity:1;stroke-miterlimit:10;" d="M 412.000375 512.000781 C 407.582406 512.000781 404.000375 515.582813 404.000375 520.000781 " transform="matrix(1,0,0,-1,-188.141,528.2)"/>
<path style="fill:none;stroke-width:0.8;stroke-linecap:round;stroke-linejoin:round;stroke:rgb(80%,80%,80%);stroke-opacity:1;stroke-miterlimit:10;" d="M 420.000375 520.000781 C 420.000375 515.582813 416.418344 512.000781 412.000375 512.000781 " transform="matrix(1,0,0,-1,-188.141,528.2)"/>
<path style=" stroke:none;fill-rule:evenodd;fill:url(#linear10);" d="M 215.460938 0.199219 L 215.460938 8.199219 L 216.257812 8.199219 L 216.257812 0.199219 Z M 215.460938 0.199219 "/>
<path style=" stroke:none;fill-rule:evenodd;fill:url(#linear11);" d="M 231.460938 0.199219 L 231.460938 8.199219 L 232.257812 8.199219 L 232.257812 0.199219 Z M 231.460938 0.199219 "/>
<path style=" stroke:none;fill-rule:evenodd;fill:rgb(80%,80%,80%);fill-opacity:1;" d="M 201.660156 24.199219 C 201.660156 21.800781 198.058594 21.800781 198.058594 24.199219 C 198.058594 26.601562 201.660156 26.601562 201.660156 24.199219 Z M 201.660156 24.199219 "/>
<path style=" stroke:none;fill-rule:evenodd;fill:rgb(98.4%,60.3%,60%);fill-opacity:1;" d="M 209.789062 32.160156 C 209.789062 28.519531 204.328125 28.519531 204.328125 32.160156 C 204.328125 35.800781 209.789062 35.800781 209.789062 32.160156 Z M 209.789062 32.160156 "/>
<path style="fill:none;stroke-width:0.6;stroke-linecap:round;stroke-linejoin:round;stroke:rgb(0%,0%,0%);stroke-opacity:1;stroke-miterlimit:10;" d="M 393.891 496.039844 L 396.512094 496.039844 " transform="matrix(1,0,0,-1,-188.141,528.2)"/>
<path style="fill:none;stroke-width:0.8;stroke-linecap:round;stroke-linejoin:round;stroke:rgb(0%,0%,0%);stroke-opacity:1;stroke-miterlimit:10;" d="M 390.000375 480.000781 L 392.000375 480.000781 " transform="matrix(1,0,0,-1,-188.141,528.2)"/>
<path style=" stroke:none;fill-rule:evenodd;fill:rgb(69.8%,87.4%,54.1%);fill-opacity:1;" d="M 205.390625 48.199219 C 205.390625 44.558594 199.929688 44.558594 199.929688 48.199219 C 199.929688 51.839844 205.390625 51.839844 205.390625 48.199219 Z M 205.390625 48.199219 "/>
<path style="fill:none;stroke-width:0.6;stroke-linecap:round;stroke-linejoin:round;stroke:rgb(0%,0%,0%);stroke-opacity:1;stroke-miterlimit:10;" d="M 389.488656 480.000781 L 392.10975 480.000781 " transform="matrix(1,0,0,-1,-188.141,528.2)"/>
<path style="fill:none;stroke-width:0.6;stroke-linecap:round;stroke-linejoin:round;stroke:rgb(0%,0%,0%);stroke-opacity:1;stroke-miterlimit:10;" d="M 390.801156 478.688281 L 390.801156 481.309375 " transform="matrix(1,0,0,-1,-188.141,528.2)"/>
<path style=" stroke:none;fill-rule:evenodd;fill:rgb(98.4%,60.3%,60%);fill-opacity:1;" d="M 82.011719 14.761719 C 82.011719 11.121094 76.550781 11.121094 76.550781 14.761719 C 76.550781 18.398438 82.011719 18.398438 82.011719 14.761719 Z M 82.011719 14.761719 "/>
<path style="fill:none;stroke-width:0.6;stroke-linecap:round;stroke-linejoin:round;stroke:rgb(0%,0%,0%);stroke-opacity:1;stroke-miterlimit:10;" d="M 266.113656 513.438281 L 268.730844 513.438281 " transform="matrix(1,0,0,-1,-188.141,528.2)"/>
<path style=" stroke:none;fill-rule:evenodd;fill:rgb(98.4%,60.3%,60%);fill-opacity:1;" d="M 91.167969 14.761719 C 91.167969 11.121094 85.707031 11.121094 85.707031 14.761719 C 85.707031 18.398438 91.167969 18.398438 91.167969 14.761719 Z M 91.167969 14.761719 "/>
<path style="fill:none;stroke-width:0.6;stroke-linecap:round;stroke-linejoin:round;stroke:rgb(0%,0%,0%);stroke-opacity:1;stroke-miterlimit:10;" d="M 275.266 513.438281 L 277.887094 513.438281 " transform="matrix(1,0,0,-1,-188.141,528.2)"/>
<path style=" stroke:none;fill-rule:evenodd;fill:rgb(98.4%,60.3%,60%);fill-opacity:1;" d="M 219.386719 32.160156 C 219.386719 28.519531 213.929688 28.519531 213.929688 32.160156 C 213.929688 35.800781 219.386719 35.800781 219.386719 32.160156 Z M 219.386719 32.160156 "/>
<path style="fill:none;stroke-width:0.6;stroke-linecap:round;stroke-linejoin:round;stroke:rgb(0%,0%,0%);stroke-opacity:1;stroke-miterlimit:10;" d="M 403.488656 496.039844 L 406.10975 496.039844 " transform="matrix(1,0,0,-1,-188.141,528.2)"/>
<g style="fill:rgb(0%,0%,0%);fill-opacity:1;">
  <use xlink:href="#glyph1-1" x="86.881" y="98.947"/>
</g>
<g style="fill:rgb(0%,0%,0%);fill-opacity:1;">
  <use xlink:href="#glyph1-1" x="86.881" y="34.947"/>
</g>
<g style="fill:rgb(0%,0%,0%);fill-opacity:1;">
  <use xlink:href="#glyph2-1" x="188.363" y="86.424"/>
</g>
<g style="fill:rgb(0%,0%,0%);fill-opacity:1;">
  <use xlink:href="#glyph3-1" x="193.743" y="87.918"/>
</g>
<g style="fill:rgb(0%,0%,0%);fill-opacity:1;">
  <use xlink:href="#glyph2-1" x="207.067" y="91.996"/>
</g>
<g style="fill:rgb(0%,0%,0%);fill-opacity:1;">
  <use xlink:href="#glyph3-2" x="212.447" y="93.49"/>
</g>
<g style="fill:rgb(0%,0%,0%);fill-opacity:1;">
  <use xlink:href="#glyph2-1" x="188.363" y="22.424"/>
</g>
<g style="fill:rgb(0%,0%,0%);fill-opacity:1;">
  <use xlink:href="#glyph3-1" x="193.743" y="23.918"/>
</g>
<g style="fill:rgb(0%,0%,0%);fill-opacity:1;">
  <use xlink:href="#glyph2-1" x="207.067" y="27.996"/>
</g>
<g style="fill:rgb(0%,0%,0%);fill-opacity:1;">
  <use xlink:href="#glyph3-2" x="212.447" y="29.49"/>
</g>
<g style="fill:rgb(0%,0%,0%);fill-opacity:1;">
  <use xlink:href="#glyph1-2" x="220.915" y="75.99"/>
</g>
<g style="fill:rgb(0%,0%,0%);fill-opacity:1;">
  <use xlink:href="#glyph1-2" x="80.915" y="75.99"/>
</g>
<g style="fill:rgb(0%,0%,0%);fill-opacity:1;">
  <use xlink:href="#glyph1-2" x="80.915" y="11.99"/>
</g>
<g style="fill:rgb(0%,0%,0%);fill-opacity:1;">
  <use xlink:href="#glyph1-2" x="220.915" y="11.99"/>
</g>
<path style="fill:none;stroke-width:0.8;stroke-linecap:round;stroke-linejoin:round;stroke:rgb(0%,0%,0%);stroke-opacity:1;stroke-miterlimit:10;" d="M 412.000375 384.000781 L 412.000375 377.227344 " transform="matrix(1,0,0,-1,-188.141,528.2)"/>
<path style="fill:none;stroke-width:0.8;stroke-linecap:round;stroke-linejoin:round;stroke:rgb(0%,0%,0%);stroke-opacity:1;stroke-miterlimit:10;" d="M 412.000375 376.000781 C 412.000375 371.582813 408.418344 368.000781 404.000375 368.000781 " transform="matrix(1,0,0,-1,-188.141,528.2)"/>
<path style="fill:none;stroke-width:0.8;stroke-linecap:round;stroke-linejoin:round;stroke:rgb(0%,0%,0%);stroke-opacity:1;stroke-miterlimit:10;" d="M 262.000375 352.000781 L 264.000375 352.000781 " transform="matrix(1,0,0,-1,-188.141,528.2)"/>
<path style="fill:none;stroke-width:0.8;stroke-linecap:round;stroke-linejoin:round;stroke:rgb(0%,0%,0%);stroke-opacity:1;stroke-miterlimit:10;" d="M 272.000375 360.000781 C 272.000375 355.582813 268.418344 352.000781 264.000375 352.000781 " transform="matrix(1,0,0,-1,-188.141,528.2)"/>
<path style="fill:none;stroke-width:0.8;stroke-linecap:round;stroke-linejoin:round;stroke:rgb(0%,0%,0%);stroke-opacity:1;stroke-miterlimit:10;" d="M 272.000375 360.000781 L 272.000375 384.000781 " transform="matrix(1,0,0,-1,-188.141,528.2)"/>
<path style=" stroke:none;fill-rule:evenodd;fill:url(#linear12);" d="M 65.859375 176.601562 L 73.859375 176.601562 L 73.859375 175.800781 L 65.859375 175.800781 Z M 65.859375 176.601562 "/>
<path style="fill:none;stroke-width:0.8;stroke-linecap:round;stroke-linejoin:round;stroke:rgb(0%,0%,0%);stroke-opacity:1;stroke-miterlimit:10;" d="M 272.000375 384.000781 C 267.582406 384.000781 264.000375 387.582813 264.000375 392.000781 " transform="matrix(1,0,0,-1,-188.141,528.2)"/>
<path style="fill:none;stroke-width:0.8;stroke-linecap:round;stroke-linejoin:round;stroke:rgb(80%,80%,80%);stroke-opacity:1;stroke-miterlimit:10;" d="M 280.000375 392.000781 C 280.000375 387.582813 276.418344 384.000781 272.000375 384.000781 " transform="matrix(1,0,0,-1,-188.141,528.2)"/>
<path style=" stroke:none;fill-rule:evenodd;fill:url(#linear13);" d="M 75.460938 128.199219 L 75.460938 136.199219 L 76.257812 136.199219 L 76.257812 128.199219 Z M 75.460938 128.199219 "/>
<path style=" stroke:none;fill-rule:evenodd;fill:url(#linear14);" d="M 91.460938 128.199219 L 91.460938 136.199219 L 92.257812 136.199219 L 92.257812 128.199219 Z M 91.460938 128.199219 "/>
<g style="fill:rgb(0%,0%,0%);fill-opacity:1;">
  <use xlink:href="#glyph0-1" x="136.138" y="179.982"/>
  <use xlink:href="#glyph0-2" x="141.418178" y="179.982"/>
  <use xlink:href="#glyph0-3" x="145.931236" y="179.982"/>
  <use xlink:href="#glyph0-4" x="150.723246" y="179.982"/>
  <use xlink:href="#glyph0-5" x="154.11053" y="179.982"/>
</g>
<g style="fill:rgb(0%,0%,0%);fill-opacity:1;">
  <use xlink:href="#glyph0-6" x="137.8565" y="145.982"/>
  <use xlink:href="#glyph0-7" x="142.87765" y="145.982"/>
  <use xlink:href="#glyph0-8" x="145.467926" y="145.982"/>
  <use xlink:href="#glyph0-4" x="149.004649" y="145.982"/>
  <use xlink:href="#glyph0-5" x="152.391933" y="145.982"/>
</g>
<path style="fill:none;stroke-width:1.2;stroke-linecap:round;stroke-linejoin:round;stroke:rgb(0%,0%,0%);stroke-opacity:1;stroke-miterlimit:10;" d="M 320.000375 372.000781 L 352.000375 372.000781 " transform="matrix(1,0,0,-1,-188.141,528.2)"/>
<path style="fill-rule:evenodd;fill:rgb(0%,0%,0%);fill-opacity:1;stroke-width:1.2;stroke-linecap:round;stroke-linejoin:round;stroke:rgb(0%,0%,0%);stroke-opacity:1;stroke-miterlimit:10;" d="M 352.000375 372.000781 L 347.000375 373.664844 L 347.000375 370.336719 Z M 352.000375 372.000781 " transform="matrix(1,0,0,-1,-188.141,528.2)"/>
<path style="fill:none;stroke-width:1.2;stroke-linecap:round;stroke-linejoin:round;stroke:rgb(0%,0%,0%);stroke-opacity:1;stroke-miterlimit:10;" d="M 320.000375 364.000781 L 352.000375 364.000781 " transform="matrix(1,0,0,-1,-188.141,528.2)"/>
<path style="fill-rule:evenodd;fill:rgb(0%,0%,0%);fill-opacity:1;stroke-width:1.2;stroke-linecap:round;stroke-linejoin:round;stroke:rgb(0%,0%,0%);stroke-opacity:1;stroke-miterlimit:10;" d="M 320.000375 364.000781 L 325.000375 362.336719 L 325.000375 365.664844 Z M 320.000375 364.000781 " transform="matrix(1,0,0,-1,-188.141,528.2)"/>
<path style="fill:none;stroke-width:0.8;stroke-linecap:round;stroke-linejoin:round;stroke:rgb(0%,0%,0%);stroke-opacity:1;stroke-miterlimit:10;" d="M 390.000375 352.000781 L 392.000375 352.000781 " transform="matrix(1,0,0,-1,-188.141,528.2)"/>
<path style="fill:none;stroke-width:0.8;stroke-linecap:round;stroke-linejoin:round;stroke:rgb(0%,0%,0%);stroke-opacity:1;stroke-miterlimit:10;" d="M 400.000375 368.000781 L 404.000375 368.000781 " transform="matrix(1,0,0,-1,-188.141,528.2)"/>
<path style="fill:none;stroke-width:0.8;stroke-linecap:round;stroke-linejoin:round;stroke:rgb(80%,80%,80%);stroke-opacity:1;stroke-miterlimit:10;" d="M 396.000375 368.000781 L 400.000375 368.000781 " transform="matrix(1,0,0,-1,-188.141,528.2)"/>
<path style="fill:none;stroke-width:0.8;stroke-linecap:round;stroke-linejoin:round;stroke:rgb(0%,0%,0%);stroke-opacity:1;stroke-miterlimit:10;" d="M 400.000375 360.000781 C 400.000375 355.582813 396.418344 352.000781 392.000375 352.000781 " transform="matrix(1,0,0,-1,-188.141,528.2)"/>
<path style="fill:none;stroke-width:0.8;stroke-linecap:round;stroke-linejoin:round;stroke:rgb(0%,0%,0%);stroke-opacity:1;stroke-miterlimit:10;" d="M 400.000375 360.000781 L 400.000375 368.000781 " transform="matrix(1,0,0,-1,-188.141,528.2)"/>
<path style=" stroke:none;fill-rule:evenodd;fill:url(#linear15);" d="M 193.859375 176.601562 L 201.859375 176.601562 L 201.859375 175.800781 L 193.859375 175.800781 Z M 193.859375 176.601562 "/>
<path style=" stroke:none;fill-rule:evenodd;fill:rgb(0%,0%,0%);fill-opacity:1;" d="M 213.660156 160.199219 C 213.660156 157.800781 210.058594 157.800781 210.058594 160.199219 C 210.058594 162.601562 213.660156 162.601562 213.660156 160.199219 Z M 213.660156 160.199219 "/>
<path style="fill:none;stroke-width:0.8;stroke-linecap:round;stroke-linejoin:round;stroke:rgb(80%,80%,80%);stroke-opacity:1;stroke-miterlimit:10;" d="M 396.000375 368.000781 C 391.582406 368.000781 388.000375 371.582813 388.000375 376.000781 " transform="matrix(1,0,0,-1,-188.141,528.2)"/>
<path style="fill:none;stroke-width:0.8;stroke-linecap:round;stroke-linejoin:round;stroke:rgb(0%,0%,0%);stroke-opacity:1;stroke-miterlimit:10;" d="M 412.000375 384.000781 C 407.582406 384.000781 404.000375 387.582813 404.000375 392.000781 " transform="matrix(1,0,0,-1,-188.141,528.2)"/>
<path style="fill:none;stroke-width:0.8;stroke-linecap:round;stroke-linejoin:round;stroke:rgb(80%,80%,80%);stroke-opacity:1;stroke-miterlimit:10;" d="M 420.000375 392.000781 C 420.000375 387.582813 416.418344 384.000781 412.000375 384.000781 " transform="matrix(1,0,0,-1,-188.141,528.2)"/>
<path style=" stroke:none;fill-rule:evenodd;fill:url(#linear16);" d="M 231.460938 128.199219 L 231.460938 136.199219 L 232.257812 136.199219 L 232.257812 128.199219 Z M 231.460938 128.199219 "/>
<path style=" stroke:none;fill-rule:evenodd;fill:rgb(98.4%,60.3%,60%);fill-opacity:1;" d="M 231.167969 142.761719 C 231.167969 139.121094 225.707031 139.121094 225.707031 142.761719 C 225.707031 146.398438 231.167969 146.398438 231.167969 142.761719 Z M 231.167969 142.761719 "/>
<path style="fill:none;stroke-width:0.6;stroke-linecap:round;stroke-linejoin:round;stroke:rgb(0%,0%,0%);stroke-opacity:1;stroke-miterlimit:10;" d="M 415.266 385.438281 L 417.887094 385.438281 " transform="matrix(1,0,0,-1,-188.141,528.2)"/>
<path style=" stroke:none;fill-rule:evenodd;fill:rgb(80%,80%,80%);fill-opacity:1;" d="M 201.660156 152.199219 C 201.660156 149.800781 198.058594 149.800781 198.058594 152.199219 C 198.058594 154.601562 201.660156 154.601562 201.660156 152.199219 Z M 201.660156 152.199219 "/>
<path style=" stroke:none;fill-rule:evenodd;fill:rgb(98.4%,60.3%,60%);fill-opacity:1;" d="M 209.789062 160.160156 C 209.789062 156.519531 204.328125 156.519531 204.328125 160.160156 C 204.328125 163.800781 209.789062 163.800781 209.789062 160.160156 Z M 209.789062 160.160156 "/>
<path style="fill:none;stroke-width:0.6;stroke-linecap:round;stroke-linejoin:round;stroke:rgb(0%,0%,0%);stroke-opacity:1;stroke-miterlimit:10;" d="M 393.891 368.039844 L 396.512094 368.039844 " transform="matrix(1,0,0,-1,-188.141,528.2)"/>
<path style="fill:none;stroke-width:0.8;stroke-linecap:round;stroke-linejoin:round;stroke:rgb(0%,0%,0%);stroke-opacity:1;stroke-miterlimit:10;" d="M 412.000375 376.000781 L 412.000375 377.227344 " transform="matrix(1,0,0,-1,-188.141,528.2)"/>
<path style="fill:none;stroke-width:0.8;stroke-linecap:round;stroke-linejoin:round;stroke:rgb(0%,0%,0%);stroke-opacity:1;stroke-miterlimit:10;" d="M 390.000375 352.000781 L 392.000375 352.000781 " transform="matrix(1,0,0,-1,-188.141,528.2)"/>
<path style=" stroke:none;fill-rule:evenodd;fill:rgb(98.4%,60.3%,60%);fill-opacity:1;" d="M 91.167969 142.761719 C 91.167969 139.121094 85.707031 139.121094 85.707031 142.761719 C 85.707031 146.398438 91.167969 146.398438 91.167969 142.761719 Z M 91.167969 142.761719 "/>
<path style="fill:none;stroke-width:0.6;stroke-linecap:round;stroke-linejoin:round;stroke:rgb(0%,0%,0%);stroke-opacity:1;stroke-miterlimit:10;" d="M 275.266 385.438281 L 277.887094 385.438281 " transform="matrix(1,0,0,-1,-188.141,528.2)"/>
<g style="fill:rgb(0%,0%,0%);fill-opacity:1;">
  <use xlink:href="#glyph1-1" x="86.881" y="162.947"/>
</g>
<g style="fill:rgb(0%,0%,0%);fill-opacity:1;">
  <use xlink:href="#glyph2-1" x="188.363" y="150.424"/>
</g>
<g style="fill:rgb(0%,0%,0%);fill-opacity:1;">
  <use xlink:href="#glyph3-1" x="193.743" y="151.918"/>
</g>
<g style="fill:rgb(0%,0%,0%);fill-opacity:1;">
  <use xlink:href="#glyph2-1" x="207.067" y="155.996"/>
</g>
<g style="fill:rgb(0%,0%,0%);fill-opacity:1;">
  <use xlink:href="#glyph3-2" x="212.447" y="157.49"/>
</g>
<g style="fill:rgb(0%,0%,0%);fill-opacity:1;">
  <use xlink:href="#glyph1-2" x="220.915" y="139.99"/>
</g>
<g style="fill:rgb(0%,0%,0%);fill-opacity:1;">
  <use xlink:href="#glyph1-2" x="80.915" y="139.99"/>
</g>
<path style=" stroke:none;fill-rule:evenodd;fill:rgb(69.8%,87.4%,54.1%);fill-opacity:1;" d="M 82.011719 142.761719 C 82.011719 139.121094 76.550781 139.121094 76.550781 142.761719 C 76.550781 146.398438 82.011719 146.398438 82.011719 142.761719 Z M 82.011719 142.761719 "/>
<path style="fill:none;stroke-width:0.6;stroke-linecap:round;stroke-linejoin:round;stroke:rgb(0%,0%,0%);stroke-opacity:1;stroke-miterlimit:10;" d="M 267.42225 384.129688 L 267.42225 386.750781 " transform="matrix(1,0,0,-1,-188.141,528.2)"/>
<path style="fill:none;stroke-width:0.6;stroke-linecap:round;stroke-linejoin:round;stroke:rgb(0%,0%,0%);stroke-opacity:1;stroke-miterlimit:10;" d="M 266.113656 385.438281 L 268.730844 385.438281 " transform="matrix(1,0,0,-1,-188.141,528.2)"/>
<path style=" stroke:none;fill-rule:evenodd;fill:rgb(0%,0%,0%);fill-opacity:1;" d="M 85.660156 144.199219 C 85.660156 141.800781 82.058594 141.800781 82.058594 144.199219 C 82.058594 146.601562 85.660156 146.601562 85.660156 144.199219 Z M 85.660156 144.199219 "/>
<path style=" stroke:none;fill-rule:evenodd;fill:url(#linear17);" d="M 215.460938 128.199219 L 215.460938 136.199219 L 216.257812 136.199219 L 216.257812 128.199219 Z M 215.460938 128.199219 "/>
<path style=" stroke:none;fill-rule:evenodd;fill:rgb(0%,0%,0%);fill-opacity:1;" d="M 225.660156 144.199219 C 225.660156 141.800781 222.058594 141.800781 222.058594 144.199219 C 222.058594 146.601562 225.660156 146.601562 225.660156 144.199219 Z M 225.660156 144.199219 "/>
<path style=" stroke:none;fill-rule:evenodd;fill:rgb(69.8%,87.4%,54.1%);fill-opacity:1;" d="M 222.011719 142.761719 C 222.011719 139.121094 216.550781 139.121094 216.550781 142.761719 C 216.550781 146.398438 222.011719 146.398438 222.011719 142.761719 Z M 222.011719 142.761719 "/>
<path style="fill:none;stroke-width:0.6;stroke-linecap:round;stroke-linejoin:round;stroke:rgb(0%,0%,0%);stroke-opacity:1;stroke-miterlimit:10;" d="M 407.42225 384.129688 L 407.42225 386.750781 " transform="matrix(1,0,0,-1,-188.141,528.2)"/>
<path style="fill:none;stroke-width:0.6;stroke-linecap:round;stroke-linejoin:round;stroke:rgb(0%,0%,0%);stroke-opacity:1;stroke-miterlimit:10;" d="M 406.113656 385.438281 L 408.730844 385.438281 " transform="matrix(1,0,0,-1,-188.141,528.2)"/>
<path style="fill:none;stroke-width:0.8;stroke-linecap:round;stroke-linejoin:round;stroke:rgb(80%,80%,80%);stroke-opacity:1;stroke-miterlimit:10;" d="M 400.000375 296.000781 L 400.000375 304.000781 " transform="matrix(1,0,0,-1,-188.141,528.2)"/>
<path style="fill:none;stroke-width:0.8;stroke-linecap:round;stroke-linejoin:round;stroke:rgb(80%,80%,80%);stroke-opacity:1;stroke-miterlimit:10;" d="M 272.000375 296.000781 L 272.000375 320.000781 " transform="matrix(1,0,0,-1,-188.141,528.2)"/>
<path style="fill:none;stroke-width:0.8;stroke-linecap:round;stroke-linejoin:round;stroke:rgb(80%,80%,80%);stroke-opacity:1;stroke-miterlimit:10;" d="M 412.000375 320.000781 L 412.000375 312.000781 " transform="matrix(1,0,0,-1,-188.141,528.2)"/>
<path style="fill:none;stroke-width:0.8;stroke-linecap:round;stroke-linejoin:round;stroke:rgb(80%,80%,80%);stroke-opacity:1;stroke-miterlimit:10;" d="M 412.000375 312.000781 C 412.000375 307.582813 408.418344 304.000781 404.000375 304.000781 " transform="matrix(1,0,0,-1,-188.141,528.2)"/>
<path style="fill:none;stroke-width:0.8;stroke-linecap:round;stroke-linejoin:round;stroke:rgb(0%,0%,0%);stroke-opacity:1;stroke-miterlimit:10;" d="M 262.000375 288.000781 L 264.000375 288.000781 " transform="matrix(1,0,0,-1,-188.141,528.2)"/>
<path style="fill:none;stroke-width:0.8;stroke-linecap:round;stroke-linejoin:round;stroke:rgb(80%,80%,80%);stroke-opacity:1;stroke-miterlimit:10;" d="M 272.000375 296.000781 C 272.000375 291.582813 268.418344 288.000781 264.000375 288.000781 " transform="matrix(1,0,0,-1,-188.141,528.2)"/>
<path style=" stroke:none;fill-rule:evenodd;fill:url(#linear18);" d="M 65.859375 240.601562 L 73.859375 240.601562 L 73.859375 239.800781 L 65.859375 239.800781 Z M 65.859375 240.601562 "/>
<path style=" stroke:none;fill-rule:evenodd;fill:rgb(80%,80%,80%);fill-opacity:1;" d="M 85.660156 208.199219 C 85.660156 205.800781 82.058594 205.800781 82.058594 208.199219 C 82.058594 210.601562 85.660156 210.601562 85.660156 208.199219 Z M 85.660156 208.199219 "/>
<path style="fill:none;stroke-width:0.8;stroke-linecap:round;stroke-linejoin:round;stroke:rgb(80%,80%,80%);stroke-opacity:1;stroke-miterlimit:10;" d="M 272.000375 320.000781 C 267.582406 320.000781 264.000375 323.582813 264.000375 328.000781 " transform="matrix(1,0,0,-1,-188.141,528.2)"/>
<path style="fill:none;stroke-width:0.8;stroke-linecap:round;stroke-linejoin:round;stroke:rgb(80%,80%,80%);stroke-opacity:1;stroke-miterlimit:10;" d="M 280.000375 328.000781 C 280.000375 323.582813 276.418344 320.000781 272.000375 320.000781 " transform="matrix(1,0,0,-1,-188.141,528.2)"/>
<path style=" stroke:none;fill-rule:evenodd;fill:url(#linear19);" d="M 75.460938 192.199219 L 75.460938 200.199219 L 76.257812 200.199219 L 76.257812 192.199219 Z M 75.460938 192.199219 "/>
<path style=" stroke:none;fill-rule:evenodd;fill:url(#linear20);" d="M 91.460938 192.199219 L 91.460938 200.199219 L 92.257812 200.199219 L 92.257812 192.199219 Z M 91.460938 192.199219 "/>
<g style="fill:rgb(0%,0%,0%);fill-opacity:1;">
  <use xlink:href="#glyph0-1" x="136.138" y="243.982"/>
  <use xlink:href="#glyph0-2" x="141.418178" y="243.982"/>
  <use xlink:href="#glyph0-3" x="145.931236" y="243.982"/>
  <use xlink:href="#glyph0-4" x="150.723246" y="243.982"/>
  <use xlink:href="#glyph0-5" x="154.11053" y="243.982"/>
</g>
<g style="fill:rgb(0%,0%,0%);fill-opacity:1;">
  <use xlink:href="#glyph0-6" x="137.8565" y="209.982"/>
  <use xlink:href="#glyph0-7" x="142.87765" y="209.982"/>
  <use xlink:href="#glyph0-8" x="145.467926" y="209.982"/>
  <use xlink:href="#glyph0-4" x="149.004649" y="209.982"/>
  <use xlink:href="#glyph0-5" x="152.391933" y="209.982"/>
</g>
<path style="fill:none;stroke-width:1.2;stroke-linecap:round;stroke-linejoin:round;stroke:rgb(0%,0%,0%);stroke-opacity:1;stroke-miterlimit:10;" d="M 320.000375 308.000781 L 352.000375 308.000781 " transform="matrix(1,0,0,-1,-188.141,528.2)"/>
<path style="fill-rule:evenodd;fill:rgb(0%,0%,0%);fill-opacity:1;stroke-width:1.2;stroke-linecap:round;stroke-linejoin:round;stroke:rgb(0%,0%,0%);stroke-opacity:1;stroke-miterlimit:10;" d="M 352.000375 308.000781 L 347.000375 309.664844 L 347.000375 306.336719 Z M 352.000375 308.000781 " transform="matrix(1,0,0,-1,-188.141,528.2)"/>
<path style="fill:none;stroke-width:1.2;stroke-linecap:round;stroke-linejoin:round;stroke:rgb(0%,0%,0%);stroke-opacity:1;stroke-miterlimit:10;" d="M 320.000375 300.000781 L 352.000375 300.000781 " transform="matrix(1,0,0,-1,-188.141,528.2)"/>
<path style="fill-rule:evenodd;fill:rgb(0%,0%,0%);fill-opacity:1;stroke-width:1.2;stroke-linecap:round;stroke-linejoin:round;stroke:rgb(0%,0%,0%);stroke-opacity:1;stroke-miterlimit:10;" d="M 320.000375 300.000781 L 325.000375 298.336719 L 325.000375 301.664844 Z M 320.000375 300.000781 " transform="matrix(1,0,0,-1,-188.141,528.2)"/>
<path style="fill:none;stroke-width:0.8;stroke-linecap:round;stroke-linejoin:round;stroke:rgb(80%,80%,80%);stroke-opacity:1;stroke-miterlimit:10;" d="M 400.000375 304.000781 L 404.000375 304.000781 " transform="matrix(1,0,0,-1,-188.141,528.2)"/>
<path style="fill:none;stroke-width:0.8;stroke-linecap:round;stroke-linejoin:round;stroke:rgb(80%,80%,80%);stroke-opacity:1;stroke-miterlimit:10;" d="M 396.000375 304.000781 L 400.000375 304.000781 " transform="matrix(1,0,0,-1,-188.141,528.2)"/>
<path style=" stroke:none;fill-rule:evenodd;fill:rgb(80%,80%,80%);fill-opacity:1;" d="M 213.660156 224.199219 C 213.660156 221.800781 210.058594 221.800781 210.058594 224.199219 C 210.058594 226.601562 213.660156 226.601562 213.660156 224.199219 Z M 213.660156 224.199219 "/>
<path style="fill:none;stroke-width:0.8;stroke-linecap:round;stroke-linejoin:round;stroke:rgb(80%,80%,80%);stroke-opacity:1;stroke-miterlimit:10;" d="M 396.000375 304.000781 C 391.582406 304.000781 388.000375 307.582813 388.000375 312.000781 " transform="matrix(1,0,0,-1,-188.141,528.2)"/>
<path style=" stroke:none;fill-rule:evenodd;fill:rgb(80%,80%,80%);fill-opacity:1;" d="M 225.660156 208.199219 C 225.660156 205.800781 222.058594 205.800781 222.058594 208.199219 C 222.058594 210.601562 225.660156 210.601562 225.660156 208.199219 Z M 225.660156 208.199219 "/>
<path style="fill:none;stroke-width:0.8;stroke-linecap:round;stroke-linejoin:round;stroke:rgb(80%,80%,80%);stroke-opacity:1;stroke-miterlimit:10;" d="M 412.000375 320.000781 C 407.582406 320.000781 404.000375 323.582813 404.000375 328.000781 " transform="matrix(1,0,0,-1,-188.141,528.2)"/>
<path style="fill:none;stroke-width:0.8;stroke-linecap:round;stroke-linejoin:round;stroke:rgb(80%,80%,80%);stroke-opacity:1;stroke-miterlimit:10;" d="M 420.000375 328.000781 C 420.000375 323.582813 416.418344 320.000781 412.000375 320.000781 " transform="matrix(1,0,0,-1,-188.141,528.2)"/>
<path style=" stroke:none;fill-rule:evenodd;fill:url(#linear21);" d="M 215.460938 192.199219 L 215.460938 200.199219 L 216.257812 200.199219 L 216.257812 192.199219 Z M 215.460938 192.199219 "/>
<path style=" stroke:none;fill-rule:evenodd;fill:url(#linear22);" d="M 231.460938 192.199219 L 231.460938 200.199219 L 232.257812 200.199219 L 232.257812 192.199219 Z M 231.460938 192.199219 "/>
<path style=" stroke:none;fill-rule:evenodd;fill:rgb(80%,80%,80%);fill-opacity:1;" d="M 201.660156 216.199219 C 201.660156 213.800781 198.058594 213.800781 198.058594 216.199219 C 198.058594 218.601562 201.660156 218.601562 201.660156 216.199219 Z M 201.660156 216.199219 "/>
<g style="fill:rgb(0%,0%,0%);fill-opacity:1;">
  <use xlink:href="#glyph1-1" x="86.881" y="226.947"/>
</g>
<g style="fill:rgb(0%,0%,0%);fill-opacity:1;">
  <use xlink:href="#glyph2-1" x="188.363" y="214.424"/>
</g>
<g style="fill:rgb(0%,0%,0%);fill-opacity:1;">
  <use xlink:href="#glyph3-1" x="193.743" y="215.918"/>
</g>
<g style="fill:rgb(0%,0%,0%);fill-opacity:1;">
  <use xlink:href="#glyph2-1" x="207.067" y="219.996"/>
</g>
<g style="fill:rgb(0%,0%,0%);fill-opacity:1;">
  <use xlink:href="#glyph3-2" x="212.447" y="221.49"/>
</g>
<g style="fill:rgb(0%,0%,0%);fill-opacity:1;">
  <use xlink:href="#glyph1-2" x="80.915" y="203.99"/>
</g>
<g style="fill:rgb(0%,0%,0%);fill-opacity:1;">
  <use xlink:href="#glyph1-2" x="220.915" y="203.99"/>
</g>
<path style=" stroke:none;fill-rule:evenodd;fill:rgb(98.4%,60.3%,60%);fill-opacity:1;" d="M 77.390625 240.199219 C 77.390625 236.558594 71.929688 236.558594 71.929688 240.199219 C 71.929688 243.839844 77.390625 243.839844 77.390625 240.199219 Z M 77.390625 240.199219 "/>
<path style="fill:none;stroke-width:0.6;stroke-linecap:round;stroke-linejoin:round;stroke:rgb(0%,0%,0%);stroke-opacity:1;stroke-miterlimit:10;" d="M 261.488656 288.000781 L 264.10975 288.000781 " transform="matrix(1,0,0,-1,-188.141,528.2)"/>
<path style="fill:none;stroke-width:0.8;stroke-linecap:round;stroke-linejoin:round;stroke:rgb(0%,0%,0%);stroke-opacity:1;stroke-miterlimit:10;" d="M 390.000375 288.000781 L 392.000375 288.000781 " transform="matrix(1,0,0,-1,-188.141,528.2)"/>
<path style="fill:none;stroke-width:0.8;stroke-linecap:round;stroke-linejoin:round;stroke:rgb(80%,80%,80%);stroke-opacity:1;stroke-miterlimit:10;" d="M 400.000375 296.000781 C 400.000375 291.582813 396.418344 288.000781 392.000375 288.000781 " transform="matrix(1,0,0,-1,-188.141,528.2)"/>
<path style=" stroke:none;fill-rule:evenodd;fill:url(#linear23);" d="M 193.859375 240.601562 L 201.859375 240.601562 L 201.859375 239.800781 L 193.859375 239.800781 Z M 193.859375 240.601562 "/>
<path style=" stroke:none;fill-rule:evenodd;fill:rgb(98.4%,60.3%,60%);fill-opacity:1;" d="M 205.390625 240.199219 C 205.390625 236.558594 199.929688 236.558594 199.929688 240.199219 C 199.929688 243.839844 205.390625 243.839844 205.390625 240.199219 Z M 205.390625 240.199219 "/>
<path style="fill:none;stroke-width:0.6;stroke-linecap:round;stroke-linejoin:round;stroke:rgb(0%,0%,0%);stroke-opacity:1;stroke-miterlimit:10;" d="M 389.488656 288.000781 L 392.10975 288.000781 " transform="matrix(1,0,0,-1,-188.141,528.2)"/>
<g style="fill:rgb(0%,0%,0%);fill-opacity:1;">
  <use xlink:href="#glyph4-1" x="1.697" y="32.19"/>
  <use xlink:href="#glyph4-2" x="8.730596" y="32.19"/>
  <use xlink:href="#glyph4-3" x="13.871297" y="32.19"/>
  <use xlink:href="#glyph4-4" x="18.045627" y="32.19"/>
  <use xlink:href="#glyph4-5" x="25.597277" y="32.19"/>
  <use xlink:href="#glyph4-2" x="30.718054" y="32.19"/>
</g>
<g style="fill:rgb(0%,0%,0%);fill-opacity:1;">
  <use xlink:href="#glyph5-1" x="1" y="96.19"/>
  <use xlink:href="#glyph5-2" x="8.033596" y="96.19"/>
  <use xlink:href="#glyph5-3" x="13.174297" y="96.19"/>
  <use xlink:href="#glyph5-4" x="17.348627" y="96.19"/>
  <use xlink:href="#glyph5-5" x="24.900277" y="96.19"/>
  <use xlink:href="#glyph5-6" x="30.021054" y="96.19"/>
</g>
<g style="fill:rgb(0%,0%,0%);fill-opacity:1;">
  <use xlink:href="#glyph6-1" x="6.838" y="224.202"/>
  <use xlink:href="#glyph6-2" x="13.871596" y="224.202"/>
  <use xlink:href="#glyph6-3" x="19.012297" y="224.202"/>
  <use xlink:href="#glyph6-4" x="23.186627" y="224.202"/>
  <use xlink:href="#glyph6-5" x="30.738277" y="224.202"/>
</g>
<g style="fill:rgb(0%,0%,0%);fill-opacity:1;">
  <use xlink:href="#glyph4-1" x="6.838" y="160.19"/>
  <use xlink:href="#glyph4-2" x="13.871596" y="160.19"/>
  <use xlink:href="#glyph4-3" x="19.012297" y="160.19"/>
  <use xlink:href="#glyph4-4" x="23.186627" y="160.19"/>
  <use xlink:href="#glyph4-6" x="30.738277" y="160.19"/>
</g>
</g>
</svg>
