<?xml version="1.0" encoding="UTF-8"?>
<svg xmlns="http://www.w3.org/2000/svg" xmlns:xlink="http://www.w3.org/1999/xlink" width="234pt" height="146pt" viewBox="0 0 234 146" version="1.1">
<defs>
<g>
<symbol overflow="visible" id="glyph0-0">
<path style="stroke:none;" d="M 0.5 -6.015625 L 2.1875 -3.484375 L 0.5 -0.953125 Z M 0.796875 -0.5 L 2.5 -3.03125 L 4.1875 -0.5 Z M 2.796875 -3.484375 L 4.484375 -6.015625 L 4.484375 -0.953125 Z M 2.5 -3.921875 L 0.796875 -6.453125 L 4.1875 -6.453125 Z M 0 0 L 4.984375 0 L 4.984375 -6.953125 L 0 -6.953125 Z M 0 0 "/>
</symbol>
<symbol overflow="visible" id="glyph0-1">
<path style="stroke:none;" d="M 0.734375 -0.65625 C 0.515625 -0.65625 0.34375 -0.5 0.34375 -0.28125 C 0.34375 -0.015625 0.703125 0.09375 0.921875 0.09375 C 1.265625 0.09375 1.5 -0.046875 1.9375 -0.671875 L 2.625 -1.671875 L 3.015625 -0.453125 C 3.15625 -0.0625 3.25 0.09375 3.59375 0.09375 C 3.9375 0.09375 4.375 -0.09375 4.6875 -0.609375 C 4.640625 -0.703125 4.5625 -0.78125 4.453125 -0.796875 C 4.1875 -0.46875 4.0625 -0.390625 3.953125 -0.390625 C 3.859375 -0.390625 3.78125 -0.515625 3.703125 -0.75 L 3.171875 -2.359375 L 3.921875 -3.484375 C 4.09375 -3.703125 4.328125 -3.75 4.390625 -3.75 C 4.46875 -3.75 4.609375 -3.71875 4.6875 -3.65625 C 4.765625 -3.59375 4.921875 -3.546875 5.03125 -3.546875 C 5.15625 -3.546875 5.34375 -3.75 5.34375 -3.984375 C 5.34375 -4.234375 5.078125 -4.375 4.84375 -4.375 C 4.34375 -4.375 4.015625 -4.203125 3.53125 -3.5 L 3.03125 -2.78125 L 2.75 -3.65625 C 2.578125 -4.171875 2.46875 -4.375 2.21875 -4.375 C 2 -4.375 1.25 -3.96875 0.90625 -3.703125 C 0.921875 -3.59375 0.953125 -3.46875 1.03125 -3.40625 C 1.15625 -3.453125 1.484375 -3.609375 1.6875 -3.609375 C 1.8125 -3.609375 1.90625 -3.59375 1.96875 -3.5 C 2.015625 -3.421875 2.078125 -3.25 2.140625 -3.078125 L 2.5 -2.09375 L 1.5625 -0.734375 C 1.46875 -0.578125 1.359375 -0.53125 1.28125 -0.53125 C 1.09375 -0.53125 0.921875 -0.65625 0.734375 -0.65625 Z M 0.734375 -0.65625 "/>
</symbol>
<symbol overflow="visible" id="glyph1-0">
<path style="stroke:none;" d="M 0.390625 -4.8125 L 1.75 -2.78125 L 0.390625 -0.75 Z M 0.640625 -0.390625 L 1.984375 -2.421875 L 3.34375 -0.390625 Z M 2.234375 -2.78125 L 3.578125 -4.8125 L 3.578125 -0.75 Z M 1.984375 -3.140625 L 0.640625 -5.15625 L 3.34375 -5.15625 Z M 0 0 L 3.984375 0 L 3.984375 -5.5625 L 0 -5.5625 Z M 0 0 "/>
</symbol>
<symbol overflow="visible" id="glyph1-1">
<path style="stroke:none;" d="M 2.296875 -0.96875 L 2.296875 -3.734375 C 2.296875 -4.21875 2.296875 -4.703125 2.3125 -4.8125 C 2.3125 -4.84375 2.296875 -4.84375 2.265625 -4.84375 C 1.828125 -4.578125 1.40625 -4.375 0.703125 -4.046875 C 0.71875 -3.953125 0.75 -3.875 0.828125 -3.828125 C 1.1875 -3.984375 1.375 -4.03125 1.515625 -4.03125 C 1.65625 -4.03125 1.6875 -3.84375 1.6875 -3.5625 L 1.6875 -0.96875 C 1.6875 -0.3125 1.46875 -0.265625 0.90625 -0.25 C 0.890625 -0.21875 0.875 -0.171875 0.875 -0.109375 C 0.875 -0.0625 0.890625 -0.015625 0.90625 0.015625 C 1.296875 0.015625 1.578125 0 2.015625 0 C 2.40625 0 2.59375 0.015625 2.984375 0.015625 C 3.015625 -0.015625 3.03125 -0.0625 3.03125 -0.109375 C 3.03125 -0.171875 3.015625 -0.21875 2.984375 -0.25 C 2.4375 -0.265625 2.296875 -0.3125 2.296875 -0.96875 Z M 2.296875 -0.96875 "/>
</symbol>
<symbol overflow="visible" id="glyph1-2">
<path style="stroke:none;" d="M 0.484375 -3.734375 C 0.484375 -3.5625 0.640625 -3.421875 0.8125 -3.421875 C 0.9375 -3.421875 1.171875 -3.5625 1.171875 -3.734375 C 1.171875 -3.796875 1.15625 -3.84375 1.140625 -3.90625 C 1.125 -3.953125 1.078125 -4.03125 1.078125 -4.09375 C 1.078125 -4.296875 1.296875 -4.578125 1.875 -4.578125 C 2.15625 -4.578125 2.5625 -4.375 2.5625 -3.625 C 2.5625 -3.109375 2.375 -2.6875 1.90625 -2.21875 L 1.328125 -1.640625 C 0.546875 -0.84375 0.421875 -0.453125 0.421875 0.015625 C 0.421875 0.015625 0.828125 0 1.078125 0 L 2.46875 0 C 2.71875 0 3.09375 0.015625 3.09375 0.015625 C 3.203125 -0.40625 3.28125 -1 3.28125 -1.25 C 3.234375 -1.28125 3.125 -1.296875 3.046875 -1.28125 C 2.921875 -0.71875 2.78125 -0.515625 2.5 -0.515625 L 1.078125 -0.515625 C 1.078125 -0.90625 1.625 -1.4375 1.671875 -1.484375 L 2.46875 -2.25 C 2.921875 -2.6875 3.265625 -3.046875 3.265625 -3.65625 C 3.265625 -4.515625 2.5625 -4.859375 1.921875 -4.859375 C 1.03125 -4.859375 0.484375 -4.203125 0.484375 -3.734375 Z M 0.484375 -3.734375 "/>
</symbol>
<symbol overflow="visible" id="glyph1-3">
<path style="stroke:none;" d="M 1.875 -4.859375 C 0.703125 -4.859375 0.375 -4.09375 0.375 -3.828125 C 0.375 -3.71875 0.453125 -3.5625 0.640625 -3.5625 C 0.921875 -3.5625 0.953125 -3.828125 0.953125 -3.96875 C 0.953125 -4.484375 1.5 -4.578125 1.71875 -4.578125 C 2.0625 -4.578125 2.375 -4.375 2.375 -3.859375 C 2.375 -3.453125 1.90625 -2.859375 1.125 -2.734375 L 1.15625 -2.484375 C 1.296875 -2.5 1.4375 -2.5 1.546875 -2.5 C 2 -2.5 2.59375 -2.375 2.59375 -1.46875 C 2.59375 -0.421875 1.875 -0.203125 1.609375 -0.203125 C 1.1875 -0.203125 1.125 -0.375 1.03125 -0.53125 C 0.953125 -0.640625 0.84375 -0.734375 0.6875 -0.734375 C 0.515625 -0.734375 0.34375 -0.578125 0.34375 -0.453125 C 0.34375 -0.140625 1.015625 0.078125 1.5 0.078125 C 2.453125 0.078125 3.296875 -0.53125 3.296875 -1.578125 C 3.296875 -2.453125 2.640625 -2.765625 2.171875 -2.84375 L 2.15625 -2.859375 C 2.8125 -3.171875 3 -3.5 3 -3.921875 C 3 -4.5 2.5625 -4.859375 1.875 -4.859375 Z M 1.875 -4.859375 "/>
</symbol>
<symbol overflow="visible" id="glyph1-4">
<path style="stroke:none;" d="M 2.15625 -4.046875 L 2.15625 -1.75 L 0.640625 -1.75 C 1.046875 -2.40625 1.609375 -3.296875 2.15625 -4.046875 Z M 3.421875 -1.75 L 2.765625 -1.75 L 2.765625 -4.078125 C 2.765625 -4.46875 2.765625 -4.78125 2.78125 -4.84375 L 2.765625 -4.859375 L 2.515625 -4.859375 C 2.453125 -4.859375 2.421875 -4.8125 2.375 -4.765625 C 1.875 -4.15625 0.953125 -2.84375 0.21875 -1.703125 C 0.25 -1.578125 0.296875 -1.375 0.53125 -1.375 L 2.15625 -1.375 L 2.15625 -0.640625 C 2.15625 -0.265625 1.859375 -0.265625 1.515625 -0.25 C 1.484375 -0.21875 1.484375 -0.171875 1.484375 -0.109375 C 1.484375 -0.0625 1.484375 -0.015625 1.515625 0.015625 C 1.765625 0.015625 2.09375 0 2.453125 0 C 2.765625 0 3.0625 0.015625 3.328125 0.015625 C 3.34375 -0.015625 3.359375 -0.0625 3.359375 -0.109375 C 3.359375 -0.171875 3.34375 -0.21875 3.328125 -0.25 C 2.9375 -0.28125 2.765625 -0.265625 2.765625 -0.640625 L 2.765625 -1.375 L 3.3125 -1.375 C 3.421875 -1.375 3.546875 -1.515625 3.546875 -1.625 C 3.546875 -1.703125 3.515625 -1.75 3.421875 -1.75 Z M 3.421875 -1.75 "/>
</symbol>
<symbol overflow="visible" id="glyph2-0">
<path style="stroke:none;" d="M 0.5 -6.015625 L 2.1875 -3.484375 L 0.5 -0.953125 Z M 0.796875 -0.5 L 2.5 -3.03125 L 4.1875 -0.5 Z M 2.796875 -3.484375 L 4.484375 -6.015625 L 4.484375 -0.953125 Z M 2.5 -3.921875 L 0.796875 -6.453125 L 4.1875 -6.453125 Z M 0 0 L 4.984375 0 L 4.984375 -6.953125 L 0 -6.953125 Z M 0 0 "/>
</symbol>
<symbol overflow="visible" id="glyph2-1">
<path style="stroke:none;" d="M 3.59375 6.890625 C 3.59375 7.96875 4.390625 8.546875 5.0625 8.734375 L 5.0625 8.765625 C 4.390625 9.046875 3.59375 9.546875 3.59375 10.765625 L 3.59375 15.046875 C 3.59375 16.609375 2.4375 17.453125 1.609375 17.65625 C 1.546875 17.71875 1.546875 17.828125 1.609375 17.890625 C 3.375 17.828125 4.3125 16.890625 4.375 15.203125 L 4.390625 15.203125 L 4.390625 10.5 C 4.390625 10 5.109375 8.96875 5.828125 8.875 C 5.90625 8.796875 5.921875 8.71875 5.828125 8.640625 C 5.09375 8.5625 4.390625 7.421875 4.390625 7.03125 L 4.390625 2.21875 L 4.375 2.21875 C 4.28125 0.5625 3.34375 -0.328125 1.609375 -0.40625 C 1.546875 -0.34375 1.546875 -0.21875 1.609375 -0.15625 C 2.4375 0.046875 3.59375 0.890625 3.59375 2.4375 Z M 3.59375 6.890625 "/>
</symbol>
<symbol overflow="visible" id="glyph3-0">
<path style="stroke:none;" d="M 0.5 -6.015625 L 2.1875 -3.484375 L 0.5 -0.953125 Z M 0.796875 -0.5 L 2.5 -3.03125 L 4.1875 -0.5 Z M 2.796875 -3.484375 L 4.484375 -6.015625 L 4.484375 -0.953125 Z M 2.5 -3.921875 L 0.796875 -6.453125 L 4.1875 -6.453125 Z M 0 0 L 4.984375 0 L 4.984375 -6.953125 L 0 -6.953125 Z M 0 0 "/>
</symbol>
<symbol overflow="visible" id="glyph3-1">
<path style="stroke:none;" d="M 3.375 0.09375 C 4.296875 0.09375 5.25 -0.359375 6.0625 -1.25 C 6.03125 -1.328125 5.984375 -1.390625 5.875 -1.390625 C 5.046875 -0.625 4.328125 -0.3125 3.4375 -0.3125 C 2.25 -0.3125 1.75 -1.328125 1.75 -2.5 C 1.75 -2.765625 1.78125 -3.046875 1.828125 -3.328125 C 2.21875 -5.359375 3.734375 -6.1875 4.5 -6.1875 C 5.828125 -6.1875 6.21875 -5.390625 6.296875 -4.53125 L 6.59375 -4.5625 C 6.59375 -5.078125 6.625 -5.578125 6.671875 -6.109375 C 6.140625 -6.140625 5.859375 -6.5625 4.671875 -6.5625 C 3.09375 -6.5625 1.328125 -5.109375 0.953125 -3.140625 C 0.90625 -2.890625 0.890625 -2.65625 0.890625 -2.40625 C 0.890625 -1.078125 1.640625 0.09375 3.375 0.09375 Z M 3.375 0.09375 "/>
</symbol>
<symbol overflow="visible" id="glyph4-0">
<path style="stroke:none;" d="M 0.390625 -4.8125 L 1.75 -2.78125 L 0.390625 -0.75 Z M 0.640625 -0.390625 L 1.984375 -2.421875 L 3.34375 -0.390625 Z M 2.234375 -2.78125 L 3.578125 -4.8125 L 3.578125 -0.75 Z M 1.984375 -3.140625 L 0.640625 -5.15625 L 3.34375 -5.15625 Z M 0 0 L 3.984375 0 L 3.984375 -5.5625 L 0 -5.5625 Z M 0 0 "/>
</symbol>
<symbol overflow="visible" id="glyph4-1">
<path style="stroke:none;" d="M 2.296875 -0.96875 L 2.296875 -3.734375 C 2.296875 -4.21875 2.296875 -4.703125 2.3125 -4.8125 C 2.3125 -4.84375 2.296875 -4.84375 2.265625 -4.84375 C 1.828125 -4.578125 1.40625 -4.375 0.703125 -4.046875 C 0.71875 -3.953125 0.75 -3.875 0.828125 -3.828125 C 1.1875 -3.984375 1.375 -4.03125 1.515625 -4.03125 C 1.65625 -4.03125 1.6875 -3.84375 1.6875 -3.5625 L 1.6875 -0.96875 C 1.6875 -0.3125 1.46875 -0.265625 0.90625 -0.25 C 0.890625 -0.21875 0.875 -0.171875 0.875 -0.109375 C 0.875 -0.0625 0.890625 -0.015625 0.90625 0.015625 C 1.296875 0.015625 1.578125 0 2.015625 0 C 2.40625 0 2.59375 0.015625 2.984375 0.015625 C 3.015625 -0.015625 3.03125 -0.0625 3.03125 -0.109375 C 3.03125 -0.171875 3.015625 -0.21875 2.984375 -0.25 C 2.4375 -0.265625 2.296875 -0.3125 2.296875 -0.96875 Z M 2.296875 -0.96875 "/>
</symbol>
<symbol overflow="visible" id="glyph4-2">
<path style="stroke:none;" d="M 0.484375 -3.734375 C 0.484375 -3.5625 0.640625 -3.421875 0.8125 -3.421875 C 0.9375 -3.421875 1.171875 -3.5625 1.171875 -3.734375 C 1.171875 -3.796875 1.15625 -3.84375 1.140625 -3.90625 C 1.125 -3.953125 1.078125 -4.03125 1.078125 -4.09375 C 1.078125 -4.296875 1.296875 -4.578125 1.875 -4.578125 C 2.15625 -4.578125 2.5625 -4.375 2.5625 -3.625 C 2.5625 -3.109375 2.375 -2.6875 1.90625 -2.21875 L 1.328125 -1.640625 C 0.546875 -0.84375 0.421875 -0.453125 0.421875 0.015625 C 0.421875 0.015625 0.828125 0 1.078125 0 L 2.46875 0 C 2.71875 0 3.09375 0.015625 3.09375 0.015625 C 3.203125 -0.40625 3.28125 -1 3.28125 -1.25 C 3.234375 -1.28125 3.125 -1.296875 3.046875 -1.28125 C 2.921875 -0.71875 2.78125 -0.515625 2.5 -0.515625 L 1.078125 -0.515625 C 1.078125 -0.90625 1.625 -1.4375 1.671875 -1.484375 L 2.46875 -2.25 C 2.921875 -2.6875 3.265625 -3.046875 3.265625 -3.65625 C 3.265625 -4.515625 2.5625 -4.859375 1.921875 -4.859375 C 1.03125 -4.859375 0.484375 -4.203125 0.484375 -3.734375 Z M 0.484375 -3.734375 "/>
</symbol>
<symbol overflow="visible" id="glyph4-3">
<path style="stroke:none;" d="M 1.875 -4.859375 C 0.703125 -4.859375 0.375 -4.09375 0.375 -3.828125 C 0.375 -3.71875 0.453125 -3.5625 0.640625 -3.5625 C 0.921875 -3.5625 0.953125 -3.828125 0.953125 -3.96875 C 0.953125 -4.484375 1.5 -4.578125 1.71875 -4.578125 C 2.0625 -4.578125 2.375 -4.375 2.375 -3.859375 C 2.375 -3.453125 1.90625 -2.859375 1.125 -2.734375 L 1.15625 -2.484375 C 1.296875 -2.5 1.4375 -2.5 1.546875 -2.5 C 2 -2.5 2.59375 -2.375 2.59375 -1.46875 C 2.59375 -0.421875 1.875 -0.203125 1.609375 -0.203125 C 1.1875 -0.203125 1.125 -0.375 1.03125 -0.53125 C 0.953125 -0.640625 0.84375 -0.734375 0.6875 -0.734375 C 0.515625 -0.734375 0.34375 -0.578125 0.34375 -0.453125 C 0.34375 -0.140625 1.015625 0.078125 1.5 0.078125 C 2.453125 0.078125 3.296875 -0.53125 3.296875 -1.578125 C 3.296875 -2.453125 2.640625 -2.765625 2.171875 -2.84375 L 2.15625 -2.859375 C 2.8125 -3.171875 3 -3.5 3 -3.921875 C 3 -4.5 2.5625 -4.859375 1.875 -4.859375 Z M 1.875 -4.859375 "/>
</symbol>
<symbol overflow="visible" id="glyph5-0">
<path style="stroke:none;" d="M 0.5 -6.015625 L 2.1875 -3.484375 L 0.5 -0.953125 Z M 0.796875 -0.5 L 2.5 -3.03125 L 4.1875 -0.5 Z M 2.796875 -3.484375 L 4.484375 -6.015625 L 4.484375 -0.953125 Z M 2.5 -3.921875 L 0.796875 -6.453125 L 4.1875 -6.453125 Z M 0 0 L 4.984375 0 L 4.984375 -6.953125 L 0 -6.953125 Z M 0 0 "/>
</symbol>
<symbol overflow="visible" id="glyph5-1">
<path style="stroke:none;" d="M 4.296875 -0.796875 L 2.921875 -0.796875 C 1.078125 -0.796875 0.0625 0.140625 0 1.984375 C 0.0625 2.046875 0.171875 2.046875 0.234375 1.984375 C 0.4375 1.140625 1.28125 0 2.84375 0 L 4.296875 0 Z M 4.296875 -0.796875 "/>
</symbol>
<symbol overflow="visible" id="glyph5-2">
<path style="stroke:none;" d="M 0 0 L 2 0 L 2 -0.796875 L 0 -0.796875 Z M 0 0 "/>
</symbol>
<symbol overflow="visible" id="glyph5-3">
<path style="stroke:none;" d="M 0 0 L 1.5625 0 C 2.453125 0 2.734375 -0.40625 2.9375 -1.078125 L 2.96875 -1.078125 C 3.25 -0.40625 3.65625 0 4.46875 0 L 5.90625 0 L 5.90625 -0.796875 L 4.203125 -0.796875 C 3.59375 -0.796875 3.15625 -1 3.078125 -1.75 C 2.984375 -1.828125 2.921875 -1.828125 2.828125 -1.75 C 2.765625 -1 2.21875 -0.796875 1.71875 -0.796875 L 0 -0.796875 Z M 0 0 "/>
</symbol>
<symbol overflow="visible" id="glyph5-4">
<path style="stroke:none;" d="M 0 -0.796875 L 0 0 L 1.453125 0 C 3.015625 0 3.859375 1.140625 4.0625 1.984375 C 4.109375 2.046875 4.234375 2.046875 4.296875 1.984375 C 4.234375 0.140625 3.21875 -0.796875 1.375 -0.796875 Z M 0 -0.796875 "/>
</symbol>
<symbol overflow="visible" id="glyph6-0">
<path style="stroke:none;" d="M 0.5 -6.015625 L 2.1875 -3.484375 L 0.5 -0.953125 Z M 0.796875 -0.5 L 2.5 -3.03125 L 4.1875 -0.5 Z M 2.796875 -3.484375 L 4.484375 -6.015625 L 4.484375 -0.953125 Z M 2.5 -3.921875 L 0.796875 -6.453125 L 4.1875 -6.453125 Z M 0 0 L 4.984375 0 L 4.984375 -6.953125 L 0 -6.953125 Z M 0 0 "/>
</symbol>
<symbol overflow="visible" id="glyph6-1">
<path style="stroke:none;" d="M 6.125 -5.828125 L 5.703125 -5.828125 L 3.734375 -2.15625 L 3.359375 -1.515625 L 3.296875 -2.171875 L 2.953125 -5.703125 L 2.953125 -5.734375 C 2.953125 -6.046875 3.3125 -6.140625 3.65625 -6.15625 C 3.6875 -6.1875 3.703125 -6.25 3.703125 -6.296875 C 3.703125 -6.359375 3.6875 -6.421875 3.65625 -6.453125 C 3.328125 -6.4375 2.828125 -6.4375 2.46875 -6.4375 C 2.140625 -6.4375 1.75 -6.4375 1.390625 -6.453125 C 1.359375 -6.421875 1.34375 -6.359375 1.34375 -6.296875 C 1.34375 -6.25 1.359375 -6.1875 1.390625 -6.15625 C 1.859375 -6.078125 2.109375 -5.984375 2.15625 -5.4375 L 2.765625 -0.125 C 2.78125 0.046875 2.796875 0.09375 2.90625 0.09375 C 2.984375 0.09375 3.015625 0.0625 3.109375 -0.125 L 5.0625 -3.6875 C 5.21875 -3.953125 5.359375 -4.25 5.4375 -4.359375 C 5.4375 -4.359375 5.46875 -4.359375 5.484375 -4.328125 C 5.5 -4.109375 5.53125 -4 5.578125 -3.65625 L 5.984375 -0.125 C 6.015625 0.0625 6.078125 0.09375 6.15625 0.09375 C 6.234375 0.09375 6.265625 0.0625 6.375 -0.109375 L 9.375 -5.515625 C 9.5625 -5.84375 9.796875 -6.09375 10.328125 -6.15625 C 10.359375 -6.1875 10.375 -6.25 10.375 -6.296875 C 10.375 -6.359375 10.359375 -6.421875 10.328125 -6.453125 C 10 -6.4375 9.609375 -6.4375 9.34375 -6.4375 C 9.09375 -6.4375 8.625 -6.4375 8.21875 -6.453125 C 8.1875 -6.421875 8.1875 -6.359375 8.1875 -6.296875 C 8.1875 -6.25 8.1875 -6.1875 8.21875 -6.15625 C 8.625 -6.125 8.921875 -6.03125 8.921875 -5.796875 C 8.921875 -5.734375 8.90625 -5.671875 8.859375 -5.59375 C 8.109375 -4.21875 7.359375 -2.84375 6.625 -1.453125 C 6.46875 -2.84375 6.28125 -4.453125 6.125 -5.828125 Z M 6.125 -5.828125 "/>
</symbol>
<symbol overflow="visible" id="glyph6-2">
<path style="stroke:none;" d="M 6.015625 -5.671875 L 5.609375 -3.625 L 2.5 -3.625 L 2.890625 -5.671875 C 2.953125 -5.953125 3.09375 -6.09375 3.515625 -6.125 L 3.8125 -6.15625 C 3.859375 -6.203125 3.875 -6.359375 3.84375 -6.453125 C 3.390625 -6.4375 3.03125 -6.4375 2.640625 -6.4375 C 2.265625 -6.4375 1.8125 -6.4375 1.375 -6.453125 C 1.34375 -6.40625 1.3125 -6.203125 1.34375 -6.15625 L 1.6875 -6.125 C 2 -6.09375 2.140625 -6.015625 2.140625 -5.796875 C 2.140625 -5.765625 2.140625 -5.71875 2.125 -5.671875 L 1.15625 -0.75 C 1.09375 -0.484375 0.953125 -0.34375 0.53125 -0.296875 L 0.234375 -0.265625 C 0.1875 -0.234375 0.171875 -0.0625 0.203125 0.015625 C 0.65625 0.015625 1.015625 0 1.40625 0 C 1.78125 0 2.234375 0.015625 2.671875 0.015625 C 2.703125 -0.015625 2.734375 -0.21875 2.703125 -0.265625 L 2.359375 -0.296875 C 2.046875 -0.328125 1.90625 -0.421875 1.90625 -0.625 C 1.90625 -0.65625 1.90625 -0.703125 1.921875 -0.75 L 2.40625 -3.203125 L 5.515625 -3.203125 L 5.046875 -0.75 C 4.984375 -0.484375 4.828125 -0.34375 4.421875 -0.296875 L 4.109375 -0.265625 C 4.078125 -0.234375 4.0625 -0.0625 4.09375 0.015625 C 4.546875 0.015625 4.90625 0 5.296875 0 C 5.671875 0 6.125 0.015625 6.5625 0.015625 C 6.59375 -0.015625 6.625 -0.21875 6.59375 -0.265625 L 6.25 -0.296875 C 5.9375 -0.328125 5.796875 -0.421875 5.796875 -0.625 C 5.796875 -0.65625 5.796875 -0.703125 5.8125 -0.75 L 6.78125 -5.671875 C 6.84375 -5.953125 6.984375 -6.09375 7.390625 -6.125 L 7.703125 -6.15625 C 7.75 -6.203125 7.765625 -6.359375 7.71875 -6.453125 C 7.28125 -6.4375 6.921875 -6.4375 6.53125 -6.4375 C 6.15625 -6.4375 5.703125 -6.4375 5.265625 -6.453125 C 5.234375 -6.40625 5.203125 -6.203125 5.234375 -6.15625 L 5.578125 -6.125 C 5.890625 -6.09375 6.015625 -6.015625 6.015625 -5.796875 C 6.015625 -5.765625 6.015625 -5.71875 6.015625 -5.671875 Z M 6.015625 -5.671875 "/>
</symbol>
</g>
</defs>
<g id="surface1">
<path style="fill-rule:evenodd;fill:rgb(94.1%,94.1%,94.1%);fill-opacity:1;stroke-width:0.8;stroke-linecap:round;stroke-linejoin:round;stroke:rgb(0%,0%,0%);stroke-opacity:1;stroke-miterlimit:10;" d="M 182.480431 426.679437 L 182.480431 416.281 L 200.683556 416.281 L 200.683556 426.679437 Z M 182.480431 426.679437 " transform="matrix(1,0,0,-1,-164.74215,512.0935)"/>
<path style="fill-rule:evenodd;fill:rgb(94.1%,94.1%,94.1%);fill-opacity:1;stroke-width:0.8;stroke-linecap:round;stroke-linejoin:round;stroke:rgb(0%,0%,0%);stroke-opacity:1;stroke-miterlimit:10;" d="M 182.480431 416.281 L 182.480431 405.878656 L 200.683556 405.878656 L 200.683556 416.281 Z M 182.480431 416.281 " transform="matrix(1,0,0,-1,-164.74215,512.0935)"/>
<path style="fill-rule:evenodd;fill:rgb(94.1%,94.1%,94.1%);fill-opacity:1;stroke-width:0.8;stroke-linecap:round;stroke-linejoin:round;stroke:rgb(0%,0%,0%);stroke-opacity:1;stroke-miterlimit:10;" d="M 224.081994 416.281 L 224.081994 405.878656 L 242.281213 405.878656 L 242.281213 416.281 Z M 224.081994 416.281 " transform="matrix(1,0,0,-1,-164.74215,512.0935)"/>
<path style="fill-rule:evenodd;fill:rgb(94.1%,94.1%,94.1%);fill-opacity:1;stroke-width:0.8;stroke-linecap:round;stroke-linejoin:round;stroke:rgb(0%,0%,0%);stroke-opacity:1;stroke-miterlimit:10;" d="M 224.081994 426.679437 L 224.081994 416.281 L 242.281213 416.281 L 242.281213 426.679437 Z M 224.081994 426.679437 " transform="matrix(1,0,0,-1,-164.74215,512.0935)"/>
<path style="fill-rule:evenodd;fill:rgb(94.1%,94.1%,94.1%);fill-opacity:1;stroke-width:0.8;stroke-linecap:round;stroke-linejoin:round;stroke:rgb(0%,0%,0%);stroke-opacity:1;stroke-miterlimit:10;" d="M 265.683556 426.679437 L 265.683556 416.281 L 283.882775 416.281 L 283.882775 426.679437 Z M 265.683556 426.679437 " transform="matrix(1,0,0,-1,-164.74215,512.0935)"/>
<path style="fill-rule:evenodd;fill:rgb(94.1%,94.1%,94.1%);fill-opacity:1;stroke-width:0.8;stroke-linecap:round;stroke-linejoin:round;stroke:rgb(0%,0%,0%);stroke-opacity:1;stroke-miterlimit:10;" d="M 265.683556 416.281 L 265.683556 405.878656 L 283.882775 405.878656 L 283.882775 416.281 Z M 265.683556 416.281 " transform="matrix(1,0,0,-1,-164.74215,512.0935)"/>
<path style="fill-rule:evenodd;fill:rgb(94.1%,94.1%,94.1%);fill-opacity:1;stroke-width:0.8;stroke-linecap:round;stroke-linejoin:round;stroke:rgb(0%,0%,0%);stroke-opacity:1;stroke-miterlimit:10;" d="M 309.882775 426.679437 L 309.882775 416.281 L 328.081994 416.281 L 328.081994 426.679437 Z M 309.882775 426.679437 " transform="matrix(1,0,0,-1,-164.74215,512.0935)"/>
<path style="fill-rule:evenodd;fill:rgb(94.1%,94.1%,94.1%);fill-opacity:1;stroke-width:0.8;stroke-linecap:round;stroke-linejoin:round;stroke:rgb(0%,0%,0%);stroke-opacity:1;stroke-miterlimit:10;" d="M 309.882775 416.281 L 309.882775 405.878656 L 328.081994 405.878656 L 328.081994 416.281 Z M 309.882775 416.281 " transform="matrix(1,0,0,-1,-164.74215,512.0935)"/>
<path style="fill-rule:evenodd;fill:rgb(94.1%,94.1%,94.1%);fill-opacity:1;stroke-width:0.8;stroke-linecap:round;stroke-linejoin:round;stroke:rgb(0%,0%,0%);stroke-opacity:1;stroke-miterlimit:10;" d="M 354.081994 416.281 L 354.081994 405.878656 L 372.281213 405.878656 L 372.281213 416.281 Z M 354.081994 416.281 " transform="matrix(1,0,0,-1,-164.74215,512.0935)"/>
<path style="fill-rule:evenodd;fill:rgb(94.1%,94.1%,94.1%);fill-opacity:1;stroke-width:0.8;stroke-linecap:round;stroke-linejoin:round;stroke:rgb(0%,0%,0%);stroke-opacity:1;stroke-miterlimit:10;" d="M 354.081994 426.679437 L 354.081994 416.281 L 372.281213 416.281 L 372.281213 426.679437 Z M 354.081994 426.679437 " transform="matrix(1,0,0,-1,-164.74215,512.0935)"/>
<path style="fill-rule:evenodd;fill:rgb(94.1%,94.1%,94.1%);fill-opacity:1;stroke-width:0.8;stroke-linecap:round;stroke-linejoin:round;stroke:rgb(0%,0%,0%);stroke-opacity:1;stroke-miterlimit:10;" d="M 354.081994 457.878656 L 354.081994 447.480219 L 372.281213 447.480219 L 372.281213 457.878656 Z M 354.081994 457.878656 " transform="matrix(1,0,0,-1,-164.74215,512.0935)"/>
<path style="fill-rule:evenodd;fill:rgb(94.1%,94.1%,94.1%);fill-opacity:1;stroke-width:0.8;stroke-linecap:round;stroke-linejoin:round;stroke:rgb(0%,0%,0%);stroke-opacity:1;stroke-miterlimit:10;" d="M 354.081994 468.281 L 354.081994 457.878656 L 372.281213 457.878656 L 372.281213 468.281 Z M 354.081994 468.281 " transform="matrix(1,0,0,-1,-164.74215,512.0935)"/>
<path style="fill-rule:evenodd;fill:rgb(94.1%,94.1%,94.1%);fill-opacity:1;stroke-width:0.8;stroke-linecap:round;stroke-linejoin:round;stroke:rgb(0%,0%,0%);stroke-opacity:1;stroke-miterlimit:10;" d="M 312.480431 468.281 L 312.480431 457.878656 L 330.683556 457.878656 L 330.683556 468.281 Z M 312.480431 468.281 " transform="matrix(1,0,0,-1,-164.74215,512.0935)"/>
<path style="fill-rule:evenodd;fill:rgb(94.1%,94.1%,94.1%);fill-opacity:1;stroke-width:0.8;stroke-linecap:round;stroke-linejoin:round;stroke:rgb(0%,0%,0%);stroke-opacity:1;stroke-miterlimit:10;" d="M 309.882775 457.878656 L 309.882775 447.480219 L 328.081994 447.480219 L 328.081994 457.878656 Z M 309.882775 457.878656 " transform="matrix(1,0,0,-1,-164.74215,512.0935)"/>
<path style="fill-rule:evenodd;fill:rgb(94.1%,94.1%,94.1%);fill-opacity:1;stroke-width:0.8;stroke-linecap:round;stroke-linejoin:round;stroke:rgb(0%,0%,0%);stroke-opacity:1;stroke-miterlimit:10;" d="M 265.683556 457.878656 L 265.683556 447.480219 L 283.882775 447.480219 L 283.882775 457.878656 Z M 265.683556 457.878656 " transform="matrix(1,0,0,-1,-164.74215,512.0935)"/>
<path style="fill-rule:evenodd;fill:rgb(94.1%,94.1%,94.1%);fill-opacity:1;stroke-width:0.8;stroke-linecap:round;stroke-linejoin:round;stroke:rgb(0%,0%,0%);stroke-opacity:1;stroke-miterlimit:10;" d="M 270.882775 468.281 L 270.882775 457.878656 L 289.081994 457.878656 L 289.081994 468.281 Z M 270.882775 468.281 " transform="matrix(1,0,0,-1,-164.74215,512.0935)"/>
<path style="fill-rule:evenodd;fill:rgb(94.1%,94.1%,94.1%);fill-opacity:1;stroke-width:0.8;stroke-linecap:round;stroke-linejoin:round;stroke:rgb(0%,0%,0%);stroke-opacity:1;stroke-miterlimit:10;" d="M 224.081994 457.878656 L 224.081994 447.480219 L 242.281213 447.480219 L 242.281213 457.878656 Z M 224.081994 457.878656 " transform="matrix(1,0,0,-1,-164.74215,512.0935)"/>
<path style="fill-rule:evenodd;fill:rgb(94.1%,94.1%,94.1%);fill-opacity:1;stroke-width:0.8;stroke-linecap:round;stroke-linejoin:round;stroke:rgb(0%,0%,0%);stroke-opacity:1;stroke-miterlimit:10;" d="M 226.683556 468.281 L 226.683556 457.878656 L 244.882775 457.878656 L 244.882775 468.281 Z M 226.683556 468.281 " transform="matrix(1,0,0,-1,-164.74215,512.0935)"/>
<path style="fill-rule:evenodd;fill:rgb(94.1%,94.1%,94.1%);fill-opacity:1;stroke-width:0.8;stroke-linecap:round;stroke-linejoin:round;stroke:rgb(0%,0%,0%);stroke-opacity:1;stroke-miterlimit:10;" d="M 182.480431 468.281 L 182.480431 457.878656 L 200.683556 457.878656 L 200.683556 468.281 Z M 182.480431 468.281 " transform="matrix(1,0,0,-1,-164.74215,512.0935)"/>
<path style="fill-rule:evenodd;fill:rgb(94.1%,94.1%,94.1%);fill-opacity:1;stroke-width:0.8;stroke-linecap:round;stroke-linejoin:round;stroke:rgb(0%,0%,0%);stroke-opacity:1;stroke-miterlimit:10;" d="M 182.480431 457.878656 L 182.480431 447.480219 L 200.683556 447.480219 L 200.683556 457.878656 Z M 182.480431 457.878656 " transform="matrix(1,0,0,-1,-164.74215,512.0935)"/>
<g style="fill:rgb(0%,0%,0%);fill-opacity:1;">
  <use xlink:href="#glyph0-1" x="44.47185" y="5.409"/>
</g>
<g style="fill:rgb(0%,0%,0%);fill-opacity:1;">
  <use xlink:href="#glyph1-1" x="49.20385" y="6.903"/>
</g>
<g style="fill:rgb(0%,0%,0%);fill-opacity:1;">
  <use xlink:href="#glyph0-1" x="87.37185" y="5.409"/>
</g>
<g style="fill:rgb(0%,0%,0%);fill-opacity:1;">
  <use xlink:href="#glyph1-2" x="92.10385" y="6.903"/>
</g>
<g style="fill:rgb(0%,0%,0%);fill-opacity:1;">
  <use xlink:href="#glyph0-1" x="128.97185" y="5.409"/>
</g>
<g style="fill:rgb(0%,0%,0%);fill-opacity:1;">
  <use xlink:href="#glyph1-3" x="133.70385" y="6.903"/>
</g>
<g style="fill:rgb(0%,0%,0%);fill-opacity:1;">
  <use xlink:href="#glyph0-1" x="171.87185" y="5.409"/>
</g>
<g style="fill:rgb(0%,0%,0%);fill-opacity:1;">
  <use xlink:href="#glyph1-4" x="176.60385" y="6.903"/>
</g>
<g style="fill:rgb(0%,0%,0%);fill-opacity:1;">
  <use xlink:href="#glyph2-1" x="212.63585" y="24.6705"/>
</g>
<g style="fill:rgb(0%,0%,0%);fill-opacity:1;">
  <use xlink:href="#glyph3-1" x="222.09985" y="35.9135"/>
</g>
<g style="fill:rgb(0%,0%,0%);fill-opacity:1;">
  <use xlink:href="#glyph4-1" x="228.23685" y="37.4075"/>
</g>
<path style="fill-rule:evenodd;fill:rgb(69.8%,87.4%,54.1%);fill-opacity:1;stroke-width:0.8;stroke-linecap:round;stroke-linejoin:round;stroke:rgb(0%,0%,0%);stroke-opacity:1;stroke-miterlimit:10;" d="M 181.183556 489.081781 L 181.183556 478.679437 L 201.980431 478.679437 L 201.980431 489.081781 Z M 181.183556 489.081781 " transform="matrix(1,0,0,-1,-164.74215,512.0935)"/>
<path style="fill-rule:evenodd;fill:rgb(69.8%,87.4%,54.1%);fill-opacity:1;stroke-width:0.8;stroke-linecap:round;stroke-linejoin:round;stroke:rgb(0%,0%,0%);stroke-opacity:1;stroke-miterlimit:10;" d="M 212.382775 491.679437 L 212.382775 476.081781 L 222.781213 476.081781 L 222.781213 491.679437 Z M 212.382775 491.679437 " transform="matrix(1,0,0,-1,-164.74215,512.0935)"/>
<path style="fill-rule:evenodd;fill:rgb(69.8%,87.4%,54.1%);fill-opacity:1;stroke-width:0.8;stroke-linecap:round;stroke-linejoin:round;stroke:rgb(0%,0%,0%);stroke-opacity:1;stroke-miterlimit:10;" d="M 256.581994 491.679437 L 256.581994 476.081781 L 266.980431 476.081781 L 266.980431 491.679437 Z M 256.581994 491.679437 " transform="matrix(1,0,0,-1,-164.74215,512.0935)"/>
<path style="fill-rule:evenodd;fill:rgb(69.8%,87.4%,54.1%);fill-opacity:1;stroke-width:0.8;stroke-linecap:round;stroke-linejoin:round;stroke:rgb(0%,0%,0%);stroke-opacity:1;stroke-miterlimit:10;" d="M 290.382775 491.679437 L 290.382775 476.081781 L 300.781213 476.081781 L 300.781213 491.679437 Z M 290.382775 491.679437 " transform="matrix(1,0,0,-1,-164.74215,512.0935)"/>
<path style="fill-rule:evenodd;fill:rgb(69.8%,87.4%,54.1%);fill-opacity:1;stroke-width:0.8;stroke-linecap:round;stroke-linejoin:round;stroke:rgb(0%,0%,0%);stroke-opacity:1;stroke-miterlimit:10;" d="M 342.382775 491.679437 L 342.382775 476.081781 L 352.781213 476.081781 L 352.781213 491.679437 Z M 342.382775 491.679437 " transform="matrix(1,0,0,-1,-164.74215,512.0935)"/>
<path style="fill-rule:evenodd;fill:rgb(98.4%,60.3%,60%);fill-opacity:1;stroke-width:0.8;stroke-linecap:round;stroke-linejoin:round;stroke:rgb(0%,0%,0%);stroke-opacity:1;stroke-miterlimit:10;" d="M 201.980431 481.281 L 201.980431 465.679437 L 212.382775 465.679437 L 212.382775 481.281 Z M 201.980431 481.281 " transform="matrix(1,0,0,-1,-164.74215,512.0935)"/>
<path style="fill-rule:evenodd;fill:rgb(98.4%,60.3%,60%);fill-opacity:1;stroke-width:0.8;stroke-linecap:round;stroke-linejoin:round;stroke:rgb(0%,0%,0%);stroke-opacity:1;stroke-miterlimit:10;" d="M 246.183556 481.281 L 246.183556 465.679437 L 256.581994 465.679437 L 256.581994 481.281 Z M 246.183556 481.281 " transform="matrix(1,0,0,-1,-164.74215,512.0935)"/>
<path style="fill-rule:evenodd;fill:rgb(98.4%,60.3%,60%);fill-opacity:1;stroke-width:0.8;stroke-linecap:round;stroke-linejoin:round;stroke:rgb(0%,0%,0%);stroke-opacity:1;stroke-miterlimit:10;" d="M 300.781213 481.281 L 300.781213 465.679437 L 311.183556 465.679437 L 311.183556 481.281 Z M 300.781213 481.281 " transform="matrix(1,0,0,-1,-164.74215,512.0935)"/>
<path style="fill-rule:evenodd;fill:rgb(98.4%,60.3%,60%);fill-opacity:1;stroke-width:0.8;stroke-linecap:round;stroke-linejoin:round;stroke:rgb(0%,0%,0%);stroke-opacity:1;stroke-miterlimit:10;" d="M 331.980431 481.281 L 331.980431 465.679437 L 342.382775 465.679437 L 342.382775 481.281 Z M 331.980431 481.281 " transform="matrix(1,0,0,-1,-164.74215,512.0935)"/>
<path style="fill-rule:evenodd;fill:rgb(12.9%,55.7%,98.8%);fill-opacity:1;stroke-width:0.8;stroke-linecap:round;stroke-linejoin:round;stroke:rgb(0%,0%,0%);stroke-opacity:1;stroke-miterlimit:10;" d="M 222.781213 485.179437 L 222.781213 482.581781 L 225.382775 482.581781 L 225.382775 485.179437 Z M 222.781213 485.179437 " transform="matrix(1,0,0,-1,-164.74215,512.0935)"/>
<path style="fill-rule:evenodd;fill:rgb(12.9%,55.7%,98.8%);fill-opacity:1;stroke-width:0.8;stroke-linecap:round;stroke-linejoin:round;stroke:rgb(0%,0%,0%);stroke-opacity:1;stroke-miterlimit:10;" d="M 266.980431 485.179437 L 266.980431 482.581781 L 269.581994 482.581781 L 269.581994 485.179437 Z M 266.980431 485.179437 " transform="matrix(1,0,0,-1,-164.74215,512.0935)"/>
<path style="fill-rule:evenodd;fill:rgb(12.9%,55.7%,98.8%);fill-opacity:1;stroke-width:0.8;stroke-linecap:round;stroke-linejoin:round;stroke:rgb(0%,0%,0%);stroke-opacity:1;stroke-miterlimit:10;" d="M 346.281213 474.781 L 346.281213 472.179437 L 348.882775 472.179437 L 348.882775 474.781 Z M 346.281213 474.781 " transform="matrix(1,0,0,-1,-164.74215,512.0935)"/>
<path style="fill:none;stroke-width:0.4;stroke-linecap:round;stroke-linejoin:round;stroke:rgb(0%,0%,0%);stroke-opacity:1;stroke-miterlimit:10;" d="M 181.183556 377.281 L 373.581994 377.281 " transform="matrix(1,0,0,-1,-164.74215,512.0935)"/>
<path style="fill-rule:evenodd;fill:rgb(0%,0%,0%);fill-opacity:1;stroke-width:0.4;stroke-linecap:round;stroke-linejoin:round;stroke:rgb(0%,0%,0%);stroke-opacity:1;stroke-miterlimit:10;" d="M 373.581994 377.281 L 366.581994 379.613031 L 366.581994 374.948969 Z M 373.581994 377.281 " transform="matrix(1,0,0,-1,-164.74215,512.0935)"/>
<path style="fill-rule:evenodd;fill:rgb(0%,0%,0%);fill-opacity:1;stroke-width:0.4;stroke-linecap:round;stroke-linejoin:round;stroke:rgb(0%,0%,0%);stroke-opacity:1;stroke-miterlimit:10;" d="M 181.183556 377.281 L 188.183556 374.948969 L 188.183556 379.613031 Z M 181.183556 377.281 " transform="matrix(1,0,0,-1,-164.74215,512.0935)"/>
<path style="fill-rule:evenodd;fill:rgb(94.1%,94.1%,94.1%);fill-opacity:1;stroke-width:0.8;stroke-linecap:round;stroke-linejoin:round;stroke:rgb(0%,0%,0%);stroke-opacity:1;stroke-miterlimit:10;" d="M 213.683556 470.878656 L 213.683556 455.281 L 221.480431 455.281 L 221.480431 470.878656 Z M 213.683556 470.878656 " transform="matrix(1,0,0,-1,-164.74215,512.0935)"/>
<path style="fill-rule:evenodd;fill:rgb(94.1%,94.1%,94.1%);fill-opacity:1;stroke-width:0.8;stroke-linecap:round;stroke-linejoin:round;stroke:rgb(0%,0%,0%);stroke-opacity:1;stroke-miterlimit:10;" d="M 203.281213 460.480219 L 203.281213 444.878656 L 211.081994 444.878656 L 211.081994 460.480219 Z M 203.281213 460.480219 " transform="matrix(1,0,0,-1,-164.74215,512.0935)"/>
<path style="fill-rule:evenodd;fill:rgb(69.8%,87.4%,54.1%);fill-opacity:1;stroke-width:0.8;stroke-linecap:round;stroke-linejoin:round;stroke:rgb(0%,0%,0%);stroke-opacity:1;stroke-miterlimit:10;" d="M 212.382775 450.081781 L 212.382775 434.480219 L 222.781213 434.480219 L 222.781213 450.081781 Z M 212.382775 450.081781 " transform="matrix(1,0,0,-1,-164.74215,512.0935)"/>
<path style="fill-rule:evenodd;fill:rgb(12.9%,55.7%,98.8%);fill-opacity:1;stroke-width:0.8;stroke-linecap:round;stroke-linejoin:round;stroke:rgb(0%,0%,0%);stroke-opacity:1;stroke-miterlimit:10;" d="M 257.882775 433.179437 L 257.882775 430.581781 L 260.480431 430.581781 L 260.480431 433.179437 Z M 257.882775 433.179437 " transform="matrix(1,0,0,-1,-164.74215,512.0935)"/>
<path style="fill-rule:evenodd;fill:rgb(12.9%,55.7%,98.8%);fill-opacity:1;stroke-width:0.8;stroke-linecap:round;stroke-linejoin:round;stroke:rgb(0%,0%,0%);stroke-opacity:1;stroke-miterlimit:10;" d="M 350.183556 443.581781 L 350.183556 440.980219 L 352.781213 440.980219 L 352.781213 443.581781 Z M 350.183556 443.581781 " transform="matrix(1,0,0,-1,-164.74215,512.0935)"/>
<path style="fill-rule:evenodd;fill:rgb(12.9%,55.7%,98.8%);fill-opacity:1;stroke-width:0.8;stroke-linecap:round;stroke-linejoin:round;stroke:rgb(0%,0%,0%);stroke-opacity:1;stroke-miterlimit:10;" d="M 305.980431 433.179437 L 305.980431 430.581781 L 308.581994 430.581781 L 308.581994 433.179437 Z M 305.980431 433.179437 " transform="matrix(1,0,0,-1,-164.74215,512.0935)"/>
<path style="fill-rule:evenodd;fill:rgb(98.4%,60.3%,60%);fill-opacity:1;stroke-width:0.8;stroke-linecap:round;stroke-linejoin:round;stroke:rgb(0%,0%,0%);stroke-opacity:1;stroke-miterlimit:10;" d="M 181.183556 395.480219 L 181.183556 385.081781 L 201.980431 385.081781 L 201.980431 395.480219 Z M 181.183556 395.480219 " transform="matrix(1,0,0,-1,-164.74215,512.0935)"/>
<path style="fill-rule:evenodd;fill:rgb(12.9%,55.7%,98.8%);fill-opacity:1;stroke-width:0.8;stroke-linecap:round;stroke-linejoin:round;stroke:rgb(0%,0%,0%);stroke-opacity:1;stroke-miterlimit:10;" d="M 216.281213 391.581781 L 216.281213 388.980219 L 218.882775 388.980219 L 218.882775 391.581781 Z M 216.281213 391.581781 " transform="matrix(1,0,0,-1,-164.74215,512.0935)"/>
<path style="fill-rule:evenodd;fill:rgb(12.9%,55.7%,98.8%);fill-opacity:1;stroke-width:0.8;stroke-linecap:round;stroke-linejoin:round;stroke:rgb(0%,0%,0%);stroke-opacity:1;stroke-miterlimit:10;" d="M 350.183556 401.980219 L 350.183556 399.378656 L 352.781213 399.378656 L 352.781213 401.980219 Z M 350.183556 401.980219 " transform="matrix(1,0,0,-1,-164.74215,512.0935)"/>
<path style="fill-rule:evenodd;fill:rgb(12.9%,55.7%,98.8%);fill-opacity:1;stroke-width:0.8;stroke-linecap:round;stroke-linejoin:round;stroke:rgb(0%,0%,0%);stroke-opacity:1;stroke-miterlimit:10;" d="M 305.980431 391.581781 L 305.980431 388.980219 L 308.581994 388.980219 L 308.581994 391.581781 Z M 305.980431 391.581781 " transform="matrix(1,0,0,-1,-164.74215,512.0935)"/>
<path style="fill-rule:evenodd;fill:rgb(98.4%,60.3%,60%);fill-opacity:1;stroke-width:0.8;stroke-linecap:round;stroke-linejoin:round;stroke:rgb(0%,0%,0%);stroke-opacity:1;stroke-miterlimit:10;" d="M 222.781213 395.480219 L 222.781213 385.081781 L 243.581994 385.081781 L 243.581994 395.480219 Z M 222.781213 395.480219 " transform="matrix(1,0,0,-1,-164.74215,512.0935)"/>
<path style="fill-rule:evenodd;fill:rgb(98.4%,60.3%,60%);fill-opacity:1;stroke-width:0.8;stroke-linecap:round;stroke-linejoin:round;stroke:rgb(0%,0%,0%);stroke-opacity:1;stroke-miterlimit:10;" d="M 264.382775 395.480219 L 264.382775 385.081781 L 285.183556 385.081781 L 285.183556 395.480219 Z M 264.382775 395.480219 " transform="matrix(1,0,0,-1,-164.74215,512.0935)"/>
<path style="fill-rule:evenodd;fill:rgb(98.4%,60.3%,60%);fill-opacity:1;stroke-width:0.8;stroke-linecap:round;stroke-linejoin:round;stroke:rgb(0%,0%,0%);stroke-opacity:1;stroke-miterlimit:10;" d="M 308.581994 395.480219 L 308.581994 385.081781 L 329.382775 385.081781 L 329.382775 395.480219 Z M 308.581994 395.480219 " transform="matrix(1,0,0,-1,-164.74215,512.0935)"/>
<path style="fill-rule:evenodd;fill:rgb(98.4%,60.3%,60%);fill-opacity:1;stroke-width:0.8;stroke-linecap:round;stroke-linejoin:round;stroke:rgb(0%,0%,0%);stroke-opacity:1;stroke-miterlimit:10;" d="M 352.781213 395.480219 L 352.781213 385.081781 L 373.581994 385.081781 L 373.581994 395.480219 Z M 352.781213 395.480219 " transform="matrix(1,0,0,-1,-164.74215,512.0935)"/>
<path style="fill-rule:evenodd;fill:rgb(98.4%,60.3%,60%);fill-opacity:1;stroke-width:0.8;stroke-linecap:round;stroke-linejoin:round;stroke:rgb(0%,0%,0%);stroke-opacity:1;stroke-miterlimit:10;" d="M 181.183556 437.081781 L 181.183556 426.679437 L 201.980431 426.679437 L 201.980431 437.081781 Z M 181.183556 437.081781 " transform="matrix(1,0,0,-1,-164.74215,512.0935)"/>
<path style="fill-rule:evenodd;fill:rgb(98.4%,60.3%,60%);fill-opacity:1;stroke-width:0.8;stroke-linecap:round;stroke-linejoin:round;stroke:rgb(0%,0%,0%);stroke-opacity:1;stroke-miterlimit:10;" d="M 222.781213 437.081781 L 222.781213 426.679437 L 243.581994 426.679437 L 243.581994 437.081781 Z M 222.781213 437.081781 " transform="matrix(1,0,0,-1,-164.74215,512.0935)"/>
<path style="fill-rule:evenodd;fill:rgb(98.4%,60.3%,60%);fill-opacity:1;stroke-width:0.8;stroke-linecap:round;stroke-linejoin:round;stroke:rgb(0%,0%,0%);stroke-opacity:1;stroke-miterlimit:10;" d="M 264.382775 437.081781 L 264.382775 426.679437 L 285.183556 426.679437 L 285.183556 437.081781 Z M 264.382775 437.081781 " transform="matrix(1,0,0,-1,-164.74215,512.0935)"/>
<path style="fill-rule:evenodd;fill:rgb(98.4%,60.3%,60%);fill-opacity:1;stroke-width:0.8;stroke-linecap:round;stroke-linejoin:round;stroke:rgb(0%,0%,0%);stroke-opacity:1;stroke-miterlimit:10;" d="M 308.581994 437.081781 L 308.581994 426.679437 L 329.382775 426.679437 L 329.382775 437.081781 Z M 308.581994 437.081781 " transform="matrix(1,0,0,-1,-164.74215,512.0935)"/>
<path style="fill-rule:evenodd;fill:rgb(98.4%,60.3%,60%);fill-opacity:1;stroke-width:0.8;stroke-linecap:round;stroke-linejoin:round;stroke:rgb(0%,0%,0%);stroke-opacity:1;stroke-miterlimit:10;" d="M 352.781213 437.081781 L 352.781213 426.679437 L 373.581994 426.679437 L 373.581994 437.081781 Z M 352.781213 437.081781 " transform="matrix(1,0,0,-1,-164.74215,512.0935)"/>
<path style="fill-rule:evenodd;fill:rgb(98.4%,60.3%,60%);fill-opacity:1;stroke-width:0.8;stroke-linecap:round;stroke-linejoin:round;stroke:rgb(0%,0%,0%);stroke-opacity:1;stroke-miterlimit:10;" d="M 352.781213 478.679437 L 352.781213 468.281 L 373.581994 468.281 L 373.581994 478.679437 Z M 352.781213 478.679437 " transform="matrix(1,0,0,-1,-164.74215,512.0935)"/>
<path style="fill-rule:evenodd;fill:rgb(98.4%,60.3%,60%);fill-opacity:1;stroke-width:0.8;stroke-linecap:round;stroke-linejoin:round;stroke:rgb(0%,0%,0%);stroke-opacity:1;stroke-miterlimit:10;" d="M 311.183556 478.679437 L 311.183556 468.281 L 331.980431 468.281 L 331.980431 478.679437 Z M 311.183556 478.679437 " transform="matrix(1,0,0,-1,-164.74215,512.0935)"/>
<path style="fill-rule:evenodd;fill:rgb(98.4%,60.3%,60%);fill-opacity:1;stroke-width:0.8;stroke-linecap:round;stroke-linejoin:round;stroke:rgb(0%,0%,0%);stroke-opacity:1;stroke-miterlimit:10;" d="M 269.581994 478.679437 L 269.581994 468.281 L 290.382775 468.281 L 290.382775 478.679437 Z M 269.581994 478.679437 " transform="matrix(1,0,0,-1,-164.74215,512.0935)"/>
<path style="fill-rule:evenodd;fill:rgb(98.4%,60.3%,60%);fill-opacity:1;stroke-width:0.8;stroke-linecap:round;stroke-linejoin:round;stroke:rgb(0%,0%,0%);stroke-opacity:1;stroke-miterlimit:10;" d="M 225.382775 478.679437 L 225.382775 468.281 L 246.183556 468.281 L 246.183556 478.679437 Z M 225.382775 478.679437 " transform="matrix(1,0,0,-1,-164.74215,512.0935)"/>
<path style="fill-rule:evenodd;fill:rgb(98.4%,60.3%,60%);fill-opacity:1;stroke-width:0.8;stroke-linecap:round;stroke-linejoin:round;stroke:rgb(0%,0%,0%);stroke-opacity:1;stroke-miterlimit:10;" d="M 181.183556 478.679437 L 181.183556 468.281 L 201.980431 468.281 L 201.980431 478.679437 Z M 181.183556 478.679437 " transform="matrix(1,0,0,-1,-164.74215,512.0935)"/>
<path style="fill-rule:evenodd;fill:rgb(69.8%,87.4%,54.1%);fill-opacity:1;stroke-width:0.8;stroke-linecap:round;stroke-linejoin:round;stroke:rgb(0%,0%,0%);stroke-opacity:1;stroke-miterlimit:10;" d="M 225.382775 489.081781 L 225.382775 478.679437 L 246.183556 478.679437 L 246.183556 489.081781 Z M 225.382775 489.081781 " transform="matrix(1,0,0,-1,-164.74215,512.0935)"/>
<path style="fill-rule:evenodd;fill:rgb(69.8%,87.4%,54.1%);fill-opacity:1;stroke-width:0.8;stroke-linecap:round;stroke-linejoin:round;stroke:rgb(0%,0%,0%);stroke-opacity:1;stroke-miterlimit:10;" d="M 269.581994 489.081781 L 269.581994 478.679437 L 290.382775 478.679437 L 290.382775 489.081781 Z M 269.581994 489.081781 " transform="matrix(1,0,0,-1,-164.74215,512.0935)"/>
<path style="fill-rule:evenodd;fill:rgb(69.8%,87.4%,54.1%);fill-opacity:1;stroke-width:0.8;stroke-linecap:round;stroke-linejoin:round;stroke:rgb(0%,0%,0%);stroke-opacity:1;stroke-miterlimit:10;" d="M 311.183556 489.081781 L 311.183556 478.679437 L 331.980431 478.679437 L 331.980431 489.081781 Z M 311.183556 489.081781 " transform="matrix(1,0,0,-1,-164.74215,512.0935)"/>
<path style="fill-rule:evenodd;fill:rgb(69.8%,87.4%,54.1%);fill-opacity:1;stroke-width:0.8;stroke-linecap:round;stroke-linejoin:round;stroke:rgb(0%,0%,0%);stroke-opacity:1;stroke-miterlimit:10;" d="M 352.781213 489.081781 L 352.781213 478.679437 L 373.581994 478.679437 L 373.581994 489.081781 Z M 352.781213 489.081781 " transform="matrix(1,0,0,-1,-164.74215,512.0935)"/>
<path style="fill-rule:evenodd;fill:rgb(69.8%,87.4%,54.1%);fill-opacity:1;stroke-width:0.8;stroke-linecap:round;stroke-linejoin:round;stroke:rgb(0%,0%,0%);stroke-opacity:1;stroke-miterlimit:10;" d="M 308.581994 447.480219 L 308.581994 437.081781 L 329.382775 437.081781 L 329.382775 447.480219 Z M 308.581994 447.480219 " transform="matrix(1,0,0,-1,-164.74215,512.0935)"/>
<path style="fill-rule:evenodd;fill:rgb(69.8%,87.4%,54.1%);fill-opacity:1;stroke-width:0.8;stroke-linecap:round;stroke-linejoin:round;stroke:rgb(0%,0%,0%);stroke-opacity:1;stroke-miterlimit:10;" d="M 352.781213 447.480219 L 352.781213 437.081781 L 373.581994 437.081781 L 373.581994 447.480219 Z M 352.781213 447.480219 " transform="matrix(1,0,0,-1,-164.74215,512.0935)"/>
<path style="fill-rule:evenodd;fill:rgb(69.8%,87.4%,54.1%);fill-opacity:1;stroke-width:0.8;stroke-linecap:round;stroke-linejoin:round;stroke:rgb(0%,0%,0%);stroke-opacity:1;stroke-miterlimit:10;" d="M 308.581994 405.878656 L 308.581994 395.480219 L 329.382775 395.480219 L 329.382775 405.878656 Z M 308.581994 405.878656 " transform="matrix(1,0,0,-1,-164.74215,512.0935)"/>
<path style="fill-rule:evenodd;fill:rgb(69.8%,87.4%,54.1%);fill-opacity:1;stroke-width:0.8;stroke-linecap:round;stroke-linejoin:round;stroke:rgb(0%,0%,0%);stroke-opacity:1;stroke-miterlimit:10;" d="M 352.781213 405.878656 L 352.781213 395.480219 L 373.581994 395.480219 L 373.581994 405.878656 Z M 352.781213 405.878656 " transform="matrix(1,0,0,-1,-164.74215,512.0935)"/>
<path style="fill-rule:evenodd;fill:rgb(69.8%,87.4%,54.1%);fill-opacity:1;stroke-width:0.8;stroke-linecap:round;stroke-linejoin:round;stroke:rgb(0%,0%,0%);stroke-opacity:1;stroke-miterlimit:10;" d="M 264.382775 405.878656 L 264.382775 395.480219 L 285.183556 395.480219 L 285.183556 405.878656 Z M 264.382775 405.878656 " transform="matrix(1,0,0,-1,-164.74215,512.0935)"/>
<path style="fill-rule:evenodd;fill:rgb(69.8%,87.4%,54.1%);fill-opacity:1;stroke-width:0.8;stroke-linecap:round;stroke-linejoin:round;stroke:rgb(0%,0%,0%);stroke-opacity:1;stroke-miterlimit:10;" d="M 222.781213 405.878656 L 222.781213 395.480219 L 243.581994 395.480219 L 243.581994 405.878656 Z M 222.781213 405.878656 " transform="matrix(1,0,0,-1,-164.74215,512.0935)"/>
<path style="fill-rule:evenodd;fill:rgb(69.8%,87.4%,54.1%);fill-opacity:1;stroke-width:0.8;stroke-linecap:round;stroke-linejoin:round;stroke:rgb(0%,0%,0%);stroke-opacity:1;stroke-miterlimit:10;" d="M 181.183556 405.878656 L 181.183556 395.480219 L 201.980431 395.480219 L 201.980431 405.878656 Z M 181.183556 405.878656 " transform="matrix(1,0,0,-1,-164.74215,512.0935)"/>
<path style="fill-rule:evenodd;fill:rgb(69.8%,87.4%,54.1%);fill-opacity:1;stroke-width:0.8;stroke-linecap:round;stroke-linejoin:round;stroke:rgb(0%,0%,0%);stroke-opacity:1;stroke-miterlimit:10;" d="M 181.183556 447.480219 L 181.183556 437.081781 L 201.980431 437.081781 L 201.980431 447.480219 Z M 181.183556 447.480219 " transform="matrix(1,0,0,-1,-164.74215,512.0935)"/>
<path style="fill-rule:evenodd;fill:rgb(69.8%,87.4%,54.1%);fill-opacity:1;stroke-width:0.8;stroke-linecap:round;stroke-linejoin:round;stroke:rgb(0%,0%,0%);stroke-opacity:1;stroke-miterlimit:10;" d="M 222.781213 447.480219 L 222.781213 437.081781 L 243.581994 437.081781 L 243.581994 447.480219 Z M 222.781213 447.480219 " transform="matrix(1,0,0,-1,-164.74215,512.0935)"/>
<path style="fill-rule:evenodd;fill:rgb(69.8%,87.4%,54.1%);fill-opacity:1;stroke-width:0.8;stroke-linecap:round;stroke-linejoin:round;stroke:rgb(0%,0%,0%);stroke-opacity:1;stroke-miterlimit:10;" d="M 264.382775 447.480219 L 264.382775 437.081781 L 285.183556 437.081781 L 285.183556 447.480219 Z M 264.382775 447.480219 " transform="matrix(1,0,0,-1,-164.74215,512.0935)"/>
<path style="fill:none;stroke-width:0.8;stroke-linecap:round;stroke-linejoin:round;stroke:rgb(0%,0%,0%);stroke-opacity:1;stroke-dasharray:0.01,1.6;stroke-miterlimit:10;" d="M 181.183556 483.878656 L 373.581994 483.878656 " transform="matrix(1,0,0,-1,-164.74215,512.0935)"/>
<path style="fill:none;stroke-width:0.8;stroke-linecap:round;stroke-linejoin:round;stroke:rgb(0%,0%,0%);stroke-opacity:1;stroke-dasharray:0.01,1.6;stroke-miterlimit:10;" d="M 181.183556 473.480219 L 373.581994 473.480219 " transform="matrix(1,0,0,-1,-164.74215,512.0935)"/>
<path style="fill-rule:evenodd;fill:rgb(94.1%,94.1%,94.1%);fill-opacity:1;stroke-width:0.8;stroke-linecap:round;stroke-linejoin:round;stroke:rgb(0%,0%,0%);stroke-opacity:1;stroke-miterlimit:10;" d="M 291.683556 470.878656 L 291.683556 455.281 L 299.480431 455.281 L 299.480431 470.878656 Z M 291.683556 470.878656 " transform="matrix(1,0,0,-1,-164.74215,512.0935)"/>
<path style="fill-rule:evenodd;fill:rgb(94.1%,94.1%,94.1%);fill-opacity:1;stroke-width:0.8;stroke-linecap:round;stroke-linejoin:round;stroke:rgb(0%,0%,0%);stroke-opacity:1;stroke-miterlimit:10;" d="M 299.480431 460.480219 L 299.480431 444.878656 L 307.281213 444.878656 L 307.281213 460.480219 Z M 299.480431 460.480219 " transform="matrix(1,0,0,-1,-164.74215,512.0935)"/>
<path style="fill-rule:evenodd;fill:rgb(94.1%,94.1%,94.1%);fill-opacity:1;stroke-width:0.8;stroke-linecap:round;stroke-linejoin:round;stroke:rgb(0%,0%,0%);stroke-opacity:1;stroke-miterlimit:10;" d="M 343.683556 470.878656 L 343.683556 455.281 L 351.480431 455.281 L 351.480431 470.878656 Z M 343.683556 470.878656 " transform="matrix(1,0,0,-1,-164.74215,512.0935)"/>
<path style="fill-rule:evenodd;fill:rgb(94.1%,94.1%,94.1%);fill-opacity:1;stroke-width:0.8;stroke-linecap:round;stroke-linejoin:round;stroke:rgb(0%,0%,0%);stroke-opacity:1;stroke-miterlimit:10;" d="M 342.382775 429.281 L 342.382775 413.679437 L 350.183556 413.679437 L 350.183556 429.281 Z M 342.382775 429.281 " transform="matrix(1,0,0,-1,-164.74215,512.0935)"/>
<path style="fill-rule:evenodd;fill:rgb(94.1%,94.1%,94.1%);fill-opacity:1;stroke-width:0.8;stroke-linecap:round;stroke-linejoin:round;stroke:rgb(0%,0%,0%);stroke-opacity:1;stroke-miterlimit:10;" d="M 330.683556 418.878656 L 330.683556 403.281 L 338.480431 403.281 L 338.480431 418.878656 Z M 330.683556 418.878656 " transform="matrix(1,0,0,-1,-164.74215,512.0935)"/>
<path style="fill-rule:evenodd;fill:rgb(94.1%,94.1%,94.1%);fill-opacity:1;stroke-width:0.8;stroke-linecap:round;stroke-linejoin:round;stroke:rgb(0%,0%,0%);stroke-opacity:1;stroke-miterlimit:10;" d="M 296.882775 418.878656 L 296.882775 403.281 L 304.683556 403.281 L 304.683556 418.878656 Z M 296.882775 418.878656 " transform="matrix(1,0,0,-1,-164.74215,512.0935)"/>
<path style="fill-rule:evenodd;fill:rgb(94.1%,94.1%,94.1%);fill-opacity:1;stroke-width:0.8;stroke-linecap:round;stroke-linejoin:round;stroke:rgb(0%,0%,0%);stroke-opacity:1;stroke-miterlimit:10;" d="M 286.480431 429.281 L 286.480431 413.679437 L 294.281213 413.679437 L 294.281213 429.281 Z M 286.480431 429.281 " transform="matrix(1,0,0,-1,-164.74215,512.0935)"/>
<path style="fill-rule:evenodd;fill:rgb(94.1%,94.1%,94.1%);fill-opacity:1;stroke-width:0.8;stroke-linecap:round;stroke-linejoin:round;stroke:rgb(0%,0%,0%);stroke-opacity:1;stroke-miterlimit:10;" d="M 255.281213 429.281 L 255.281213 413.679437 L 263.081994 413.679437 L 263.081994 429.281 Z M 255.281213 429.281 " transform="matrix(1,0,0,-1,-164.74215,512.0935)"/>
<path style="fill-rule:evenodd;fill:rgb(94.1%,94.1%,94.1%);fill-opacity:1;stroke-width:0.8;stroke-linecap:round;stroke-linejoin:round;stroke:rgb(0%,0%,0%);stroke-opacity:1;stroke-miterlimit:10;" d="M 244.882775 418.878656 L 244.882775 403.281 L 252.683556 403.281 L 252.683556 418.878656 Z M 244.882775 418.878656 " transform="matrix(1,0,0,-1,-164.74215,512.0935)"/>
<path style="fill-rule:evenodd;fill:rgb(94.1%,94.1%,94.1%);fill-opacity:1;stroke-width:0.8;stroke-linecap:round;stroke-linejoin:round;stroke:rgb(0%,0%,0%);stroke-opacity:1;stroke-miterlimit:10;" d="M 213.683556 429.281 L 213.683556 413.679437 L 221.480431 413.679437 L 221.480431 429.281 Z M 213.683556 429.281 " transform="matrix(1,0,0,-1,-164.74215,512.0935)"/>
<path style="fill-rule:evenodd;fill:rgb(94.1%,94.1%,94.1%);fill-opacity:1;stroke-width:0.8;stroke-linecap:round;stroke-linejoin:round;stroke:rgb(0%,0%,0%);stroke-opacity:1;stroke-miterlimit:10;" d="M 203.281213 418.878656 L 203.281213 403.281 L 211.081994 403.281 L 211.081994 418.878656 Z M 203.281213 418.878656 " transform="matrix(1,0,0,-1,-164.74215,512.0935)"/>
<path style="fill-rule:evenodd;fill:rgb(94.1%,94.1%,94.1%);fill-opacity:1;stroke-width:0.8;stroke-linecap:round;stroke-linejoin:round;stroke:rgb(0%,0%,0%);stroke-opacity:1;stroke-miterlimit:10;" d="M 257.230431 470.878656 L 257.230431 455.281 L 265.031213 455.281 L 265.031213 470.878656 Z M 257.230431 470.878656 " transform="matrix(1,0,0,-1,-164.74215,512.0935)"/>
<path style="fill-rule:evenodd;fill:rgb(94.1%,94.1%,94.1%);fill-opacity:1;stroke-width:0.8;stroke-linecap:round;stroke-linejoin:round;stroke:rgb(0%,0%,0%);stroke-opacity:1;stroke-miterlimit:10;" d="M 245.531213 460.480219 L 245.531213 444.878656 L 253.331994 444.878656 L 253.331994 460.480219 Z M 245.531213 460.480219 " transform="matrix(1,0,0,-1,-164.74215,512.0935)"/>
<path style="fill-rule:evenodd;fill:rgb(94.1%,94.1%,94.1%);fill-opacity:1;stroke-width:0.8;stroke-linecap:round;stroke-linejoin:round;stroke:rgb(0%,0%,0%);stroke-opacity:1;stroke-miterlimit:10;" d="M 331.980431 460.480219 L 331.980431 444.878656 L 339.781213 444.878656 L 339.781213 460.480219 Z M 331.980431 460.480219 " transform="matrix(1,0,0,-1,-164.74215,512.0935)"/>
<path style="fill:none;stroke-width:0.8;stroke-linecap:round;stroke-linejoin:round;stroke:rgb(0%,0%,0%);stroke-opacity:1;stroke-dasharray:0.01,1.6;stroke-miterlimit:10;" d="M 181.183556 463.081781 L 373.581994 463.081781 " transform="matrix(1,0,0,-1,-164.74215,512.0935)"/>
<path style="fill:none;stroke-width:0.8;stroke-linecap:round;stroke-linejoin:round;stroke:rgb(0%,0%,0%);stroke-opacity:1;stroke-dasharray:0.01,1.6;stroke-miterlimit:10;" d="M 181.183556 452.679437 L 373.581994 452.679437 " transform="matrix(1,0,0,-1,-164.74215,512.0935)"/>
<path style="fill-rule:evenodd;fill:rgb(69.8%,87.4%,54.1%);fill-opacity:1;stroke-width:0.8;stroke-linecap:round;stroke-linejoin:round;stroke:rgb(0%,0%,0%);stroke-opacity:1;stroke-miterlimit:10;" d="M 253.980431 450.081781 L 253.980431 434.480219 L 264.382775 434.480219 L 264.382775 450.081781 Z M 253.980431 450.081781 " transform="matrix(1,0,0,-1,-164.74215,512.0935)"/>
<path style="fill-rule:evenodd;fill:rgb(69.8%,87.4%,54.1%);fill-opacity:1;stroke-width:0.8;stroke-linecap:round;stroke-linejoin:round;stroke:rgb(0%,0%,0%);stroke-opacity:1;stroke-miterlimit:10;" d="M 285.183556 450.081781 L 285.183556 434.480219 L 295.581994 434.480219 L 295.581994 450.081781 Z M 285.183556 450.081781 " transform="matrix(1,0,0,-1,-164.74215,512.0935)"/>
<path style="fill-rule:evenodd;fill:rgb(69.8%,87.4%,54.1%);fill-opacity:1;stroke-width:0.8;stroke-linecap:round;stroke-linejoin:round;stroke:rgb(0%,0%,0%);stroke-opacity:1;stroke-miterlimit:10;" d="M 339.781213 450.081781 L 339.781213 434.480219 L 350.183556 434.480219 L 350.183556 450.081781 Z M 339.781213 450.081781 " transform="matrix(1,0,0,-1,-164.74215,512.0935)"/>
<path style="fill-rule:evenodd;fill:rgb(69.8%,87.4%,54.1%);fill-opacity:1;stroke-width:0.8;stroke-linecap:round;stroke-linejoin:round;stroke:rgb(0%,0%,0%);stroke-opacity:1;stroke-miterlimit:10;" d="M 339.781213 408.480219 L 339.781213 392.878656 L 350.183556 392.878656 L 350.183556 408.480219 Z M 339.781213 408.480219 " transform="matrix(1,0,0,-1,-164.74215,512.0935)"/>
<path style="fill-rule:evenodd;fill:rgb(69.8%,87.4%,54.1%);fill-opacity:1;stroke-width:0.8;stroke-linecap:round;stroke-linejoin:round;stroke:rgb(0%,0%,0%);stroke-opacity:1;stroke-miterlimit:10;" d="M 285.183556 408.480219 L 285.183556 392.878656 L 295.581994 392.878656 L 295.581994 408.480219 Z M 285.183556 408.480219 " transform="matrix(1,0,0,-1,-164.74215,512.0935)"/>
<path style="fill-rule:evenodd;fill:rgb(69.8%,87.4%,54.1%);fill-opacity:1;stroke-width:0.8;stroke-linecap:round;stroke-linejoin:round;stroke:rgb(0%,0%,0%);stroke-opacity:1;stroke-miterlimit:10;" d="M 253.980431 408.480219 L 253.980431 392.878656 L 264.382775 392.878656 L 264.382775 408.480219 Z M 253.980431 408.480219 " transform="matrix(1,0,0,-1,-164.74215,512.0935)"/>
<path style="fill-rule:evenodd;fill:rgb(69.8%,87.4%,54.1%);fill-opacity:1;stroke-width:0.8;stroke-linecap:round;stroke-linejoin:round;stroke:rgb(0%,0%,0%);stroke-opacity:1;stroke-miterlimit:10;" d="M 212.382775 408.480219 L 212.382775 392.878656 L 222.781213 392.878656 L 222.781213 408.480219 Z M 212.382775 408.480219 " transform="matrix(1,0,0,-1,-164.74215,512.0935)"/>
<path style="fill-rule:evenodd;fill:rgb(98.4%,60.3%,60%);fill-opacity:1;stroke-width:0.8;stroke-linecap:round;stroke-linejoin:round;stroke:rgb(0%,0%,0%);stroke-opacity:1;stroke-miterlimit:10;" d="M 201.980431 439.679437 L 201.980431 424.081781 L 212.382775 424.081781 L 212.382775 439.679437 Z M 201.980431 439.679437 " transform="matrix(1,0,0,-1,-164.74215,512.0935)"/>
<path style="fill-rule:evenodd;fill:rgb(98.4%,60.3%,60%);fill-opacity:1;stroke-width:0.8;stroke-linecap:round;stroke-linejoin:round;stroke:rgb(0%,0%,0%);stroke-opacity:1;stroke-miterlimit:10;" d="M 243.581994 439.679437 L 243.581994 424.081781 L 253.980431 424.081781 L 253.980431 439.679437 Z M 243.581994 439.679437 " transform="matrix(1,0,0,-1,-164.74215,512.0935)"/>
<path style="fill-rule:evenodd;fill:rgb(98.4%,60.3%,60%);fill-opacity:1;stroke-width:0.8;stroke-linecap:round;stroke-linejoin:round;stroke:rgb(0%,0%,0%);stroke-opacity:1;stroke-miterlimit:10;" d="M 295.581994 439.679437 L 295.581994 424.081781 L 305.980431 424.081781 L 305.980431 439.679437 Z M 295.581994 439.679437 " transform="matrix(1,0,0,-1,-164.74215,512.0935)"/>
<path style="fill-rule:evenodd;fill:rgb(98.4%,60.3%,60%);fill-opacity:1;stroke-width:0.8;stroke-linecap:round;stroke-linejoin:round;stroke:rgb(0%,0%,0%);stroke-opacity:1;stroke-miterlimit:10;" d="M 329.382775 439.679437 L 329.382775 424.081781 L 339.781213 424.081781 L 339.781213 439.679437 Z M 329.382775 439.679437 " transform="matrix(1,0,0,-1,-164.74215,512.0935)"/>
<path style="fill-rule:evenodd;fill:rgb(98.4%,60.3%,60%);fill-opacity:1;stroke-width:0.8;stroke-linecap:round;stroke-linejoin:round;stroke:rgb(0%,0%,0%);stroke-opacity:1;stroke-miterlimit:10;" d="M 329.382775 398.081781 L 329.382775 382.480219 L 339.781213 382.480219 L 339.781213 398.081781 Z M 329.382775 398.081781 " transform="matrix(1,0,0,-1,-164.74215,512.0935)"/>
<path style="fill-rule:evenodd;fill:rgb(98.4%,60.3%,60%);fill-opacity:1;stroke-width:0.8;stroke-linecap:round;stroke-linejoin:round;stroke:rgb(0%,0%,0%);stroke-opacity:1;stroke-miterlimit:10;" d="M 295.581994 398.081781 L 295.581994 382.480219 L 305.980431 382.480219 L 305.980431 398.081781 Z M 295.581994 398.081781 " transform="matrix(1,0,0,-1,-164.74215,512.0935)"/>
<path style="fill-rule:evenodd;fill:rgb(98.4%,60.3%,60%);fill-opacity:1;stroke-width:0.8;stroke-linecap:round;stroke-linejoin:round;stroke:rgb(0%,0%,0%);stroke-opacity:1;stroke-miterlimit:10;" d="M 243.581994 398.081781 L 243.581994 382.480219 L 253.980431 382.480219 L 253.980431 398.081781 Z M 243.581994 398.081781 " transform="matrix(1,0,0,-1,-164.74215,512.0935)"/>
<path style="fill-rule:evenodd;fill:rgb(98.4%,60.3%,60%);fill-opacity:1;stroke-width:0.8;stroke-linecap:round;stroke-linejoin:round;stroke:rgb(0%,0%,0%);stroke-opacity:1;stroke-miterlimit:10;" d="M 201.980431 398.081781 L 201.980431 382.480219 L 212.382775 382.480219 L 212.382775 398.081781 Z M 201.980431 398.081781 " transform="matrix(1,0,0,-1,-164.74215,512.0935)"/>
<path style="fill:none;stroke-width:0.8;stroke-linecap:round;stroke-linejoin:round;stroke:rgb(0%,0%,0%);stroke-opacity:1;stroke-dasharray:0.01,1.6;stroke-miterlimit:10;" d="M 181.183556 442.281 L 373.581994 442.281 " transform="matrix(1,0,0,-1,-164.74215,512.0935)"/>
<path style="fill:none;stroke-width:0.8;stroke-linecap:round;stroke-linejoin:round;stroke:rgb(0%,0%,0%);stroke-opacity:1;stroke-dasharray:0.01,1.6;stroke-miterlimit:10;" d="M 181.183556 431.878656 L 373.581994 431.878656 " transform="matrix(1,0,0,-1,-164.74215,512.0935)"/>
<path style="fill:none;stroke-width:0.8;stroke-linecap:round;stroke-linejoin:round;stroke:rgb(0%,0%,0%);stroke-opacity:1;stroke-dasharray:0.01,1.6;stroke-miterlimit:10;" d="M 181.183556 421.480219 L 373.581994 421.480219 " transform="matrix(1,0,0,-1,-164.74215,512.0935)"/>
<path style="fill:none;stroke-width:0.8;stroke-linecap:round;stroke-linejoin:round;stroke:rgb(0%,0%,0%);stroke-opacity:1;stroke-dasharray:0.01,1.6;stroke-miterlimit:10;" d="M 181.183556 411.081781 L 373.581994 411.081781 " transform="matrix(1,0,0,-1,-164.74215,512.0935)"/>
<path style="fill:none;stroke-width:0.8;stroke-linecap:round;stroke-linejoin:round;stroke:rgb(0%,0%,0%);stroke-opacity:1;stroke-dasharray:0.01,1.6;stroke-miterlimit:10;" d="M 181.183556 400.679437 L 373.581994 400.679437 " transform="matrix(1,0,0,-1,-164.74215,512.0935)"/>
<path style="fill:none;stroke-width:0.8;stroke-linecap:round;stroke-linejoin:round;stroke:rgb(0%,0%,0%);stroke-opacity:1;stroke-dasharray:0.01,1.6;stroke-miterlimit:10;" d="M 181.183556 390.281 L 373.581994 390.281 " transform="matrix(1,0,0,-1,-164.74215,512.0935)"/>
<g style="fill:rgb(0%,0%,0%);fill-opacity:1;">
  <use xlink:href="#glyph2-1" x="212.63585" y="66.27055"/>
</g>
<g style="fill:rgb(0%,0%,0%);fill-opacity:1;">
  <use xlink:href="#glyph3-1" x="222.09985" y="77.51355"/>
</g>
<g style="fill:rgb(0%,0%,0%);fill-opacity:1;">
  <use xlink:href="#glyph4-2" x="228.23685" y="79.00755"/>
</g>
<g style="fill:rgb(0%,0%,0%);fill-opacity:1;">
  <use xlink:href="#glyph2-1" x="212.63585" y="107.8705"/>
</g>
<g style="fill:rgb(0%,0%,0%);fill-opacity:1;">
  <use xlink:href="#glyph3-1" x="222.09985" y="119.1135"/>
</g>
<g style="fill:rgb(0%,0%,0%);fill-opacity:1;">
  <use xlink:href="#glyph4-3" x="228.23685" y="120.6075"/>
</g>
<g style="fill:rgb(0%,0%,0%);fill-opacity:1;">
  <use xlink:href="#glyph5-1" x="164.38485" y="11.0191"/>
  <use xlink:href="#glyph5-2" x="167.762171" y="11.0191"/>
  <use xlink:href="#glyph5-2" x="169.336262" y="11.0191"/>
  <use xlink:href="#glyph5-2" x="170.910353" y="11.0191"/>
  <use xlink:href="#glyph5-2" x="172.484444" y="11.0191"/>
  <use xlink:href="#glyph5-3" x="173.600255" y="11.0191"/>
  <use xlink:href="#glyph5-2" x="178.621405" y="11.0191"/>
  <use xlink:href="#glyph5-2" x="180.195496" y="11.0191"/>
  <use xlink:href="#glyph5-2" x="181.769587" y="11.0191"/>
  <use xlink:href="#glyph5-2" x="183.343678" y="11.0191"/>
  <use xlink:href="#glyph5-4" x="184.459489" y="11.0191"/>
</g>
<g style="fill:rgb(0%,0%,0%);fill-opacity:1;">
  <use xlink:href="#glyph5-1" x="121.48485" y="11.0191"/>
  <use xlink:href="#glyph5-2" x="124.862171" y="11.0191"/>
  <use xlink:href="#glyph5-2" x="126.436262" y="11.0191"/>
  <use xlink:href="#glyph5-2" x="128.010353" y="11.0191"/>
  <use xlink:href="#glyph5-2" x="129.584444" y="11.0191"/>
  <use xlink:href="#glyph5-3" x="130.700255" y="11.0191"/>
  <use xlink:href="#glyph5-2" x="135.721405" y="11.0191"/>
  <use xlink:href="#glyph5-2" x="137.295496" y="11.0191"/>
  <use xlink:href="#glyph5-2" x="138.869587" y="11.0191"/>
  <use xlink:href="#glyph5-2" x="140.443678" y="11.0191"/>
  <use xlink:href="#glyph5-4" x="141.559489" y="11.0191"/>
</g>
<g style="fill:rgb(0%,0%,0%);fill-opacity:1;">
  <use xlink:href="#glyph5-1" x="36.98485" y="11.0191"/>
  <use xlink:href="#glyph5-2" x="40.362171" y="11.0191"/>
  <use xlink:href="#glyph5-2" x="41.936262" y="11.0191"/>
  <use xlink:href="#glyph5-2" x="43.510353" y="11.0191"/>
  <use xlink:href="#glyph5-2" x="45.084444" y="11.0191"/>
  <use xlink:href="#glyph5-3" x="46.200255" y="11.0191"/>
  <use xlink:href="#glyph5-2" x="51.221405" y="11.0191"/>
  <use xlink:href="#glyph5-2" x="52.795496" y="11.0191"/>
  <use xlink:href="#glyph5-2" x="54.369587" y="11.0191"/>
  <use xlink:href="#glyph5-2" x="55.943678" y="11.0191"/>
  <use xlink:href="#glyph5-4" x="57.059489" y="11.0191"/>
</g>
<g style="fill:rgb(0%,0%,0%);fill-opacity:1;">
  <use xlink:href="#glyph5-1" x="79.88485" y="11.0191"/>
  <use xlink:href="#glyph5-2" x="83.262171" y="11.0191"/>
  <use xlink:href="#glyph5-2" x="84.836262" y="11.0191"/>
  <use xlink:href="#glyph5-2" x="86.410353" y="11.0191"/>
  <use xlink:href="#glyph5-2" x="87.984444" y="11.0191"/>
  <use xlink:href="#glyph5-3" x="89.100255" y="11.0191"/>
  <use xlink:href="#glyph5-2" x="94.121405" y="11.0191"/>
  <use xlink:href="#glyph5-2" x="95.695496" y="11.0191"/>
  <use xlink:href="#glyph5-2" x="97.269587" y="11.0191"/>
  <use xlink:href="#glyph5-2" x="98.843678" y="11.0191"/>
  <use xlink:href="#glyph5-4" x="99.959489" y="11.0191"/>
</g>
<g style="fill:rgb(0%,0%,0%);fill-opacity:1;">
  <use xlink:href="#glyph6-1" x="107.35995" y="144.3035"/>
</g>
<path style="fill:none;stroke-width:0.4;stroke-linecap:round;stroke-linejoin:round;stroke:rgb(0%,0%,0%);stroke-opacity:1;stroke-miterlimit:10;" d="M 175.980431 491.679437 L 175.980431 382.480219 " transform="matrix(1,0,0,-1,-164.74215,512.0935)"/>
<path style="fill-rule:evenodd;fill:rgb(0%,0%,0%);fill-opacity:1;stroke-width:0.4;stroke-linecap:round;stroke-linejoin:round;stroke:rgb(0%,0%,0%);stroke-opacity:1;stroke-miterlimit:10;" d="M 175.980431 382.480219 L 178.312463 389.480219 L 173.652306 389.480219 Z M 175.980431 382.480219 " transform="matrix(1,0,0,-1,-164.74215,512.0935)"/>
<path style="fill-rule:evenodd;fill:rgb(0%,0%,0%);fill-opacity:1;stroke-width:0.4;stroke-linecap:round;stroke-linejoin:round;stroke:rgb(0%,0%,0%);stroke-opacity:1;stroke-miterlimit:10;" d="M 175.980431 491.679437 L 173.652306 484.679437 L 178.312463 484.679437 Z M 175.980431 491.679437 " transform="matrix(1,0,0,-1,-164.74215,512.0935)"/>
<g style="fill:rgb(0%,0%,0%);fill-opacity:1;">
  <use xlink:href="#glyph6-2" x="1" y="78.266"/>
</g>
</g>
</svg>
