<?xml version="1.0" encoding="UTF-8"?>
<svg xmlns="http://www.w3.org/2000/svg" xmlns:xlink="http://www.w3.org/1999/xlink" width="152pt" height="67pt" viewBox="0 0 152 67" version="1.1">
<defs>
<g>
<symbol overflow="visible" id="glyph0-0">
<path style="stroke:none;" d="M 0.5 -6.015625 L 2.1875 -3.484375 L 0.5 -0.953125 Z M 0.796875 -0.5 L 2.5 -3.03125 L 4.1875 -0.5 Z M 2.796875 -3.484375 L 4.484375 -6.015625 L 4.484375 -0.953125 Z M 2.5 -3.921875 L 0.796875 -6.453125 L 4.1875 -6.453125 Z M 0 0 L 4.984375 0 L 4.984375 -6.953125 L 0 -6.953125 Z M 0 0 "/>
</symbol>
<symbol overflow="visible" id="glyph0-1">
<path style="stroke:none;" d="M 6.125 -5.828125 L 5.703125 -5.828125 L 3.734375 -2.15625 L 3.359375 -1.515625 L 3.296875 -2.171875 L 2.953125 -5.703125 L 2.953125 -5.734375 C 2.953125 -6.046875 3.3125 -6.140625 3.65625 -6.15625 C 3.6875 -6.1875 3.703125 -6.25 3.703125 -6.296875 C 3.703125 -6.359375 3.6875 -6.421875 3.65625 -6.453125 C 3.328125 -6.4375 2.828125 -6.4375 2.46875 -6.4375 C 2.140625 -6.4375 1.75 -6.4375 1.390625 -6.453125 C 1.359375 -6.421875 1.34375 -6.359375 1.34375 -6.296875 C 1.34375 -6.25 1.359375 -6.1875 1.390625 -6.15625 C 1.859375 -6.078125 2.109375 -5.984375 2.15625 -5.4375 L 2.765625 -0.125 C 2.78125 0.046875 2.796875 0.09375 2.90625 0.09375 C 2.984375 0.09375 3.015625 0.0625 3.109375 -0.125 L 5.0625 -3.6875 C 5.21875 -3.953125 5.359375 -4.25 5.4375 -4.359375 C 5.4375 -4.359375 5.46875 -4.359375 5.484375 -4.328125 C 5.5 -4.109375 5.53125 -4 5.578125 -3.65625 L 5.984375 -0.125 C 6.015625 0.0625 6.078125 0.09375 6.15625 0.09375 C 6.234375 0.09375 6.265625 0.0625 6.375 -0.109375 L 9.375 -5.515625 C 9.5625 -5.84375 9.796875 -6.09375 10.328125 -6.15625 C 10.359375 -6.1875 10.375 -6.25 10.375 -6.296875 C 10.375 -6.359375 10.359375 -6.421875 10.328125 -6.453125 C 10 -6.4375 9.609375 -6.4375 9.34375 -6.4375 C 9.09375 -6.4375 8.625 -6.4375 8.21875 -6.453125 C 8.1875 -6.421875 8.1875 -6.359375 8.1875 -6.296875 C 8.1875 -6.25 8.1875 -6.1875 8.21875 -6.15625 C 8.625 -6.125 8.921875 -6.03125 8.921875 -5.796875 C 8.921875 -5.734375 8.90625 -5.671875 8.859375 -5.59375 C 8.109375 -4.21875 7.359375 -2.84375 6.625 -1.453125 C 6.46875 -2.84375 6.28125 -4.453125 6.125 -5.828125 Z M 6.125 -5.828125 "/>
</symbol>
<symbol overflow="visible" id="glyph0-2">
<path style="stroke:none;" d="M 6.015625 -5.671875 L 5.609375 -3.625 L 2.5 -3.625 L 2.890625 -5.671875 C 2.953125 -5.953125 3.09375 -6.09375 3.515625 -6.125 L 3.8125 -6.15625 C 3.859375 -6.203125 3.875 -6.359375 3.84375 -6.453125 C 3.390625 -6.4375 3.03125 -6.4375 2.640625 -6.4375 C 2.265625 -6.4375 1.8125 -6.4375 1.375 -6.453125 C 1.34375 -6.40625 1.3125 -6.203125 1.34375 -6.15625 L 1.6875 -6.125 C 2 -6.09375 2.140625 -6.015625 2.140625 -5.796875 C 2.140625 -5.765625 2.140625 -5.71875 2.125 -5.671875 L 1.15625 -0.75 C 1.09375 -0.484375 0.953125 -0.34375 0.53125 -0.296875 L 0.234375 -0.265625 C 0.1875 -0.234375 0.171875 -0.0625 0.203125 0.015625 C 0.65625 0.015625 1.015625 0 1.40625 0 C 1.78125 0 2.234375 0.015625 2.671875 0.015625 C 2.703125 -0.015625 2.734375 -0.21875 2.703125 -0.265625 L 2.359375 -0.296875 C 2.046875 -0.328125 1.90625 -0.421875 1.90625 -0.625 C 1.90625 -0.65625 1.90625 -0.703125 1.921875 -0.75 L 2.40625 -3.203125 L 5.515625 -3.203125 L 5.046875 -0.75 C 4.984375 -0.484375 4.828125 -0.34375 4.421875 -0.296875 L 4.109375 -0.265625 C 4.078125 -0.234375 4.0625 -0.0625 4.09375 0.015625 C 4.546875 0.015625 4.90625 0 5.296875 0 C 5.671875 0 6.125 0.015625 6.5625 0.015625 C 6.59375 -0.015625 6.625 -0.21875 6.59375 -0.265625 L 6.25 -0.296875 C 5.9375 -0.328125 5.796875 -0.421875 5.796875 -0.625 C 5.796875 -0.65625 5.796875 -0.703125 5.8125 -0.75 L 6.78125 -5.671875 C 6.84375 -5.953125 6.984375 -6.09375 7.390625 -6.125 L 7.703125 -6.15625 C 7.75 -6.203125 7.765625 -6.359375 7.71875 -6.453125 C 7.28125 -6.4375 6.921875 -6.4375 6.53125 -6.4375 C 6.15625 -6.4375 5.703125 -6.4375 5.265625 -6.453125 C 5.234375 -6.40625 5.203125 -6.203125 5.234375 -6.15625 L 5.578125 -6.125 C 5.890625 -6.09375 6.015625 -6.015625 6.015625 -5.796875 C 6.015625 -5.765625 6.015625 -5.71875 6.015625 -5.671875 Z M 6.015625 -5.671875 "/>
</symbol>
</g>
</defs>
<g id="surface1">
<path style="fill-rule:evenodd;fill:rgb(94.1%,94.1%,94.1%);fill-opacity:1;stroke-width:0.8;stroke-linecap:round;stroke-linejoin:round;stroke:rgb(0%,0%,0%);stroke-opacity:1;stroke-miterlimit:10;" d="M 80.001406 784.000313 L 80.001406 776.000313 L 112.001406 776.000313 L 112.001406 784.000313 Z M 80.001406 784.000313 " transform="matrix(1,0,0,-1,-61.06,810.555)"/>
<path style="fill-rule:evenodd;fill:rgb(94.1%,94.1%,94.1%);fill-opacity:1;stroke-width:0.8;stroke-linecap:round;stroke-linejoin:round;stroke:rgb(0%,0%,0%);stroke-opacity:1;stroke-miterlimit:10;" d="M 112.001406 792.000313 L 112.001406 768.000313 L 120.001406 768.000313 L 120.001406 792.000313 Z M 112.001406 792.000313 " transform="matrix(1,0,0,-1,-61.06,810.555)"/>
<path style="fill-rule:evenodd;fill:rgb(94.1%,94.1%,94.1%);fill-opacity:1;stroke-width:0.8;stroke-linecap:round;stroke-linejoin:round;stroke:rgb(0%,0%,0%);stroke-opacity:1;stroke-miterlimit:10;" d="M 80.001406 768.000313 L 80.001406 744.000313 L 88.001406 744.000313 L 88.001406 768.000313 Z M 80.001406 768.000313 " transform="matrix(1,0,0,-1,-61.06,810.555)"/>
<path style="fill-rule:evenodd;fill:rgb(94.1%,94.1%,94.1%);fill-opacity:1;stroke-width:0.8;stroke-linecap:round;stroke-linejoin:round;stroke:rgb(0%,0%,0%);stroke-opacity:1;stroke-miterlimit:10;" d="M 88.001406 760.000313 L 88.001406 752.000313 L 120.001406 752.000313 L 120.001406 760.000313 Z M 88.001406 760.000313 " transform="matrix(1,0,0,-1,-61.06,810.555)"/>
<path style="fill-rule:evenodd;fill:rgb(94.1%,94.1%,94.1%);fill-opacity:1;stroke-width:0.8;stroke-linecap:round;stroke-linejoin:round;stroke:rgb(0%,0%,0%);stroke-opacity:1;stroke-miterlimit:10;" d="M 168.001406 792.000313 L 168.001406 784.000313 L 200.001406 784.000313 L 200.001406 792.000313 Z M 168.001406 792.000313 " transform="matrix(1,0,0,-1,-61.06,810.555)"/>
<path style="fill-rule:evenodd;fill:rgb(94.1%,94.1%,94.1%);fill-opacity:1;stroke-width:0.8;stroke-linecap:round;stroke-linejoin:round;stroke:rgb(0%,0%,0%);stroke-opacity:1;stroke-miterlimit:10;" d="M 168.001406 784.000313 L 168.001406 760.000313 L 176.001406 760.000313 L 176.001406 784.000313 Z M 168.001406 784.000313 " transform="matrix(1,0,0,-1,-61.06,810.555)"/>
<path style="fill-rule:evenodd;fill:rgb(94.1%,94.1%,94.1%);fill-opacity:1;stroke-width:0.8;stroke-linecap:round;stroke-linejoin:round;stroke:rgb(0%,0%,0%);stroke-opacity:1;stroke-miterlimit:10;" d="M 176.001406 784.000313 L 176.001406 760.000313 L 184.001406 760.000313 L 184.001406 784.000313 Z M 176.001406 784.000313 " transform="matrix(1,0,0,-1,-61.06,810.555)"/>
<path style="fill-rule:evenodd;fill:rgb(94.1%,94.1%,94.1%);fill-opacity:1;stroke-width:0.8;stroke-linecap:round;stroke-linejoin:round;stroke:rgb(0%,0%,0%);stroke-opacity:1;stroke-miterlimit:10;" d="M 168.001406 760.000313 L 168.001406 752.000313 L 200.001406 752.000313 L 200.001406 760.000313 Z M 168.001406 760.000313 " transform="matrix(1,0,0,-1,-61.06,810.555)"/>
<path style="fill:none;stroke-width:0.4;stroke-linecap:round;stroke-linejoin:round;stroke:rgb(0%,0%,0%);stroke-opacity:1;stroke-miterlimit:10;" d="M 80.001406 800.000313 L 124.001406 800.000313 " transform="matrix(1,0,0,-1,-61.06,810.555)"/>
<path style="fill-rule:evenodd;fill:rgb(0%,0%,0%);fill-opacity:1;stroke-width:0.4;stroke-linecap:round;stroke-linejoin:round;stroke:rgb(0%,0%,0%);stroke-opacity:1;stroke-miterlimit:10;" d="M 124.001406 800.000313 L 119.001406 801.664375 L 119.001406 798.33625 Z M 124.001406 800.000313 " transform="matrix(1,0,0,-1,-61.06,810.555)"/>
<path style="fill-rule:evenodd;fill:rgb(0%,0%,0%);fill-opacity:1;stroke-width:0.4;stroke-linecap:round;stroke-linejoin:round;stroke:rgb(0%,0%,0%);stroke-opacity:1;stroke-miterlimit:10;" d="M 80.001406 800.000313 L 85.001406 798.33625 L 85.001406 801.664375 Z M 80.001406 800.000313 " transform="matrix(1,0,0,-1,-61.06,810.555)"/>
<g style="fill:rgb(0%,0%,0%);fill-opacity:1;">
  <use xlink:href="#glyph0-1" x="35.66" y="7.545"/>
</g>
<path style="fill:none;stroke-width:0.4;stroke-linecap:round;stroke-linejoin:round;stroke:rgb(0%,0%,0%);stroke-opacity:1;stroke-miterlimit:10;" d="M 168.001406 800.000313 L 212.001406 800.000313 " transform="matrix(1,0,0,-1,-61.06,810.555)"/>
<path style="fill-rule:evenodd;fill:rgb(0%,0%,0%);fill-opacity:1;stroke-width:0.4;stroke-linecap:round;stroke-linejoin:round;stroke:rgb(0%,0%,0%);stroke-opacity:1;stroke-miterlimit:10;" d="M 212.001406 800.000313 L 207.001406 801.664375 L 207.001406 798.33625 Z M 212.001406 800.000313 " transform="matrix(1,0,0,-1,-61.06,810.555)"/>
<path style="fill-rule:evenodd;fill:rgb(0%,0%,0%);fill-opacity:1;stroke-width:0.4;stroke-linecap:round;stroke-linejoin:round;stroke:rgb(0%,0%,0%);stroke-opacity:1;stroke-miterlimit:10;" d="M 168.001406 800.000313 L 173.001406 798.33625 L 173.001406 801.664375 Z M 168.001406 800.000313 " transform="matrix(1,0,0,-1,-61.06,810.555)"/>
<g style="fill:rgb(0%,0%,0%);fill-opacity:1;">
  <use xlink:href="#glyph0-1" x="123.66" y="7.545"/>
</g>
<path style="fill:none;stroke-width:0.8;stroke-linecap:round;stroke-linejoin:round;stroke:rgb(0%,0%,0%);stroke-opacity:1;stroke-dasharray:0.01,1.6;stroke-miterlimit:10;" d="M 168.001406 772.000313 L 212.001406 772.000313 " transform="matrix(1,0,0,-1,-61.06,810.555)"/>
<path style="fill:none;stroke-width:0.8;stroke-linecap:round;stroke-linejoin:round;stroke:rgb(0%,0%,0%);stroke-opacity:1;stroke-dasharray:0.01,1.6;stroke-miterlimit:10;" d="M 168.001406 756.000313 L 212.001406 756.000313 " transform="matrix(1,0,0,-1,-61.06,810.555)"/>
<path style="fill:none;stroke-width:0.8;stroke-linecap:round;stroke-linejoin:round;stroke:rgb(0%,0%,0%);stroke-opacity:1;stroke-dasharray:0.01,1.6;stroke-miterlimit:10;" d="M 80.001406 780.000313 L 124.001406 780.000313 " transform="matrix(1,0,0,-1,-61.06,810.555)"/>
<path style="fill:none;stroke-width:0.8;stroke-linecap:round;stroke-linejoin:round;stroke:rgb(0%,0%,0%);stroke-opacity:1;stroke-dasharray:0.01,1.6;stroke-miterlimit:10;" d="M 80.001406 756.000313 L 124.001406 756.000313 " transform="matrix(1,0,0,-1,-61.06,810.555)"/>
<path style="fill:none;stroke-width:0.8;stroke-linecap:round;stroke-linejoin:round;stroke:rgb(0%,0%,0%);stroke-opacity:1;stroke-dasharray:0.01,1.6;stroke-miterlimit:10;" d="M 168.001406 788.000313 L 212.001406 788.000313 " transform="matrix(1,0,0,-1,-61.06,810.555)"/>
<path style="fill:none;stroke-width:0.4;stroke-linecap:round;stroke-linejoin:round;stroke:rgb(0%,0%,0%);stroke-opacity:1;stroke-miterlimit:10;" d="M 72.001406 792.000313 L 72.001406 744.000313 " transform="matrix(1,0,0,-1,-61.06,810.555)"/>
<path style="fill-rule:evenodd;fill:rgb(0%,0%,0%);fill-opacity:1;stroke-width:0.4;stroke-linecap:round;stroke-linejoin:round;stroke:rgb(0%,0%,0%);stroke-opacity:1;stroke-miterlimit:10;" d="M 72.001406 744.000313 L 73.665469 749.000313 L 70.333438 749.000313 Z M 72.001406 744.000313 " transform="matrix(1,0,0,-1,-61.06,810.555)"/>
<path style="fill-rule:evenodd;fill:rgb(0%,0%,0%);fill-opacity:1;stroke-width:0.4;stroke-linecap:round;stroke-linejoin:round;stroke:rgb(0%,0%,0%);stroke-opacity:1;stroke-miterlimit:10;" d="M 72.001406 792.000313 L 70.333438 787.000313 L 73.665469 787.000313 Z M 72.001406 792.000313 " transform="matrix(1,0,0,-1,-61.06,810.555)"/>
<path style="fill:none;stroke-width:0.4;stroke-linecap:round;stroke-linejoin:round;stroke:rgb(0%,0%,0%);stroke-opacity:1;stroke-miterlimit:10;" d="M 160.001406 792.000313 L 160.001406 752.000313 " transform="matrix(1,0,0,-1,-61.06,810.555)"/>
<path style="fill-rule:evenodd;fill:rgb(0%,0%,0%);fill-opacity:1;stroke-width:0.4;stroke-linecap:round;stroke-linejoin:round;stroke:rgb(0%,0%,0%);stroke-opacity:1;stroke-miterlimit:10;" d="M 160.001406 752.000313 L 161.665469 757.000313 L 158.333438 757.000313 Z M 160.001406 752.000313 " transform="matrix(1,0,0,-1,-61.06,810.555)"/>
<path style="fill-rule:evenodd;fill:rgb(0%,0%,0%);fill-opacity:1;stroke-width:0.4;stroke-linecap:round;stroke-linejoin:round;stroke:rgb(0%,0%,0%);stroke-opacity:1;stroke-miterlimit:10;" d="M 160.001406 792.000313 L 158.333438 787.000313 L 161.665469 787.000313 Z M 160.001406 792.000313 " transform="matrix(1,0,0,-1,-61.06,810.555)"/>
<g style="fill:rgb(0%,0%,0%);fill-opacity:1;">
  <use xlink:href="#glyph0-2" x="1" y="45.8075"/>
</g>
<g style="fill:rgb(0%,0%,0%);fill-opacity:1;">
  <use xlink:href="#glyph0-2" x="89" y="41.8075"/>
</g>
</g>
</svg>
