<?xml version="1.0" encoding="UTF-8"?>
<svg xmlns="http://www.w3.org/2000/svg" xmlns:xlink="http://www.w3.org/1999/xlink" width="175pt" height="103pt" viewBox="0 0 175 103" version="1.1">
<defs>
<linearGradient id="linear0" gradientUnits="userSpaceOnUse" x1="276" y1="632" x2="276" y2="624" gradientTransform="matrix(-1,0,0,-1,367.799,726.5)">
<stop offset="0" style="stop-color:rgb(0%,0%,0%);stop-opacity:1;"/>
<stop offset="1" style="stop-color:rgb(100%,100%,100%);stop-opacity:1;"/>
</linearGradient>
</defs>
<g id="surface1">
<path style="fill:none;stroke-width:0.8;stroke-linecap:round;stroke-linejoin:round;stroke:rgb(12.9%,55.7%,98.8%);stroke-opacity:1;stroke-dasharray:0.01,1.6;stroke-miterlimit:10;" d="M 169.999437 716 L 176.198656 716 " transform="matrix(1,0,0,-1,-156.601,726.5)"/>
<path style="fill:none;stroke-width:0.8;stroke-linecap:round;stroke-linejoin:round;stroke:rgb(12.9%,55.7%,98.8%);stroke-opacity:1;stroke-dasharray:0.01,1.6;stroke-miterlimit:10;" d="M 169.999437 704 L 184.198656 704 " transform="matrix(1,0,0,-1,-156.601,726.5)"/>
<path style="fill:none;stroke-width:0.8;stroke-linecap:round;stroke-linejoin:round;stroke:rgb(12.9%,55.7%,98.8%);stroke-opacity:1;stroke-miterlimit:10;" d="M 169.999437 716 L 169.999437 704 " transform="matrix(1,0,0,-1,-156.601,726.5)"/>
<path style="fill-rule:evenodd;fill:rgb(12.9%,55.7%,98.8%);fill-opacity:1;stroke-width:0.8;stroke-linecap:round;stroke-linejoin:round;stroke:rgb(12.9%,55.7%,98.8%);stroke-opacity:1;stroke-miterlimit:10;" d="M 169.999437 704 L 170.999437 707 L 168.999437 707 Z M 169.999437 704 " transform="matrix(1,0,0,-1,-156.601,726.5)"/>
<path style="fill-rule:evenodd;fill:rgb(12.9%,55.7%,98.8%);fill-opacity:1;stroke-width:0.8;stroke-linecap:round;stroke-linejoin:round;stroke:rgb(12.9%,55.7%,98.8%);stroke-opacity:1;stroke-miterlimit:10;" d="M 169.999437 716 L 168.999437 713 L 170.999437 713 Z M 169.999437 716 " transform="matrix(1,0,0,-1,-156.601,726.5)"/>
<path style="fill:none;stroke-width:0.8;stroke-linecap:round;stroke-linejoin:round;stroke:rgb(12.9%,55.7%,98.8%);stroke-opacity:1;stroke-dasharray:0.01,1.6;stroke-miterlimit:10;" d="M 177.999437 700 L 199.999437 700 " transform="matrix(1,0,0,-1,-156.601,726.5)"/>
<path style="fill:none;stroke-width:0.8;stroke-linecap:round;stroke-linejoin:round;stroke:rgb(12.9%,55.7%,98.8%);stroke-opacity:1;stroke-dasharray:0.01,1.6;stroke-miterlimit:10;" d="M 177.999437 684 L 192.198656 684 " transform="matrix(1,0,0,-1,-156.601,726.5)"/>
<path style="fill:none;stroke-width:0.8;stroke-linecap:round;stroke-linejoin:round;stroke:rgb(12.9%,55.7%,98.8%);stroke-opacity:1;stroke-miterlimit:10;" d="M 177.999437 700 L 177.999437 684 " transform="matrix(1,0,0,-1,-156.601,726.5)"/>
<path style="fill-rule:evenodd;fill:rgb(12.9%,55.7%,98.8%);fill-opacity:1;stroke-width:0.8;stroke-linecap:round;stroke-linejoin:round;stroke:rgb(12.9%,55.7%,98.8%);stroke-opacity:1;stroke-miterlimit:10;" d="M 177.999437 684 L 178.999437 687 L 176.999437 687 Z M 177.999437 684 " transform="matrix(1,0,0,-1,-156.601,726.5)"/>
<path style="fill-rule:evenodd;fill:rgb(12.9%,55.7%,98.8%);fill-opacity:1;stroke-width:0.8;stroke-linecap:round;stroke-linejoin:round;stroke:rgb(12.9%,55.7%,98.8%);stroke-opacity:1;stroke-miterlimit:10;" d="M 177.999437 700 L 176.999437 697 L 178.999437 697 Z M 177.999437 700 " transform="matrix(1,0,0,-1,-156.601,726.5)"/>
<path style="fill:none;stroke-width:0.8;stroke-linecap:round;stroke-linejoin:round;stroke:rgb(12.9%,55.7%,98.8%);stroke-opacity:1;stroke-dasharray:0.01,1.6;stroke-miterlimit:10;" d="M 205.999437 702 L 228.198656 702 " transform="matrix(1,0,0,-1,-156.601,726.5)"/>
<path style="fill:none;stroke-width:0.8;stroke-linecap:round;stroke-linejoin:round;stroke:rgb(12.9%,55.7%,98.8%);stroke-opacity:1;stroke-dasharray:0.01,1.6;stroke-miterlimit:10;" d="M 205.999437 688 L 220.198656 688 " transform="matrix(1,0,0,-1,-156.601,726.5)"/>
<path style="fill:none;stroke-width:0.8;stroke-linecap:round;stroke-linejoin:round;stroke:rgb(12.9%,55.7%,98.8%);stroke-opacity:1;stroke-miterlimit:10;" d="M 205.999437 702 L 205.999437 688 " transform="matrix(1,0,0,-1,-156.601,726.5)"/>
<path style="fill-rule:evenodd;fill:rgb(12.9%,55.7%,98.8%);fill-opacity:1;stroke-width:0.8;stroke-linecap:round;stroke-linejoin:round;stroke:rgb(12.9%,55.7%,98.8%);stroke-opacity:1;stroke-miterlimit:10;" d="M 205.999437 688 L 206.999437 691 L 204.999437 691 Z M 205.999437 688 " transform="matrix(1,0,0,-1,-156.601,726.5)"/>
<path style="fill-rule:evenodd;fill:rgb(12.9%,55.7%,98.8%);fill-opacity:1;stroke-width:0.8;stroke-linecap:round;stroke-linejoin:round;stroke:rgb(12.9%,55.7%,98.8%);stroke-opacity:1;stroke-miterlimit:10;" d="M 205.999437 702 L 204.999437 699 L 206.999437 699 Z M 205.999437 702 " transform="matrix(1,0,0,-1,-156.601,726.5)"/>
<path style="fill:none;stroke-width:0.8;stroke-linecap:round;stroke-linejoin:round;stroke:rgb(12.9%,55.7%,98.8%);stroke-opacity:1;stroke-dasharray:0.01,1.6;stroke-miterlimit:10;" d="M 163.999437 712 L 212.198656 712 " transform="matrix(1,0,0,-1,-156.601,726.5)"/>
<path style="fill:none;stroke-width:0.8;stroke-linecap:round;stroke-linejoin:round;stroke:rgb(12.9%,55.7%,98.8%);stroke-opacity:1;stroke-miterlimit:10;" d="M 163.999437 712 L 163.999437 668 " transform="matrix(1,0,0,-1,-156.601,726.5)"/>
<path style="fill-rule:evenodd;fill:rgb(12.9%,55.7%,98.8%);fill-opacity:1;stroke-width:0.8;stroke-linecap:round;stroke-linejoin:round;stroke:rgb(12.9%,55.7%,98.8%);stroke-opacity:1;stroke-miterlimit:10;" d="M 163.999437 668 L 164.999437 671 L 162.999437 671 Z M 163.999437 668 " transform="matrix(1,0,0,-1,-156.601,726.5)"/>
<path style="fill-rule:evenodd;fill:rgb(12.9%,55.7%,98.8%);fill-opacity:1;stroke-width:0.8;stroke-linecap:round;stroke-linejoin:round;stroke:rgb(12.9%,55.7%,98.8%);stroke-opacity:1;stroke-miterlimit:10;" d="M 163.999437 712 L 162.999437 709 L 164.999437 709 Z M 163.999437 712 " transform="matrix(1,0,0,-1,-156.601,726.5)"/>
<path style="fill:none;stroke-width:0.8;stroke-linecap:round;stroke-linejoin:round;stroke:rgb(12.9%,55.7%,98.8%);stroke-opacity:1;stroke-dasharray:0.01,1.6;stroke-miterlimit:10;" d="M 163.999437 668 L 206.198656 668 " transform="matrix(1,0,0,-1,-156.601,726.5)"/>
<path style="fill:none;stroke-width:0.8;stroke-linecap:round;stroke-linejoin:round;stroke:rgb(12.9%,55.7%,98.8%);stroke-opacity:1;stroke-miterlimit:10;" d="M 241.999437 672 L 241.999437 664 " transform="matrix(1,0,0,-1,-156.601,726.5)"/>
<path style="fill-rule:evenodd;fill:rgb(12.9%,55.7%,98.8%);fill-opacity:1;stroke-width:0.8;stroke-linecap:round;stroke-linejoin:round;stroke:rgb(12.9%,55.7%,98.8%);stroke-opacity:1;stroke-miterlimit:10;" d="M 241.999437 664 L 242.999437 667 L 240.999437 667 Z M 241.999437 664 " transform="matrix(1,0,0,-1,-156.601,726.5)"/>
<path style="fill-rule:evenodd;fill:rgb(12.9%,55.7%,98.8%);fill-opacity:1;stroke-width:0.8;stroke-linecap:round;stroke-linejoin:round;stroke:rgb(12.9%,55.7%,98.8%);stroke-opacity:1;stroke-miterlimit:10;" d="M 241.999437 672 L 240.999437 669 L 242.999437 669 Z M 241.999437 672 " transform="matrix(1,0,0,-1,-156.601,726.5)"/>
<path style="fill:none;stroke-width:0.8;stroke-linecap:round;stroke-linejoin:round;stroke:rgb(12.9%,55.7%,98.8%);stroke-opacity:1;stroke-dasharray:0.01,1.6;stroke-miterlimit:10;" d="M 241.999437 672 L 247.198656 672 " transform="matrix(1,0,0,-1,-156.601,726.5)"/>
<path style="fill:none;stroke-width:0.8;stroke-linecap:round;stroke-linejoin:round;stroke:rgb(12.9%,55.7%,98.8%);stroke-opacity:1;stroke-dasharray:0.01,1.6;stroke-miterlimit:10;" d="M 241.999437 664 L 261.198656 664 " transform="matrix(1,0,0,-1,-156.601,726.5)"/>
<path style="fill:none;stroke-width:0.8;stroke-linecap:round;stroke-linejoin:round;stroke:rgb(12.9%,55.7%,98.8%);stroke-opacity:1;stroke-dasharray:0.01,1.6;stroke-miterlimit:10;" d="M 259.999437 696 L 267.198656 696 " transform="matrix(1,0,0,-1,-156.601,726.5)"/>
<path style="fill:none;stroke-width:0.8;stroke-linecap:round;stroke-linejoin:round;stroke:rgb(12.9%,55.7%,98.8%);stroke-opacity:1;stroke-dasharray:0.01,1.6;stroke-miterlimit:10;" d="M 259.999437 680 L 275.198656 680 " transform="matrix(1,0,0,-1,-156.601,726.5)"/>
<path style="fill:none;stroke-width:0.8;stroke-linecap:round;stroke-linejoin:round;stroke:rgb(12.9%,55.7%,98.8%);stroke-opacity:1;stroke-miterlimit:10;" d="M 259.999437 696 L 259.999437 680 " transform="matrix(1,0,0,-1,-156.601,726.5)"/>
<path style="fill-rule:evenodd;fill:rgb(12.9%,55.7%,98.8%);fill-opacity:1;stroke-width:0.8;stroke-linecap:round;stroke-linejoin:round;stroke:rgb(12.9%,55.7%,98.8%);stroke-opacity:1;stroke-miterlimit:10;" d="M 259.999437 680 L 260.999437 683 L 258.999437 683 Z M 259.999437 680 " transform="matrix(1,0,0,-1,-156.601,726.5)"/>
<path style="fill-rule:evenodd;fill:rgb(12.9%,55.7%,98.8%);fill-opacity:1;stroke-width:0.8;stroke-linecap:round;stroke-linejoin:round;stroke:rgb(12.9%,55.7%,98.8%);stroke-opacity:1;stroke-miterlimit:10;" d="M 259.999437 696 L 258.999437 693 L 260.999437 693 Z M 259.999437 696 " transform="matrix(1,0,0,-1,-156.601,726.5)"/>
<path style="fill:none;stroke-width:0.8;stroke-linecap:round;stroke-linejoin:round;stroke:rgb(12.9%,55.7%,98.8%);stroke-opacity:1;stroke-dasharray:0.01,1.6;stroke-miterlimit:10;" d="M 267.999437 712 L 275.198656 712 " transform="matrix(1,0,0,-1,-156.601,726.5)"/>
<path style="fill:none;stroke-width:0.8;stroke-linecap:round;stroke-linejoin:round;stroke:rgb(12.9%,55.7%,98.8%);stroke-opacity:1;stroke-dasharray:0.01,1.6;stroke-miterlimit:10;" d="M 267.999437 704 L 283.198656 704 " transform="matrix(1,0,0,-1,-156.601,726.5)"/>
<path style="fill:none;stroke-width:0.8;stroke-linecap:round;stroke-linejoin:round;stroke:rgb(12.9%,55.7%,98.8%);stroke-opacity:1;stroke-miterlimit:10;" d="M 267.999437 712 L 267.999437 704 " transform="matrix(1,0,0,-1,-156.601,726.5)"/>
<path style="fill-rule:evenodd;fill:rgb(12.9%,55.7%,98.8%);fill-opacity:1;stroke-width:0.8;stroke-linecap:round;stroke-linejoin:round;stroke:rgb(12.9%,55.7%,98.8%);stroke-opacity:1;stroke-miterlimit:10;" d="M 267.999437 704 L 268.999437 707 L 266.999437 707 Z M 267.999437 704 " transform="matrix(1,0,0,-1,-156.601,726.5)"/>
<path style="fill-rule:evenodd;fill:rgb(12.9%,55.7%,98.8%);fill-opacity:1;stroke-width:0.8;stroke-linecap:round;stroke-linejoin:round;stroke:rgb(12.9%,55.7%,98.8%);stroke-opacity:1;stroke-miterlimit:10;" d="M 267.999437 712 L 266.999437 709 L 268.999437 709 Z M 267.999437 712 " transform="matrix(1,0,0,-1,-156.601,726.5)"/>
<path style="fill:none;stroke-width:0.8;stroke-linecap:round;stroke-linejoin:round;stroke:rgb(12.9%,55.7%,98.8%);stroke-opacity:1;stroke-miterlimit:10;" d="M 301.999437 696 L 301.999437 684 " transform="matrix(1,0,0,-1,-156.601,726.5)"/>
<path style="fill-rule:evenodd;fill:rgb(12.9%,55.7%,98.8%);fill-opacity:1;stroke-width:0.8;stroke-linecap:round;stroke-linejoin:round;stroke:rgb(12.9%,55.7%,98.8%);stroke-opacity:1;stroke-miterlimit:10;" d="M 301.999437 684 L 302.999437 687 L 300.999437 687 Z M 301.999437 684 " transform="matrix(1,0,0,-1,-156.601,726.5)"/>
<path style="fill-rule:evenodd;fill:rgb(12.9%,55.7%,98.8%);fill-opacity:1;stroke-width:0.8;stroke-linecap:round;stroke-linejoin:round;stroke:rgb(12.9%,55.7%,98.8%);stroke-opacity:1;stroke-miterlimit:10;" d="M 301.999437 696 L 300.999437 693 L 302.999437 693 Z M 301.999437 696 " transform="matrix(1,0,0,-1,-156.601,726.5)"/>
<path style="fill:none;stroke-width:0.8;stroke-linecap:round;stroke-linejoin:round;stroke:rgb(12.9%,55.7%,98.8%);stroke-opacity:1;stroke-dasharray:0.01,1.6;stroke-miterlimit:10;" d="M 301.999437 696 L 308.198656 696 " transform="matrix(1,0,0,-1,-156.601,726.5)"/>
<path style="fill:none;stroke-width:0.8;stroke-linecap:round;stroke-linejoin:round;stroke:rgb(12.9%,55.7%,98.8%);stroke-opacity:1;stroke-dasharray:0.01,1.6;stroke-miterlimit:10;" d="M 301.999437 684 L 316.198656 684 " transform="matrix(1,0,0,-1,-156.601,726.5)"/>
<path style="fill:none;stroke-width:0.8;stroke-linecap:round;stroke-linejoin:round;stroke:rgb(12.9%,55.7%,98.8%);stroke-opacity:1;stroke-dasharray:0.01,1.6;stroke-miterlimit:10;" d="M 289.999437 692 L 296.198656 692 " transform="matrix(1,0,0,-1,-156.601,726.5)"/>
<path style="fill:none;stroke-width:0.8;stroke-linecap:round;stroke-linejoin:round;stroke:rgb(12.9%,55.7%,98.8%);stroke-opacity:1;stroke-dasharray:0.01,1.6;stroke-miterlimit:10;" d="M 289.999437 676 L 306.198656 676 " transform="matrix(1,0,0,-1,-156.601,726.5)"/>
<path style="fill:none;stroke-width:0.8;stroke-linecap:round;stroke-linejoin:round;stroke:rgb(12.9%,55.7%,98.8%);stroke-opacity:1;stroke-miterlimit:10;" d="M 289.999437 692 L 289.999437 676 " transform="matrix(1,0,0,-1,-156.601,726.5)"/>
<path style="fill-rule:evenodd;fill:rgb(12.9%,55.7%,98.8%);fill-opacity:1;stroke-width:0.8;stroke-linecap:round;stroke-linejoin:round;stroke:rgb(12.9%,55.7%,98.8%);stroke-opacity:1;stroke-miterlimit:10;" d="M 289.999437 676 L 290.999437 679 L 288.999437 679 Z M 289.999437 676 " transform="matrix(1,0,0,-1,-156.601,726.5)"/>
<path style="fill-rule:evenodd;fill:rgb(12.9%,55.7%,98.8%);fill-opacity:1;stroke-width:0.8;stroke-linecap:round;stroke-linejoin:round;stroke:rgb(12.9%,55.7%,98.8%);stroke-opacity:1;stroke-miterlimit:10;" d="M 289.999437 692 L 288.999437 689 L 290.999437 689 Z M 289.999437 692 " transform="matrix(1,0,0,-1,-156.601,726.5)"/>
<path style="fill:none;stroke-width:0.8;stroke-linecap:round;stroke-linejoin:round;stroke:rgb(12.9%,55.7%,98.8%);stroke-opacity:1;stroke-miterlimit:10;" d="M 299.999437 672 L 299.999437 660 " transform="matrix(1,0,0,-1,-156.601,726.5)"/>
<path style="fill-rule:evenodd;fill:rgb(12.9%,55.7%,98.8%);fill-opacity:1;stroke-width:0.8;stroke-linecap:round;stroke-linejoin:round;stroke:rgb(12.9%,55.7%,98.8%);stroke-opacity:1;stroke-miterlimit:10;" d="M 299.999437 660 L 300.999437 663 L 298.999437 663 Z M 299.999437 660 " transform="matrix(1,0,0,-1,-156.601,726.5)"/>
<path style="fill-rule:evenodd;fill:rgb(12.9%,55.7%,98.8%);fill-opacity:1;stroke-width:0.8;stroke-linecap:round;stroke-linejoin:round;stroke:rgb(12.9%,55.7%,98.8%);stroke-opacity:1;stroke-miterlimit:10;" d="M 299.999437 672 L 298.999437 669 L 300.999437 669 Z M 299.999437 672 " transform="matrix(1,0,0,-1,-156.601,726.5)"/>
<path style="fill:none;stroke-width:0.8;stroke-linecap:round;stroke-linejoin:round;stroke:rgb(12.9%,55.7%,98.8%);stroke-opacity:1;stroke-dasharray:0.01,1.6;stroke-miterlimit:10;" d="M 299.999437 672 L 328.198656 672 " transform="matrix(1,0,0,-1,-156.601,726.5)"/>
<path style="fill:none;stroke-width:0.8;stroke-linecap:round;stroke-linejoin:round;stroke:rgb(12.9%,55.7%,98.8%);stroke-opacity:1;stroke-dasharray:0.01,1.6;stroke-miterlimit:10;" d="M 299.999437 660 L 317.198656 660 " transform="matrix(1,0,0,-1,-156.601,726.5)"/>
<path style="fill:none;stroke-width:0.8;stroke-linecap:round;stroke-linejoin:round;stroke:rgb(12.9%,55.7%,98.8%);stroke-opacity:1;stroke-dasharray:0.01,1.6;stroke-miterlimit:10;" d="M 235.999437 702 L 324.198656 702 " transform="matrix(1,0,0,-1,-156.601,726.5)"/>
<path style="fill:none;stroke-width:0.8;stroke-linecap:round;stroke-linejoin:round;stroke:rgb(12.9%,55.7%,98.8%);stroke-opacity:1;stroke-dasharray:0.01,1.6;stroke-miterlimit:10;" d="M 235.999437 652 L 291.198656 652 " transform="matrix(1,0,0,-1,-156.601,726.5)"/>
<path style="fill:none;stroke-width:0.8;stroke-linecap:round;stroke-linejoin:round;stroke:rgb(12.9%,55.7%,98.8%);stroke-opacity:1;stroke-miterlimit:10;" d="M 235.999437 702 L 235.999437 652 " transform="matrix(1,0,0,-1,-156.601,726.5)"/>
<path style="fill:none;stroke-width:0.8;stroke-linecap:round;stroke-linejoin:round;stroke:rgb(12.9%,55.7%,98.8%);stroke-opacity:1;stroke-miterlimit:10;" d="M 235.999437 702 L 235.999437 652 " transform="matrix(1,0,0,-1,-156.601,726.5)"/>
<path style="fill-rule:evenodd;fill:rgb(12.9%,55.7%,98.8%);fill-opacity:1;stroke-width:0.8;stroke-linecap:round;stroke-linejoin:round;stroke:rgb(12.9%,55.7%,98.8%);stroke-opacity:1;stroke-miterlimit:10;" d="M 235.999437 652 L 236.999437 655 L 234.999437 655 Z M 235.999437 652 " transform="matrix(1,0,0,-1,-156.601,726.5)"/>
<path style="fill-rule:evenodd;fill:rgb(12.9%,55.7%,98.8%);fill-opacity:1;stroke-width:0.8;stroke-linecap:round;stroke-linejoin:round;stroke:rgb(12.9%,55.7%,98.8%);stroke-opacity:1;stroke-miterlimit:10;" d="M 235.999437 702 L 234.999437 699 L 236.999437 699 Z M 235.999437 702 " transform="matrix(1,0,0,-1,-156.601,726.5)"/>
<path style="fill:none;stroke-width:0.8;stroke-linecap:round;stroke-linejoin:round;stroke:rgb(12.9%,55.7%,98.8%);stroke-opacity:1;stroke-miterlimit:10;" d="M 157.999437 718 L 157.999437 640 " transform="matrix(1,0,0,-1,-156.601,726.5)"/>
<path style="fill-rule:evenodd;fill:rgb(12.9%,55.7%,98.8%);fill-opacity:1;stroke-width:0.8;stroke-linecap:round;stroke-linejoin:round;stroke:rgb(12.9%,55.7%,98.8%);stroke-opacity:1;stroke-miterlimit:10;" d="M 157.999437 640 L 158.999437 643 L 156.999437 643 Z M 157.999437 640 " transform="matrix(1,0,0,-1,-156.601,726.5)"/>
<path style="fill-rule:evenodd;fill:rgb(12.9%,55.7%,98.8%);fill-opacity:1;stroke-width:0.8;stroke-linecap:round;stroke-linejoin:round;stroke:rgb(12.9%,55.7%,98.8%);stroke-opacity:1;stroke-miterlimit:10;" d="M 157.999437 718 L 156.999437 715 L 158.999437 715 Z M 157.999437 718 " transform="matrix(1,0,0,-1,-156.601,726.5)"/>
<path style="fill:none;stroke-width:0.8;stroke-linecap:round;stroke-linejoin:round;stroke:rgb(12.9%,55.7%,98.8%);stroke-opacity:1;stroke-dasharray:0.01,1.6;stroke-miterlimit:10;" d="M 157.999437 640 L 256.401781 640 " transform="matrix(1,0,0,-1,-156.601,726.5)"/>
<path style="fill:none;stroke-width:0.8;stroke-linecap:round;stroke-linejoin:round;stroke:rgb(12.9%,55.7%,98.8%);stroke-opacity:1;stroke-dasharray:0.01,1.6;stroke-miterlimit:10;" d="M 157.999437 718 L 293.198656 718 " transform="matrix(1,0,0,-1,-156.601,726.5)"/>
<path style="fill:none;stroke-width:0.8;stroke-linecap:round;stroke-linejoin:round;stroke:rgb(0%,0%,0%);stroke-opacity:1;stroke-miterlimit:10;" d="M 328.198656 668 L 328.198656 672 " transform="matrix(1,0,0,-1,-156.601,726.5)"/>
<path style="fill:none;stroke-width:0.8;stroke-linecap:round;stroke-linejoin:round;stroke:rgb(0%,0%,0%);stroke-opacity:1;stroke-miterlimit:10;" d="M 326.917406 663.65625 C 327.753344 664.953125 328.198656 666.460938 328.198656 668 " transform="matrix(1,0,0,-1,-156.601,726.5)"/>
<path style="fill:none;stroke-width:0.8;stroke-linecap:round;stroke-linejoin:round;stroke:rgb(0%,0%,0%);stroke-opacity:1;stroke-miterlimit:10;" d="M 306.198656 676 L 304.198656 676 " transform="matrix(1,0,0,-1,-156.601,726.5)"/>
<path style="fill:none;stroke-width:0.8;stroke-linecap:round;stroke-linejoin:round;stroke:rgb(0%,0%,0%);stroke-opacity:1;stroke-miterlimit:10;" d="M 317.198656 660 L 314.198656 660 " transform="matrix(1,0,0,-1,-156.601,726.5)"/>
<path style="fill:none;stroke-width:0.8;stroke-linecap:round;stroke-linejoin:round;stroke:rgb(0%,0%,0%);stroke-opacity:1;stroke-miterlimit:10;" d="M 320.198656 660 L 317.198656 660 " transform="matrix(1,0,0,-1,-156.601,726.5)"/>
<path style="fill:none;stroke-width:0.8;stroke-linecap:round;stroke-linejoin:round;stroke:rgb(0%,0%,0%);stroke-opacity:1;stroke-miterlimit:10;" d="M 247.198656 672 C 247.198656 670.125 247.858812 668.3125 249.058031 666.875 " transform="matrix(1,0,0,-1,-156.601,726.5)"/>
<path style="fill:none;stroke-width:0.8;stroke-linecap:round;stroke-linejoin:round;stroke:rgb(0%,0%,0%);stroke-opacity:1;stroke-miterlimit:10;" d="M 283.198656 640 L 214.198656 640 " transform="matrix(1,0,0,-1,-156.601,726.5)"/>
<path style=" stroke:none;fill-rule:evenodd;fill:rgb(0%,0%,0%);fill-opacity:1;" d="M 99.597656 86.5 C 99.597656 84.101562 96 84.101562 96 86.5 C 96 88.898438 99.597656 88.898438 99.597656 86.5 Z M 99.597656 86.5 "/>
<path style=" stroke:none;fill-rule:evenodd;fill:url(#linear0);" d="M 98.199219 86.5 L 98.199219 102.5 L 97.398438 102.5 L 97.398438 86.5 Z M 98.199219 86.5 "/>
<path style="fill:none;stroke-width:0.8;stroke-linecap:round;stroke-linejoin:round;stroke:rgb(0%,0%,0%);stroke-opacity:1;stroke-miterlimit:10;" d="M 283.198656 640 C 287.616625 640 291.198656 643.582031 291.198656 648 " transform="matrix(1,0,0,-1,-156.601,726.5)"/>
<path style="fill:none;stroke-width:0.8;stroke-linecap:round;stroke-linejoin:round;stroke:rgb(0%,0%,0%);stroke-opacity:1;stroke-miterlimit:10;" d="M 206.198656 648 C 206.198656 643.582031 209.780687 640 214.198656 640 " transform="matrix(1,0,0,-1,-156.601,726.5)"/>
<path style=" stroke:none;fill-rule:evenodd;fill:rgb(0%,0%,0%);fill-opacity:1;" d="M 136.398438 74.5 C 136.398438 72.101562 132.800781 72.101562 132.800781 74.5 C 132.800781 76.898438 136.398438 76.898438 136.398438 74.5 Z M 136.398438 74.5 "/>
<path style=" stroke:none;fill-rule:evenodd;fill:rgb(0%,0%,0%);fill-opacity:1;" d="M 162.398438 66.5 C 162.398438 64.101562 158.800781 64.101562 158.800781 66.5 C 158.800781 68.898438 162.398438 68.898438 162.398438 66.5 Z M 162.398438 66.5 "/>
<path style="fill:none;stroke-width:0.8;stroke-linecap:round;stroke-linejoin:round;stroke:rgb(0%,0%,0%);stroke-opacity:1;stroke-miterlimit:10;" d="M 309.198656 652 C 313.616625 652 317.198656 655.582031 317.198656 660 " transform="matrix(1,0,0,-1,-156.601,726.5)"/>
<path style="fill:none;stroke-width:0.8;stroke-linecap:round;stroke-linejoin:round;stroke:rgb(0%,0%,0%);stroke-opacity:1;stroke-miterlimit:10;" d="M 261.198656 660 C 261.198656 655.582031 264.780687 652 269.198656 652 " transform="matrix(1,0,0,-1,-156.601,726.5)"/>
<path style="fill:none;stroke-width:0.8;stroke-linecap:round;stroke-linejoin:round;stroke:rgb(0%,0%,0%);stroke-opacity:1;stroke-miterlimit:10;" d="M 320.198656 660 C 322.9135 660 325.44475 661.378906 326.917406 663.65625 " transform="matrix(1,0,0,-1,-156.601,726.5)"/>
<path style="fill:none;stroke-width:0.8;stroke-linecap:round;stroke-linejoin:round;stroke:rgb(0%,0%,0%);stroke-opacity:1;stroke-miterlimit:10;" d="M 306.198656 668 C 306.198656 663.582031 309.780687 660 314.198656 660 " transform="matrix(1,0,0,-1,-156.601,726.5)"/>
<path style="fill:none;stroke-width:0.8;stroke-linecap:round;stroke-linejoin:round;stroke:rgb(0%,0%,0%);stroke-opacity:1;stroke-miterlimit:10;" d="M 267.198656 664 C 271.616625 664 275.198656 667.582031 275.198656 672 " transform="matrix(1,0,0,-1,-156.601,726.5)"/>
<path style="fill:none;stroke-width:0.8;stroke-linecap:round;stroke-linejoin:round;stroke:rgb(0%,0%,0%);stroke-opacity:1;stroke-miterlimit:10;" d="M 249.058031 666.875 C 250.577562 665.054688 252.827562 664 255.198656 664 " transform="matrix(1,0,0,-1,-156.601,726.5)"/>
<path style=" stroke:none;fill-rule:evenodd;fill:rgb(0%,0%,0%);fill-opacity:1;" d="M 120.398438 46.5 C 120.398438 44.101562 116.800781 44.101562 116.800781 46.5 C 116.800781 48.898438 120.398438 48.898438 120.398438 46.5 Z M 120.398438 46.5 "/>
<path style="fill:none;stroke-width:0.8;stroke-linecap:round;stroke-linejoin:round;stroke:rgb(0%,0%,0%);stroke-opacity:1;stroke-miterlimit:10;" d="M 275.198656 680 C 279.616625 680 283.198656 683.582031 283.198656 688 " transform="matrix(1,0,0,-1,-156.601,726.5)"/>
<path style="fill:none;stroke-width:0.8;stroke-linecap:round;stroke-linejoin:round;stroke:rgb(0%,0%,0%);stroke-opacity:1;stroke-miterlimit:10;" d="M 267.198656 688 C 267.198656 683.582031 270.780687 680 275.198656 680 " transform="matrix(1,0,0,-1,-156.601,726.5)"/>
<path style=" stroke:none;fill-rule:evenodd;fill:rgb(0%,0%,0%);fill-opacity:1;" d="M 128.398438 22.5 C 128.398438 20.101562 124.800781 20.101562 124.800781 22.5 C 124.800781 24.898438 128.398438 24.898438 128.398438 22.5 Z M 128.398438 22.5 "/>
<path style=" stroke:none;fill-rule:evenodd;fill:rgb(0%,0%,0%);fill-opacity:1;" d="M 112.398438 30.5 C 112.398438 28.101562 108.800781 28.101562 108.800781 30.5 C 108.800781 32.898438 112.398438 32.898438 112.398438 30.5 Z M 112.398438 30.5 "/>
<path style="fill:none;stroke-width:0.8;stroke-linecap:round;stroke-linejoin:round;stroke:rgb(0%,0%,0%);stroke-opacity:1;stroke-miterlimit:10;" d="M 267.198656 688 L 267.198656 696 " transform="matrix(1,0,0,-1,-156.601,726.5)"/>
<path style="fill:none;stroke-width:0.8;stroke-linecap:round;stroke-linejoin:round;stroke:rgb(0%,0%,0%);stroke-opacity:1;stroke-miterlimit:10;" d="M 283.198656 688 L 283.198656 704 " transform="matrix(1,0,0,-1,-156.601,726.5)"/>
<path style="fill:none;stroke-width:0.8;stroke-linecap:round;stroke-linejoin:round;stroke:rgb(0%,0%,0%);stroke-opacity:1;stroke-miterlimit:10;" d="M 267.198656 664 L 261.198656 664 " transform="matrix(1,0,0,-1,-156.601,726.5)"/>
<path style="fill:none;stroke-width:0.8;stroke-linecap:round;stroke-linejoin:round;stroke:rgb(0%,0%,0%);stroke-opacity:1;stroke-miterlimit:10;" d="M 261.198656 660 L 261.198656 664 " transform="matrix(1,0,0,-1,-156.601,726.5)"/>
<path style="fill:none;stroke-width:0.8;stroke-linecap:round;stroke-linejoin:round;stroke:rgb(0%,0%,0%);stroke-opacity:1;stroke-miterlimit:10;" d="M 309.198656 652 L 269.198656 652 " transform="matrix(1,0,0,-1,-156.601,726.5)"/>
<path style="fill:none;stroke-width:0.8;stroke-linecap:round;stroke-linejoin:round;stroke:rgb(0%,0%,0%);stroke-opacity:1;stroke-miterlimit:10;" d="M 291.198656 648 L 291.198656 652 " transform="matrix(1,0,0,-1,-156.601,726.5)"/>
<path style="fill:none;stroke-width:0.8;stroke-linecap:round;stroke-linejoin:round;stroke:rgb(0%,0%,0%);stroke-opacity:1;stroke-miterlimit:10;" d="M 206.198656 648 L 206.198656 668 " transform="matrix(1,0,0,-1,-156.601,726.5)"/>
<path style=" stroke:none;fill-rule:evenodd;fill:rgb(0%,0%,0%);fill-opacity:1;" d="M 51.398438 58.5 C 51.398438 56.101562 47.800781 56.101562 47.800781 58.5 C 47.800781 60.898438 51.398438 60.898438 51.398438 58.5 Z M 51.398438 58.5 "/>
<path style="fill:none;stroke-width:0.8;stroke-linecap:round;stroke-linejoin:round;stroke:rgb(0%,0%,0%);stroke-opacity:1;stroke-miterlimit:10;" d="M 192.198656 676 C 192.198656 671.582031 195.780687 668 200.198656 668 " transform="matrix(1,0,0,-1,-156.601,726.5)"/>
<path style="fill:none;stroke-width:0.8;stroke-linecap:round;stroke-linejoin:round;stroke:rgb(0%,0%,0%);stroke-opacity:1;stroke-miterlimit:10;" d="M 212.198656 668 L 200.198656 668 " transform="matrix(1,0,0,-1,-156.601,726.5)"/>
<path style=" stroke:none;fill-rule:evenodd;fill:rgb(0%,0%,0%);fill-opacity:1;" d="M 65.398438 38.5 C 65.398438 36.101562 61.800781 36.101562 61.800781 38.5 C 61.800781 40.898438 65.398438 40.898438 65.398438 38.5 Z M 65.398438 38.5 "/>
<path style="fill:none;stroke-width:0.8;stroke-linecap:round;stroke-linejoin:round;stroke:rgb(0%,0%,0%);stroke-opacity:1;stroke-miterlimit:10;" d="M 220.198656 688 L 220.198656 676 " transform="matrix(1,0,0,-1,-156.601,726.5)"/>
<path style="fill:none;stroke-width:0.8;stroke-linecap:round;stroke-linejoin:round;stroke:rgb(0%,0%,0%);stroke-opacity:1;stroke-miterlimit:10;" d="M 192.198656 684 L 192.198656 676 " transform="matrix(1,0,0,-1,-156.601,726.5)"/>
<path style="fill:none;stroke-width:0.8;stroke-linecap:round;stroke-linejoin:round;stroke:rgb(0%,0%,0%);stroke-opacity:1;stroke-miterlimit:10;" d="M 220.198656 688 C 224.616625 688 228.198656 691.582031 228.198656 696 " transform="matrix(1,0,0,-1,-156.601,726.5)"/>
<path style="fill:none;stroke-width:0.8;stroke-linecap:round;stroke-linejoin:round;stroke:rgb(0%,0%,0%);stroke-opacity:1;stroke-miterlimit:10;" d="M 212.198656 696 C 212.198656 691.582031 215.780687 688 220.198656 688 " transform="matrix(1,0,0,-1,-156.601,726.5)"/>
<path style="fill:none;stroke-width:0.8;stroke-linecap:round;stroke-linejoin:round;stroke:rgb(0%,0%,0%);stroke-opacity:1;stroke-miterlimit:10;" d="M 184.198656 692 C 184.198656 687.582031 187.780687 684 192.198656 684 " transform="matrix(1,0,0,-1,-156.601,726.5)"/>
<path style=" stroke:none;fill-rule:evenodd;fill:rgb(0%,0%,0%);fill-opacity:1;" d="M 73.398438 24.5 C 73.398438 22.101562 69.800781 22.101562 69.800781 24.5 C 69.800781 26.898438 73.398438 26.898438 73.398438 24.5 Z M 73.398438 24.5 "/>
<path style=" stroke:none;fill-rule:evenodd;fill:rgb(0%,0%,0%);fill-opacity:1;" d="M 57.398438 14.5 C 57.398438 12.101562 53.800781 12.101562 53.800781 14.5 C 53.800781 16.898438 57.398438 16.898438 57.398438 14.5 Z M 57.398438 14.5 "/>
<path style=" stroke:none;fill-rule:evenodd;fill:rgb(0%,0%,0%);fill-opacity:1;" d="M 45.398438 26.5 C 45.398438 24.101562 41.800781 24.101562 41.800781 26.5 C 41.800781 28.898438 45.398438 28.898438 45.398438 26.5 Z M 45.398438 26.5 "/>
<path style=" stroke:none;fill-rule:evenodd;fill:rgb(0%,0%,0%);fill-opacity:1;" d="M 29.398438 22.5 C 29.398438 20.101562 25.800781 20.101562 25.800781 22.5 C 25.800781 24.898438 29.398438 24.898438 29.398438 22.5 Z M 29.398438 22.5 "/>
<path style="fill:none;stroke-width:0.8;stroke-linecap:round;stroke-linejoin:round;stroke:rgb(0%,0%,0%);stroke-opacity:1;stroke-miterlimit:10;" d="M 184.198656 704 C 188.616625 704 192.198656 707.582031 192.198656 712 " transform="matrix(1,0,0,-1,-156.601,726.5)"/>
<path style="fill:none;stroke-width:0.8;stroke-linecap:round;stroke-linejoin:round;stroke:rgb(0%,0%,0%);stroke-opacity:1;stroke-miterlimit:10;" d="M 176.198656 712 C 176.198656 707.582031 179.780687 704 184.198656 704 " transform="matrix(1,0,0,-1,-156.601,726.5)"/>
<path style=" stroke:none;fill-rule:evenodd;fill:rgb(0%,0%,0%);fill-opacity:1;" d="M 37.398438 2.5 C 37.398438 0.101562 33.800781 0.101562 33.800781 2.5 C 33.800781 4.898438 37.398438 4.898438 37.398438 2.5 Z M 37.398438 2.5 "/>
<path style=" stroke:none;fill-rule:evenodd;fill:rgb(0%,0%,0%);fill-opacity:1;" d="M 21.398438 10.5 C 21.398438 8.101562 17.800781 8.101562 17.800781 10.5 C 17.800781 12.898438 21.398438 12.898438 21.398438 10.5 Z M 21.398438 10.5 "/>
<path style="fill:none;stroke-width:0.8;stroke-linecap:round;stroke-linejoin:round;stroke:rgb(0%,0%,0%);stroke-opacity:1;stroke-miterlimit:10;" d="M 176.198656 716 L 176.198656 712 " transform="matrix(1,0,0,-1,-156.601,726.5)"/>
<path style="fill:none;stroke-width:0.8;stroke-linecap:round;stroke-linejoin:round;stroke:rgb(0%,0%,0%);stroke-opacity:1;stroke-miterlimit:10;" d="M 192.198656 724 L 192.198656 712 " transform="matrix(1,0,0,-1,-156.601,726.5)"/>
<path style="fill:none;stroke-width:0.8;stroke-linecap:round;stroke-linejoin:round;stroke:rgb(0%,0%,0%);stroke-opacity:1;stroke-miterlimit:10;" d="M 200.198656 700 L 200.198656 692 " transform="matrix(1,0,0,-1,-156.601,726.5)"/>
<path style="fill:none;stroke-width:0.8;stroke-linecap:round;stroke-linejoin:round;stroke:rgb(0%,0%,0%);stroke-opacity:1;stroke-miterlimit:10;" d="M 184.198656 704 L 184.198656 692 " transform="matrix(1,0,0,-1,-156.601,726.5)"/>
<path style="fill:none;stroke-width:0.8;stroke-linecap:round;stroke-linejoin:round;stroke:rgb(0%,0%,0%);stroke-opacity:1;stroke-miterlimit:10;" d="M 212.198656 712 L 212.198656 696 " transform="matrix(1,0,0,-1,-156.601,726.5)"/>
<path style="fill:none;stroke-width:0.8;stroke-linecap:round;stroke-linejoin:round;stroke:rgb(0%,0%,0%);stroke-opacity:1;stroke-miterlimit:10;" d="M 228.198656 702 L 228.198656 696 " transform="matrix(1,0,0,-1,-156.601,726.5)"/>
<path style=" stroke:none;fill-rule:evenodd;fill:rgb(0%,0%,0%);fill-opacity:1;" d="M 92.398438 54.5 C 92.398438 52.101562 88.800781 52.101562 88.800781 54.5 C 88.800781 56.898438 92.398438 56.898438 92.398438 54.5 Z M 92.398438 54.5 "/>
<path style="fill:none;stroke-width:0.8;stroke-linecap:round;stroke-linejoin:round;stroke:rgb(0%,0%,0%);stroke-opacity:1;stroke-miterlimit:10;" d="M 275.198656 680 L 275.198656 672 " transform="matrix(1,0,0,-1,-156.601,726.5)"/>
<path style="fill:none;stroke-width:0.8;stroke-linecap:round;stroke-linejoin:round;stroke:rgb(0%,0%,0%);stroke-opacity:1;stroke-miterlimit:10;" d="M 308.198656 676 C 312.616625 676 316.198656 679.582031 316.198656 684 " transform="matrix(1,0,0,-1,-156.601,726.5)"/>
<path style="fill:none;stroke-width:0.8;stroke-linecap:round;stroke-linejoin:round;stroke:rgb(0%,0%,0%);stroke-opacity:1;stroke-miterlimit:10;" d="M 296.198656 684 C 296.198656 679.582031 299.780687 676 304.198656 676 " transform="matrix(1,0,0,-1,-156.601,726.5)"/>
<path style=" stroke:none;fill-rule:evenodd;fill:rgb(0%,0%,0%);fill-opacity:1;" d="M 141.398438 34.5 C 141.398438 32.101562 137.800781 32.101562 137.800781 34.5 C 137.800781 36.898438 141.398438 36.898438 141.398438 34.5 Z M 141.398438 34.5 "/>
<path style="fill:none;stroke-width:0.8;stroke-linecap:round;stroke-linejoin:round;stroke:rgb(0%,0%,0%);stroke-opacity:1;stroke-miterlimit:10;" d="M 296.198656 692 L 296.198656 684 " transform="matrix(1,0,0,-1,-156.601,726.5)"/>
<path style="fill:none;stroke-width:0.8;stroke-linecap:round;stroke-linejoin:round;stroke:rgb(0%,0%,0%);stroke-opacity:1;stroke-miterlimit:10;" d="M 316.198656 684 C 320.616625 684 324.198656 687.582031 324.198656 692 " transform="matrix(1,0,0,-1,-156.601,726.5)"/>
<path style="fill:none;stroke-width:0.8;stroke-linecap:round;stroke-linejoin:round;stroke:rgb(0%,0%,0%);stroke-opacity:1;stroke-miterlimit:10;" d="M 308.198656 692 C 308.198656 687.582031 311.780687 684 316.198656 684 " transform="matrix(1,0,0,-1,-156.601,726.5)"/>
<path style=" stroke:none;fill-rule:evenodd;fill:rgb(0%,0%,0%);fill-opacity:1;" d="M 153.398438 30.5 C 153.398438 28.101562 149.800781 28.101562 149.800781 30.5 C 149.800781 32.898438 153.398438 32.898438 153.398438 30.5 Z M 153.398438 30.5 "/>
<path style=" stroke:none;fill-rule:evenodd;fill:rgb(0%,0%,0%);fill-opacity:1;" d="M 169.398438 24.5 C 169.398438 22.101562 165.800781 22.101562 165.800781 24.5 C 165.800781 26.898438 169.398438 26.898438 169.398438 24.5 Z M 169.398438 24.5 "/>
<path style="fill:none;stroke-width:0.8;stroke-linecap:round;stroke-linejoin:round;stroke:rgb(0%,0%,0%);stroke-opacity:1;stroke-miterlimit:10;" d="M 324.198656 692 L 324.198656 702 " transform="matrix(1,0,0,-1,-156.601,726.5)"/>
<path style="fill:none;stroke-width:0.8;stroke-linecap:round;stroke-linejoin:round;stroke:rgb(0%,0%,0%);stroke-opacity:1;stroke-miterlimit:10;" d="M 308.198656 692 L 308.198656 696 " transform="matrix(1,0,0,-1,-156.601,726.5)"/>
<path style="fill:none;stroke-width:0.8;stroke-linecap:round;stroke-linejoin:round;stroke:rgb(0%,0%,0%);stroke-opacity:1;stroke-miterlimit:10;" d="M 306.198656 668 L 306.198656 676 " transform="matrix(1,0,0,-1,-156.601,726.5)"/>
<path style=" stroke:none;fill-rule:evenodd;fill:rgb(0%,0%,0%);fill-opacity:1;" d="M 173.398438 54.5 C 173.398438 52.101562 169.800781 52.101562 169.800781 54.5 C 169.800781 56.898438 173.398438 56.898438 173.398438 54.5 Z M 173.398438 54.5 "/>
<path style="fill:none;stroke-width:0.8;stroke-linecap:round;stroke-linejoin:round;stroke:rgb(0%,0%,0%);stroke-opacity:1;stroke-miterlimit:10;" d="M 283.198656 704 C 287.616625 704 291.198656 707.582031 291.198656 712 " transform="matrix(1,0,0,-1,-156.601,726.5)"/>
<path style="fill:none;stroke-width:0.8;stroke-linecap:round;stroke-linejoin:round;stroke:rgb(0%,0%,0%);stroke-opacity:1;stroke-miterlimit:10;" d="M 275.198656 712 C 275.198656 707.582031 278.780687 704 283.198656 704 " transform="matrix(1,0,0,-1,-156.601,726.5)"/>
<path style=" stroke:none;fill-rule:evenodd;fill:rgb(0%,0%,0%);fill-opacity:1;" d="M 136.398438 8.5 C 136.398438 6.101562 132.800781 6.101562 132.800781 8.5 C 132.800781 10.898438 136.398438 10.898438 136.398438 8.5 Z M 136.398438 8.5 "/>
<path style=" stroke:none;fill-rule:evenodd;fill:rgb(0%,0%,0%);fill-opacity:1;" d="M 120.398438 14.5 C 120.398438 12.101562 116.800781 12.101562 116.800781 14.5 C 116.800781 16.898438 120.398438 16.898438 120.398438 14.5 Z M 120.398438 14.5 "/>
<path style="fill:none;stroke-width:0.8;stroke-linecap:round;stroke-linejoin:round;stroke:rgb(0%,0%,0%);stroke-opacity:1;stroke-miterlimit:10;" d="M 291.198656 718 L 291.198656 712 " transform="matrix(1,0,0,-1,-156.601,726.5)"/>
<path style=" stroke:none;fill-rule:evenodd;fill:rgb(0%,0%,0%);fill-opacity:1;" d="M 37.398438 42.5 C 37.398438 40.101562 33.800781 40.101562 33.800781 42.5 C 33.800781 44.898438 37.398438 44.898438 37.398438 42.5 Z M 37.398438 42.5 "/>
<path style="fill:none;stroke-width:0.8;stroke-linecap:round;stroke-linejoin:round;stroke:rgb(0%,0%,0%);stroke-opacity:1;stroke-miterlimit:10;" d="M 192.198656 684 C 196.616625 684 200.198656 687.582031 200.198656 692 " transform="matrix(1,0,0,-1,-156.601,726.5)"/>
<path style="fill:none;stroke-width:0.8;stroke-linecap:round;stroke-linejoin:round;stroke:rgb(0%,0%,0%);stroke-opacity:1;stroke-miterlimit:10;" d="M 212.198656 668 C 216.616625 668 220.198656 671.582031 220.198656 676 " transform="matrix(1,0,0,-1,-156.601,726.5)"/>
<path style=" stroke:none;fill-rule:evenodd;fill:rgb(0%,0%,0%);fill-opacity:1;" d="M 106.398438 62.5 C 106.398438 60.101562 102.800781 60.101562 102.800781 62.5 C 102.800781 64.898438 106.398438 64.898438 106.398438 62.5 Z M 106.398438 62.5 "/>
<path style="fill:none;stroke-width:0.8;stroke-linecap:round;stroke-linejoin:round;stroke:rgb(0%,0%,0%);stroke-opacity:1;stroke-miterlimit:10;" d="M 261.198656 664 L 255.198656 664 " transform="matrix(1,0,0,-1,-156.601,726.5)"/>
<path style=" stroke:none;fill-rule:evenodd;fill:rgb(0%,0%,0%);fill-opacity:1;" d="M 161.398438 42.5 C 161.398438 40.101562 157.800781 40.101562 157.800781 42.5 C 157.800781 44.898438 161.398438 44.898438 161.398438 42.5 Z M 161.398438 42.5 "/>
<path style=" stroke:none;fill-rule:evenodd;fill:rgb(0%,0%,0%);fill-opacity:1;" d="M 151.398438 50.5 C 151.398438 48.101562 147.800781 48.101562 147.800781 50.5 C 147.800781 52.898438 151.398438 52.898438 151.398438 50.5 Z M 151.398438 50.5 "/>
<path style="fill:none;stroke-width:0.8;stroke-linecap:round;stroke-linejoin:round;stroke:rgb(0%,0%,0%);stroke-opacity:1;stroke-miterlimit:10;" d="M 308.198656 676 L 306.198656 676 " transform="matrix(1,0,0,-1,-156.601,726.5)"/>
</g>
</svg>
