<?xml version="1.0" encoding="UTF-8"?>
<svg xmlns="http://www.w3.org/2000/svg" xmlns:xlink="http://www.w3.org/1999/xlink" width="221pt" height="127pt" viewBox="0 0 221 127" version="1.1">
<defs>
<g>
<symbol overflow="visible" id="glyph0-0">
<path style="stroke:none;" d="M 0.5 -6.015625 L 2.1875 -3.484375 L 0.5 -0.953125 Z M 0.796875 -0.5 L 2.5 -3.03125 L 4.1875 -0.5 Z M 2.796875 -3.484375 L 4.484375 -6.015625 L 4.484375 -0.953125 Z M 2.5 -3.921875 L 0.796875 -6.453125 L 4.1875 -6.453125 Z M 0 0 L 4.984375 0 L 4.984375 -6.953125 L 0 -6.953125 Z M 0 0 "/>
</symbol>
<symbol overflow="visible" id="glyph0-1">
<path style="stroke:none;" d="M 6.53125 -0.875 C 6.5 -0.609375 6.375 -0.3125 6.09375 -0.296875 L 5.84375 -0.265625 C 5.796875 -0.265625 5.734375 -0.234375 5.734375 -0.1875 L 5.71875 0 L 5.734375 0.015625 C 6.203125 0.015625 6.484375 0 6.765625 0 C 7.0625 0 7.390625 0.015625 7.84375 0.015625 L 7.859375 0 L 7.890625 -0.1875 C 7.890625 -0.234375 7.859375 -0.265625 7.796875 -0.265625 L 7.53125 -0.296875 C 7.296875 -0.3125 7.234375 -0.4375 7.234375 -0.640625 C 7.234375 -0.71875 7.25 -0.78125 7.25 -0.875 L 7.859375 -5.71875 C 7.890625 -5.984375 8.03125 -6.125 8.3125 -6.140625 L 8.578125 -6.15625 C 8.625 -6.15625 8.6875 -6.15625 8.6875 -6.234375 L 8.71875 -6.4375 L 8.6875 -6.453125 L 7.4375 -6.453125 L 4.421875 -1.375 C 4.359375 -1.28125 4.328125 -1.234375 4.3125 -1.234375 C 4.28125 -1.234375 4.265625 -1.28125 4.25 -1.359375 L 3.28125 -6.4375 L 1.84375 -6.453125 L 1.828125 -6.4375 L 1.796875 -6.234375 C 1.796875 -6.1875 1.8125 -6.15625 1.890625 -6.15625 L 2.15625 -6.140625 C 2.375 -6.125 2.46875 -6.0625 2.46875 -5.921875 C 2.46875 -5.859375 2.46875 -5.796875 2.4375 -5.71875 L 1.03125 -0.859375 C 0.96875 -0.59375 0.84375 -0.3125 0.53125 -0.296875 L 0.28125 -0.265625 C 0.21875 -0.265625 0.1875 -0.234375 0.171875 -0.1875 L 0.15625 0 L 0.171875 0.015625 C 0.46875 0.015625 0.796875 0 1.03125 0 C 1.25 0 1.625 0.015625 1.90625 0.015625 L 1.9375 0 L 1.9375 -0.1875 C 1.9375 -0.234375 1.90625 -0.265625 1.859375 -0.265625 L 1.625 -0.296875 C 1.4375 -0.296875 1.359375 -0.421875 1.359375 -0.59375 C 1.359375 -0.671875 1.375 -0.765625 1.40625 -0.859375 L 2.65625 -5.21875 L 2.6875 -5.21875 L 3.65625 -0.046875 C 3.671875 0.015625 3.71875 0.0625 3.78125 0.0625 C 3.828125 0.0625 3.875 0.03125 3.921875 -0.046875 L 7.109375 -5.328125 L 7.125 -5.328125 Z M 6.53125 -0.875 "/>
</symbol>
<symbol overflow="visible" id="glyph1-0">
<path style="stroke:none;" d="M 0.5 -6.015625 L 2.1875 -3.484375 L 0.5 -0.953125 Z M 0.796875 -0.5 L 2.5 -3.03125 L 4.1875 -0.5 Z M 2.796875 -3.484375 L 4.484375 -6.015625 L 4.484375 -0.953125 Z M 2.5 -3.921875 L 0.796875 -6.453125 L 4.1875 -6.453125 Z M 0 0 L 4.984375 0 L 4.984375 -6.953125 L 0 -6.953125 Z M 0 0 "/>
</symbol>
<symbol overflow="visible" id="glyph1-1">
<path style="stroke:none;" d="M 5.046875 -3.515625 C 5.078125 -3.6875 5.171875 -3.984375 5.171875 -4.109375 C 5.171875 -4.28125 5.078125 -4.375 4.75 -4.375 C 4.375 -4.375 4.390625 -3.9375 4.296875 -3.5625 L 4 -2.46875 C 3.265625 -1.203125 2.78125 -0.5 2.28125 -0.5 C 2.109375 -0.5 1.984375 -0.59375 1.984375 -0.875 C 1.984375 -1.03125 2 -1.234375 2.078125 -1.5 L 2.5 -3.125 C 2.578125 -3.453125 2.71875 -3.859375 2.71875 -4.046875 C 2.71875 -4.234375 2.65625 -4.375 2.359375 -4.375 C 1.875 -4.375 1.3125 -4.03125 0.84375 -3.453125 C 0.875 -3.359375 0.9375 -3.28125 1.078125 -3.28125 C 1.328125 -3.578125 1.671875 -3.78125 1.765625 -3.78125 C 1.828125 -3.78125 1.859375 -3.734375 1.859375 -3.609375 C 1.859375 -3.515625 1.796875 -3.296875 1.734375 -3.046875 L 1.296875 -1.359375 C 1.21875 -1.109375 1.203125 -0.890625 1.203125 -0.703125 C 1.203125 -0.125 1.515625 0.09375 1.859375 0.09375 C 2.640625 0.09375 3.140625 -0.515625 3.84375 -1.5625 L 3.875 -1.53125 L 3.765625 -1.140625 C 3.671875 -0.828125 3.59375 -0.421875 3.59375 -0.234375 C 3.59375 -0.046875 3.671875 0.09375 3.96875 0.09375 C 4.453125 0.09375 4.890625 -0.234375 5.359375 -0.828125 C 5.328125 -0.921875 5.265625 -1 5.125 -1 C 4.859375 -0.703125 4.578125 -0.5 4.46875 -0.5 C 4.40625 -0.5 4.375 -0.546875 4.375 -0.671875 C 4.375 -0.75 4.421875 -0.984375 4.484375 -1.234375 Z M 5.046875 -3.515625 "/>
</symbol>
<symbol overflow="visible" id="glyph1-2">
<path style="stroke:none;" d="M 2.75 -4.140625 C 2.75 -4.28125 2.6875 -4.34375 2.546875 -4.34375 C 2.234375 -4.34375 1.78125 -4.28125 1.3125 -4.21875 C 1.25 -4.140625 1.265625 -4.03125 1.328125 -3.9375 L 1.71875 -3.90625 C 1.84375 -3.890625 1.90625 -3.8125 1.90625 -3.703125 C 1.90625 -3.625 1.875 -3.484375 1.8125 -3.203125 L 1.25 -0.71875 C 1.203125 -0.515625 1.109375 -0.265625 1.109375 -0.171875 C 1.109375 0 1.203125 0.09375 1.53125 0.09375 C 1.90625 0.09375 1.890625 -0.34375 1.984375 -0.71875 L 2.375 -2.328125 C 3.15625 -3.453125 3.71875 -3.78125 4.03125 -3.78125 C 4.234375 -3.78125 4.296875 -3.703125 4.296875 -3.40625 C 4.296875 -3.296875 4.28125 -3.046875 4.21875 -2.734375 L 3.734375 -0.71875 C 3.6875 -0.515625 3.609375 -0.265625 3.609375 -0.171875 C 3.609375 0 3.703125 0.09375 4.015625 0.09375 C 4.390625 0.09375 4.390625 -0.34375 4.46875 -0.71875 L 4.859375 -2.28125 C 5.703125 -3.46875 6.09375 -3.78125 6.40625 -3.78125 C 6.59375 -3.78125 6.703125 -3.703125 6.703125 -3.40625 C 6.703125 -3.296875 6.6875 -3.015625 6.609375 -2.703125 L 6.21875 -1.140625 C 6.125 -0.734375 6.046875 -0.3125 6.046875 -0.234375 C 6.046875 -0.03125 6.21875 0.09375 6.359375 0.09375 C 6.953125 0.09375 7.5 -0.1875 7.828125 -1 C 7.8125 -1.09375 7.75 -1.140625 7.609375 -1.140625 C 7.375 -0.765625 7.09375 -0.5 6.921875 -0.5 C 6.875 -0.5 6.84375 -0.5625 6.84375 -0.609375 C 6.84375 -0.640625 6.875 -0.890625 6.890625 -1 L 7.359375 -2.78125 C 7.421875 -3.015625 7.46875 -3.3125 7.46875 -3.515625 C 7.46875 -4.140625 7.171875 -4.375 6.859375 -4.375 C 6.15625 -4.375 5.609375 -3.765625 5.03125 -3.046875 C 5.046875 -3.203125 5.0625 -3.375 5.0625 -3.515625 C 5.0625 -4.203125 4.765625 -4.375 4.484375 -4.375 C 3.765625 -4.375 3.125 -3.84375 2.53125 -3.09375 L 2.515625 -3.09375 C 2.609375 -3.46875 2.75 -3.96875 2.75 -4.140625 Z M 2.75 -4.140625 "/>
</symbol>
<symbol overflow="visible" id="glyph1-3">
<path style="stroke:none;" d="M 1.734375 0.09375 L 1.890625 0.09375 C 2.859375 0.09375 3.453125 -0.4375 3.453125 -1.171875 C 3.453125 -1.640625 3.1875 -2.109375 2.265625 -2.71875 C 1.96875 -2.90625 1.859375 -3.09375 1.859375 -3.34375 C 1.859375 -3.6875 2.0625 -4.046875 2.5 -4.046875 C 2.734375 -4.046875 2.90625 -3.96875 2.9375 -3.765625 C 2.96875 -3.515625 3.140625 -3.234375 3.40625 -3.234375 C 3.671875 -3.234375 3.765625 -3.421875 3.765625 -3.578125 C 3.765625 -3.9375 3.234375 -4.375 2.625 -4.375 C 1.75 -4.375 1.21875 -3.734375 1.21875 -3.125 C 1.21875 -2.734375 1.453125 -2.296875 2.09375 -1.859375 C 2.625 -1.5 2.703125 -1.171875 2.703125 -0.96875 C 2.703125 -0.421875 2.296875 -0.234375 1.859375 -0.234375 C 1.59375 -0.234375 1.453125 -0.28125 1.421875 -0.5 C 1.390625 -0.734375 1.25 -1.03125 0.953125 -1.03125 C 0.671875 -1.03125 0.59375 -0.78125 0.59375 -0.671875 C 0.59375 -0.3125 1.046875 0.0625 1.734375 0.09375 Z M 1.734375 0.09375 "/>
</symbol>
<symbol overflow="visible" id="glyph2-0">
<path style="stroke:none;" d="M 0.5 -6.015625 L 2.1875 -3.484375 L 0.5 -0.953125 Z M 0.796875 -0.5 L 2.5 -3.03125 L 4.1875 -0.5 Z M 2.796875 -3.484375 L 4.484375 -6.015625 L 4.484375 -0.953125 Z M 2.5 -3.921875 L 0.796875 -6.453125 L 4.1875 -6.453125 Z M 0 0 L 4.984375 0 L 4.984375 -6.953125 L 0 -6.953125 Z M 0 0 "/>
</symbol>
<symbol overflow="visible" id="glyph2-1">
<path style="stroke:none;" d="M 0.734375 -0.65625 C 0.515625 -0.65625 0.34375 -0.5 0.34375 -0.28125 C 0.34375 -0.015625 0.703125 0.09375 0.921875 0.09375 C 1.265625 0.09375 1.5 -0.046875 1.9375 -0.671875 L 2.625 -1.671875 L 3.015625 -0.453125 C 3.15625 -0.0625 3.25 0.09375 3.59375 0.09375 C 3.9375 0.09375 4.375 -0.09375 4.6875 -0.609375 C 4.640625 -0.703125 4.5625 -0.78125 4.453125 -0.796875 C 4.1875 -0.46875 4.0625 -0.390625 3.953125 -0.390625 C 3.859375 -0.390625 3.78125 -0.515625 3.703125 -0.75 L 3.171875 -2.359375 L 3.921875 -3.484375 C 4.09375 -3.703125 4.328125 -3.75 4.390625 -3.75 C 4.46875 -3.75 4.609375 -3.71875 4.6875 -3.65625 C 4.765625 -3.59375 4.921875 -3.546875 5.03125 -3.546875 C 5.15625 -3.546875 5.34375 -3.75 5.34375 -3.984375 C 5.34375 -4.234375 5.078125 -4.375 4.84375 -4.375 C 4.34375 -4.375 4.015625 -4.203125 3.53125 -3.5 L 3.03125 -2.78125 L 2.75 -3.65625 C 2.578125 -4.171875 2.46875 -4.375 2.21875 -4.375 C 2 -4.375 1.25 -3.96875 0.90625 -3.703125 C 0.921875 -3.59375 0.953125 -3.46875 1.03125 -3.40625 C 1.15625 -3.453125 1.484375 -3.609375 1.6875 -3.609375 C 1.8125 -3.609375 1.90625 -3.59375 1.96875 -3.5 C 2.015625 -3.421875 2.078125 -3.25 2.140625 -3.078125 L 2.5 -2.09375 L 1.5625 -0.734375 C 1.46875 -0.578125 1.359375 -0.53125 1.28125 -0.53125 C 1.09375 -0.53125 0.921875 -0.65625 0.734375 -0.65625 Z M 0.734375 -0.65625 "/>
</symbol>
<symbol overflow="visible" id="glyph3-0">
<path style="stroke:none;" d="M 0.390625 -4.8125 L 1.75 -2.78125 L 0.390625 -0.75 Z M 0.640625 -0.390625 L 1.984375 -2.421875 L 3.34375 -0.390625 Z M 2.234375 -2.78125 L 3.578125 -4.8125 L 3.578125 -0.75 Z M 1.984375 -3.140625 L 0.640625 -5.15625 L 3.34375 -5.15625 Z M 0 0 L 3.984375 0 L 3.984375 -5.5625 L 0 -5.5625 Z M 0 0 "/>
</symbol>
<symbol overflow="visible" id="glyph3-1">
<path style="stroke:none;" d="M 1.328125 -2.65625 L 1.328125 -3.390625 C 1.328125 -3.453125 1.328125 -3.46875 1.28125 -3.46875 C 1.109375 -3.4375 0.828125 -3.421875 0.640625 -3.4375 L 0.625 -3.421875 C 0.671875 -3.078125 0.6875 -2.46875 0.6875 -1.875 L 0.6875 -1.4375 C 0.6875 -0.84375 0.6875 -0.4375 0.625 0 L 0.640625 0.03125 C 0.734375 0.015625 0.921875 0 1.015625 0 C 1.109375 0 1.296875 0.015625 1.390625 0.03125 L 1.40625 0 C 1.34375 -0.453125 1.328125 -0.828125 1.328125 -1.4375 L 1.328125 -1.84375 C 1.328125 -2.1875 1.4375 -2.375 1.609375 -2.640625 C 1.71875 -2.8125 1.890625 -2.921875 2.046875 -2.921875 C 2.203125 -2.921875 2.359375 -2.90625 2.46875 -2.8125 L 2.53125 -2.828125 L 2.6875 -3.40625 L 2.65625 -3.4375 C 2.515625 -3.484375 2.515625 -3.5 2.359375 -3.5 C 1.9375 -3.5 1.703125 -3.25 1.359375 -2.640625 Z M 1.328125 -2.65625 "/>
</symbol>
<symbol overflow="visible" id="glyph3-2">
<path style="stroke:none;" d="M 2.46875 -1.796875 L 2.4375 -0.84375 C 2.4375 -0.734375 2.390625 -0.6875 2.328125 -0.640625 C 2.109375 -0.46875 1.828125 -0.328125 1.59375 -0.328125 C 1.234375 -0.328125 1 -0.5625 1 -0.8125 C 1 -1.171875 1.171875 -1.4375 1.796875 -1.609375 Z M 2.46875 -0.375 C 2.5625 -0.078125 2.796875 0.078125 3.09375 0.078125 C 3.296875 0.078125 3.53125 0.03125 3.734375 -0.171875 L 3.671875 -0.359375 C 3.578125 -0.328125 3.515625 -0.328125 3.453125 -0.328125 C 3.375 -0.328125 3.265625 -0.328125 3.21875 -0.375 C 3.140625 -0.453125 3.078125 -0.65625 3.078125 -1 C 3.078125 -1.234375 3.109375 -2.125 3.109375 -2.203125 C 3.109375 -3.28125 2.40625 -3.5 1.796875 -3.5 C 1.1875 -3.5 0.828125 -3.203125 0.625 -3.03125 L 0.59375 -3 L 0.734375 -2.46875 L 0.84375 -2.46875 C 1.0625 -2.828125 1.328125 -3.140625 1.71875 -3.140625 C 2 -3.140625 2.484375 -3.09375 2.484375 -2.203125 C 2.484375 -2.140625 2.453125 -2.109375 2.421875 -2.109375 L 1.6875 -1.9375 C 0.875 -1.75 0.359375 -1.328125 0.359375 -0.78125 C 0.359375 -0.1875 0.765625 0.078125 1.359375 0.078125 C 1.796875 0.078125 2.015625 -0.03125 2.4375 -0.375 Z M 2.46875 -0.375 "/>
</symbol>
<symbol overflow="visible" id="glyph3-3">
<path style="stroke:none;" d="M 0.21875 -3.4375 C 0.546875 -2.734375 1.484375 -0.671875 1.765625 0.078125 C 1.515625 0.671875 1.1875 1.296875 0.828125 1.890625 C 0.90625 1.859375 1.03125 1.84375 1.109375 1.84375 C 1.1875 1.84375 1.421875 1.859375 1.5 1.890625 C 1.796875 0.890625 3.546875 -2.90625 3.8125 -3.4375 C 3.734375 -3.421875 3.546875 -3.421875 3.46875 -3.421875 C 3.390625 -3.421875 3.234375 -3.421875 3.15625 -3.4375 C 2.875 -2.546875 2.5 -1.515625 2.109375 -0.703125 L 2.09375 -0.703125 C 1.703125 -1.65625 1.328125 -2.53125 1.03125 -3.4375 C 0.921875 -3.421875 0.75 -3.421875 0.640625 -3.421875 C 0.53125 -3.421875 0.328125 -3.421875 0.21875 -3.4375 Z M 0.21875 -3.4375 "/>
</symbol>
<symbol overflow="visible" id="glyph4-0">
<path style="stroke:none;" d="M 0.5 -6.015625 L 2.1875 -3.484375 L 0.5 -0.953125 Z M 0.796875 -0.5 L 2.5 -3.03125 L 4.1875 -0.5 Z M 2.796875 -3.484375 L 4.484375 -6.015625 L 4.484375 -0.953125 Z M 2.5 -3.921875 L 0.796875 -6.453125 L 4.1875 -6.453125 Z M 0 0 L 4.984375 0 L 4.984375 -6.953125 L 0 -6.953125 Z M 0 0 "/>
</symbol>
<symbol overflow="visible" id="glyph4-1">
<path style="stroke:none;" d="M 0.484375 -2.515625 C 0.484375 -2.0625 0.515625 0.234375 2.59375 2.03125 C 2.6875 2.015625 2.765625 1.9375 2.796875 1.859375 C 2.46875 1.484375 1.3125 0.109375 1.3125 -2.515625 C 1.3125 -5.140625 2.484375 -6.515625 2.796875 -6.875 C 2.765625 -6.96875 2.703125 -7.03125 2.59375 -7.046875 C 1.40625 -6.03125 0.484375 -4.359375 0.484375 -2.515625 Z M 0.484375 -2.515625 "/>
</symbol>
<symbol overflow="visible" id="glyph5-0">
<path style="stroke:none;" d="M 0.5 -6.015625 L 2.1875 -3.484375 L 0.5 -0.953125 Z M 0.796875 -0.5 L 2.5 -3.03125 L 4.1875 -0.5 Z M 2.796875 -3.484375 L 4.484375 -6.015625 L 4.484375 -0.953125 Z M 2.5 -3.921875 L 0.796875 -6.453125 L 4.1875 -6.453125 Z M 0 0 L 4.984375 0 L 4.984375 -6.953125 L 0 -6.953125 Z M 0 0 "/>
</symbol>
<symbol overflow="visible" id="glyph5-1">
<path style="stroke:none;" d="M 1.859375 -4.28125 L 1.328125 -4.25 C 1.140625 -4.234375 1.0625 -4.15625 1.046875 -4.078125 C 1.03125 -4.046875 1 -3.921875 1 -3.90625 C 1 -3.890625 1.03125 -3.890625 1.0625 -3.890625 L 1.765625 -3.890625 L 1.15625 -1.171875 C 1.09375 -0.859375 1.015625 -0.546875 1.015625 -0.359375 C 1.015625 0 1.203125 0.09375 1.5 0.09375 C 1.953125 0.09375 2.609375 -0.3125 2.953125 -0.921875 C 2.921875 -1.0625 2.84375 -1.109375 2.734375 -1.109375 C 2.265625 -0.59375 2.09375 -0.5 1.9375 -0.5 C 1.90625 -0.5 1.796875 -0.515625 1.796875 -0.640625 C 1.796875 -0.734375 1.828125 -0.921875 1.90625 -1.265625 L 2.5 -3.890625 L 3.484375 -3.890625 C 3.5625 -3.921875 3.625 -4.0625 3.625 -4.15625 C 3.625 -4.203125 3.609375 -4.25 3.578125 -4.28125 L 2.59375 -4.28125 L 2.6875 -4.71875 C 2.734375 -4.921875 2.828125 -5.203125 2.828125 -5.328125 C 2.828125 -5.5 2.734375 -5.59375 2.421875 -5.59375 C 2.0625 -5.59375 2.078125 -5.140625 1.984375 -4.78125 Z M 1.859375 -4.28125 "/>
</symbol>
<symbol overflow="visible" id="glyph6-0">
<path style="stroke:none;" d="M 0.390625 -4.8125 L 1.75 -2.78125 L 0.390625 -0.75 Z M 0.640625 -0.390625 L 1.984375 -2.421875 L 3.34375 -0.390625 Z M 2.234375 -2.78125 L 3.578125 -4.8125 L 3.578125 -0.75 Z M 1.984375 -3.140625 L 0.640625 -5.15625 L 3.34375 -5.15625 Z M 0 0 L 3.984375 0 L 3.984375 -5.5625 L 0 -5.5625 Z M 0 0 "/>
</symbol>
<symbol overflow="visible" id="glyph6-1">
<path style="stroke:none;" d="M 2.296875 -0.96875 L 2.296875 -3.734375 C 2.296875 -4.21875 2.296875 -4.703125 2.3125 -4.8125 C 2.3125 -4.84375 2.296875 -4.84375 2.265625 -4.84375 C 1.828125 -4.578125 1.40625 -4.375 0.703125 -4.046875 C 0.71875 -3.953125 0.75 -3.875 0.828125 -3.828125 C 1.1875 -3.984375 1.375 -4.03125 1.515625 -4.03125 C 1.65625 -4.03125 1.6875 -3.84375 1.6875 -3.5625 L 1.6875 -0.96875 C 1.6875 -0.3125 1.46875 -0.265625 0.90625 -0.25 C 0.890625 -0.21875 0.875 -0.171875 0.875 -0.109375 C 0.875 -0.0625 0.890625 -0.015625 0.90625 0.015625 C 1.296875 0.015625 1.578125 0 2.015625 0 C 2.40625 0 2.59375 0.015625 2.984375 0.015625 C 3.015625 -0.015625 3.03125 -0.0625 3.03125 -0.109375 C 3.03125 -0.171875 3.015625 -0.21875 2.984375 -0.25 C 2.4375 -0.265625 2.296875 -0.3125 2.296875 -0.96875 Z M 2.296875 -0.96875 "/>
</symbol>
<symbol overflow="visible" id="glyph6-2">
<path style="stroke:none;" d="M 1.84375 -4.578125 C 1.984375 -4.578125 2.109375 -4.53125 2.203125 -4.453125 C 2.453125 -4.234375 2.671875 -3.640625 2.671875 -2.5625 C 2.671875 -1.828125 2.640625 -1.328125 2.53125 -0.921875 C 2.359375 -0.265625 1.96875 -0.203125 1.828125 -0.203125 C 1.078125 -0.203125 1 -1.5625 1 -2.25 C 1 -4.21875 1.484375 -4.578125 1.84375 -4.578125 Z M 1.8125 0.078125 C 2.4375 0.078125 3.359375 -0.546875 3.359375 -2.421875 C 3.359375 -3.203125 3.171875 -3.875 2.828125 -4.34375 C 2.609375 -4.625 2.28125 -4.859375 1.84375 -4.859375 C 1.0625 -4.859375 0.3125 -3.921875 0.3125 -2.34375 C 0.3125 -1.484375 0.578125 -0.6875 1.015625 -0.25 C 1.234375 -0.03125 1.5 0.078125 1.8125 0.078125 Z M 1.8125 0.078125 "/>
</symbol>
<symbol overflow="visible" id="glyph7-0">
<path style="stroke:none;" d="M 0.5 -6.015625 L 2.1875 -3.484375 L 0.5 -0.953125 Z M 0.796875 -0.5 L 2.5 -3.03125 L 4.1875 -0.5 Z M 2.796875 -3.484375 L 4.484375 -6.015625 L 4.484375 -0.953125 Z M 2.5 -3.921875 L 0.796875 -6.453125 L 4.1875 -6.453125 Z M 0 0 L 4.984375 0 L 4.984375 -6.953125 L 0 -6.953125 Z M 0 0 "/>
</symbol>
<symbol overflow="visible" id="glyph7-1">
<path style="stroke:none;" d="M 2.609375 -2.515625 C 2.609375 -2.953125 2.578125 -5.265625 0.5 -7.0625 C 0.40625 -7.03125 0.3125 -6.96875 0.296875 -6.890625 C 0.625 -6.515625 1.78125 -5.140625 1.78125 -2.515625 C 1.78125 0.109375 0.609375 1.484375 0.296875 1.84375 C 0.3125 1.9375 0.390625 2.015625 0.5 2.03125 C 1.6875 1 2.609375 -0.65625 2.609375 -2.515625 Z M 2.609375 -2.515625 "/>
</symbol>
</g>
<linearGradient id="linear0" gradientUnits="userSpaceOnUse" x1="328" y1="480" x2="328" y2="488" gradientTransform="matrix(1,0,0,-1,-108.2257,605.176)">
<stop offset="0" style="stop-color:rgb(100%,100%,100%);stop-opacity:1;"/>
<stop offset="1" style="stop-color:rgb(94.1%,94.1%,94.1%);stop-opacity:1;"/>
</linearGradient>
</defs>
<g id="surface1">
<path style=" stroke:none;fill-rule:evenodd;fill:url(#linear0);" d="M 3.773438 59.15625 L 19.773438 22.753906 L 35.773438 11.554688 L 51.773438 33.953125 L 67.773438 47.953125 L 83.773438 56.355469 L 99.773438 64.753906 L 115.773438 73.15625 L 131.773438 84.355469 L 147.773438 92.753906 L 163.773438 98.355469 L 179.773438 101.15625 L 195.773438 87.15625 L 211.773438 81.554688 L 211.773438 125.175781 L 3.773438 125.175781 Z M 3.773438 59.15625 "/>
<path style="fill:none;stroke-width:0.8;stroke-linecap:round;stroke-linejoin:round;stroke:rgb(82.7%,82.7%,82.7%);stroke-opacity:1;stroke-miterlimit:10;" d="M 111.999138 546.01975 L 127.999138 579.621313 L 143.999138 590.820531 L 159.999138 574.01975 L 175.999138 562.820531 L 223.999138 541.820531 L 239.999138 532.01975 L 255.999138 516.621313 L 271.999138 502.621313 L 287.999138 498.422094 L 303.999138 515.222875 L 319.999138 529.222875 " transform="matrix(1,0,0,-1,-108.2257,605.176)"/>
<path style="fill:none;stroke-width:0.8;stroke-linecap:round;stroke-linejoin:round;stroke:rgb(82.7%,82.7%,82.7%);stroke-opacity:1;stroke-miterlimit:10;" d="M 111.999138 546.01975 L 127.999138 574.01975 L 143.999138 585.222875 L 175.999138 574.01975 L 223.999138 561.422094 L 239.999138 554.422094 L 255.999138 525.01975 L 271.999138 494.222875 L 287.999138 487.222875 L 303.999138 509.621313 L 319.999138 540.422094 " transform="matrix(1,0,0,-1,-108.2257,605.176)"/>
<path style="fill:none;stroke-width:0.8;stroke-linecap:round;stroke-linejoin:round;stroke:rgb(82.7%,82.7%,82.7%);stroke-opacity:1;stroke-miterlimit:10;" d="M 111.999138 546.01975 L 127.999138 571.222875 L 143.999138 582.422094 L 159.999138 582.422094 L 207.999138 574.01975 L 223.999138 571.222875 L 239.999138 565.621313 L 255.999138 529.222875 L 271.999138 490.01975 L 287.999138 481.621313 L 303.999138 506.820531 L 319.999138 546.01975 " transform="matrix(1,0,0,-1,-108.2257,605.176)"/>
<path style="fill:none;stroke-width:0.8;stroke-linecap:round;stroke-linejoin:round;stroke:rgb(82.7%,82.7%,82.7%);stroke-opacity:1;stroke-miterlimit:10;" d="M 111.999138 546.01975 L 127.999138 576.820531 L 143.999138 588.01975 L 159.999138 576.820531 L 175.999138 568.422094 L 191.999138 562.820531 L 207.999138 557.222875 L 223.999138 551.621313 L 239.999138 543.222875 L 255.999138 520.820531 L 271.999138 498.422094 L 287.999138 492.820531 L 303.999138 512.422094 L 319.999138 534.820531 " transform="matrix(1,0,0,-1,-108.2257,605.176)"/>
<path style=" stroke:none;fill-rule:evenodd;fill:rgb(82.7%,82.7%,82.7%);fill-opacity:1;" d="M 21.574219 33.953125 C 21.574219 31.554688 17.972656 31.554688 17.972656 33.953125 C 17.972656 36.355469 21.574219 36.355469 21.574219 33.953125 Z M 21.574219 33.953125 "/>
<path style=" stroke:none;fill-rule:evenodd;fill:rgb(82.7%,82.7%,82.7%);fill-opacity:1;" d="M 21.574219 28.355469 C 21.574219 25.953125 17.972656 25.953125 17.972656 28.355469 C 17.972656 30.753906 21.574219 30.753906 21.574219 28.355469 Z M 21.574219 28.355469 "/>
<path style=" stroke:none;fill-rule:evenodd;fill:rgb(82.7%,82.7%,82.7%);fill-opacity:1;" d="M 37.574219 17.15625 C 37.574219 14.753906 33.972656 14.753906 33.972656 17.15625 C 33.972656 19.554688 37.574219 19.554688 37.574219 17.15625 Z M 37.574219 17.15625 "/>
<path style=" stroke:none;fill-rule:evenodd;fill:rgb(82.7%,82.7%,82.7%);fill-opacity:1;" d="M 37.574219 22.753906 C 37.574219 20.355469 33.972656 20.355469 33.972656 22.753906 C 33.972656 25.15625 37.574219 25.15625 37.574219 22.753906 Z M 37.574219 22.753906 "/>
<path style=" stroke:none;fill-rule:evenodd;fill:rgb(82.7%,82.7%,82.7%);fill-opacity:1;" d="M 53.574219 22.753906 C 53.574219 20.355469 49.972656 20.355469 49.972656 22.753906 C 49.972656 25.15625 53.574219 25.15625 53.574219 22.753906 Z M 53.574219 22.753906 "/>
<path style=" stroke:none;fill-rule:evenodd;fill:rgb(82.7%,82.7%,82.7%);fill-opacity:1;" d="M 53.574219 28.355469 C 53.574219 25.953125 49.972656 25.953125 49.972656 28.355469 C 49.972656 30.753906 53.574219 30.753906 53.574219 28.355469 Z M 53.574219 28.355469 "/>
<path style=" stroke:none;fill-rule:evenodd;fill:rgb(82.7%,82.7%,82.7%);fill-opacity:1;" d="M 69.574219 36.753906 C 69.574219 34.355469 65.972656 34.355469 65.972656 36.753906 C 65.972656 39.15625 69.574219 39.15625 69.574219 36.753906 Z M 69.574219 36.753906 "/>
<path style=" stroke:none;fill-rule:evenodd;fill:rgb(82.7%,82.7%,82.7%);fill-opacity:1;" d="M 69.574219 25.554688 C 69.574219 23.15625 65.972656 23.15625 65.972656 25.554688 C 65.972656 27.953125 69.574219 27.953125 69.574219 25.554688 Z M 69.574219 25.554688 "/>
<path style=" stroke:none;fill-rule:evenodd;fill:rgb(82.7%,82.7%,82.7%);fill-opacity:1;" d="M 85.574219 28.355469 C 85.574219 25.953125 81.972656 25.953125 81.972656 28.355469 C 81.972656 30.753906 85.574219 30.753906 85.574219 28.355469 Z M 85.574219 28.355469 "/>
<path style=" stroke:none;fill-rule:evenodd;fill:rgb(82.7%,82.7%,82.7%);fill-opacity:1;" d="M 85.574219 42.355469 C 85.574219 39.953125 81.972656 39.953125 81.972656 42.355469 C 81.972656 44.753906 85.574219 44.753906 85.574219 42.355469 Z M 85.574219 42.355469 "/>
<path style=" stroke:none;fill-rule:evenodd;fill:rgb(82.7%,82.7%,82.7%);fill-opacity:1;" d="M 101.574219 47.953125 C 101.574219 45.554688 97.972656 45.554688 97.972656 47.953125 C 97.972656 50.355469 101.574219 50.355469 101.574219 47.953125 Z M 101.574219 47.953125 "/>
<path style=" stroke:none;fill-rule:evenodd;fill:rgb(82.7%,82.7%,82.7%);fill-opacity:1;" d="M 101.574219 31.15625 C 101.574219 28.753906 97.972656 28.753906 97.972656 31.15625 C 97.972656 33.554688 101.574219 33.554688 101.574219 31.15625 Z M 101.574219 31.15625 "/>
<path style=" stroke:none;fill-rule:evenodd;fill:rgb(82.7%,82.7%,82.7%);fill-opacity:1;" d="M 117.574219 33.953125 C 117.574219 31.554688 113.972656 31.554688 113.972656 33.953125 C 113.972656 36.355469 117.574219 36.355469 117.574219 33.953125 Z M 117.574219 33.953125 "/>
<path style=" stroke:none;fill-rule:evenodd;fill:rgb(82.7%,82.7%,82.7%);fill-opacity:1;" d="M 117.574219 53.554688 C 117.574219 51.15625 113.972656 51.15625 113.972656 53.554688 C 113.972656 55.953125 117.574219 55.953125 117.574219 53.554688 Z M 117.574219 53.554688 "/>
<path style=" stroke:none;fill-rule:evenodd;fill:rgb(82.7%,82.7%,82.7%);fill-opacity:1;" d="M 133.574219 39.554688 C 133.574219 37.15625 129.972656 37.15625 129.972656 39.554688 C 129.972656 41.953125 133.574219 41.953125 133.574219 39.554688 Z M 133.574219 39.554688 "/>
<path style=" stroke:none;fill-rule:evenodd;fill:rgb(82.7%,82.7%,82.7%);fill-opacity:1;" d="M 133.574219 61.953125 C 133.574219 59.554688 129.972656 59.554688 129.972656 61.953125 C 129.972656 64.355469 133.574219 64.355469 133.574219 61.953125 Z M 133.574219 61.953125 "/>
<path style=" stroke:none;fill-rule:evenodd;fill:rgb(82.7%,82.7%,82.7%);fill-opacity:1;" d="M 149.574219 84.355469 C 149.574219 81.953125 145.972656 81.953125 145.972656 84.355469 C 145.972656 86.753906 149.574219 86.753906 149.574219 84.355469 Z M 149.574219 84.355469 "/>
<path style=" stroke:none;fill-rule:evenodd;fill:rgb(82.7%,82.7%,82.7%);fill-opacity:1;" d="M 149.574219 75.953125 C 149.574219 73.554688 145.972656 73.554688 145.972656 75.953125 C 145.972656 78.355469 149.574219 78.355469 149.574219 75.953125 Z M 149.574219 75.953125 "/>
<path style=" stroke:none;fill-rule:evenodd;fill:rgb(82.7%,82.7%,82.7%);fill-opacity:1;" d="M 165.574219 106.753906 C 165.574219 104.355469 161.972656 104.355469 161.972656 106.753906 C 161.972656 109.15625 165.574219 109.15625 165.574219 106.753906 Z M 165.574219 106.753906 "/>
<path style=" stroke:none;fill-rule:evenodd;fill:rgb(82.7%,82.7%,82.7%);fill-opacity:1;" d="M 165.574219 115.15625 C 165.574219 112.753906 161.972656 112.753906 161.972656 115.15625 C 161.972656 117.554688 165.574219 117.554688 165.574219 115.15625 Z M 165.574219 115.15625 "/>
<path style=" stroke:none;fill-rule:evenodd;fill:rgb(82.7%,82.7%,82.7%);fill-opacity:1;" d="M 181.574219 112.355469 C 181.574219 109.953125 177.972656 109.953125 177.972656 112.355469 C 177.972656 114.753906 181.574219 114.753906 181.574219 112.355469 Z M 181.574219 112.355469 "/>
<path style=" stroke:none;fill-rule:evenodd;fill:rgb(82.7%,82.7%,82.7%);fill-opacity:1;" d="M 181.574219 123.554688 C 181.574219 121.15625 177.972656 121.15625 177.972656 123.554688 C 177.972656 125.953125 181.574219 125.953125 181.574219 123.554688 Z M 181.574219 123.554688 "/>
<path style=" stroke:none;fill-rule:evenodd;fill:rgb(82.7%,82.7%,82.7%);fill-opacity:1;" d="M 197.574219 98.355469 C 197.574219 95.953125 193.972656 95.953125 193.972656 98.355469 C 193.972656 100.753906 197.574219 100.753906 197.574219 98.355469 Z M 197.574219 98.355469 "/>
<path style=" stroke:none;fill-rule:evenodd;fill:rgb(82.7%,82.7%,82.7%);fill-opacity:1;" d="M 197.574219 92.753906 C 197.574219 90.355469 193.972656 90.355469 193.972656 92.753906 C 193.972656 95.15625 197.574219 95.15625 197.574219 92.753906 Z M 197.574219 92.753906 "/>
<path style=" stroke:none;fill-rule:evenodd;fill:rgb(82.7%,82.7%,82.7%);fill-opacity:1;" d="M 213.574219 70.355469 C 213.574219 67.953125 209.972656 67.953125 209.972656 70.355469 C 209.972656 72.753906 213.574219 72.753906 213.574219 70.355469 Z M 213.574219 70.355469 "/>
<path style=" stroke:none;fill-rule:evenodd;fill:rgb(82.7%,82.7%,82.7%);fill-opacity:1;" d="M 213.574219 59.15625 C 213.574219 56.753906 209.972656 56.753906 209.972656 59.15625 C 209.972656 61.554688 213.574219 61.554688 213.574219 59.15625 Z M 213.574219 59.15625 "/>
<path style=" stroke:none;fill-rule:evenodd;fill:rgb(82.7%,82.7%,82.7%);fill-opacity:1;" d="M 21.574219 31.15625 C 21.574219 28.753906 17.972656 28.753906 17.972656 31.15625 C 17.972656 33.554688 21.574219 33.554688 21.574219 31.15625 Z M 21.574219 31.15625 "/>
<path style=" stroke:none;fill-rule:evenodd;fill:rgb(82.7%,82.7%,82.7%);fill-opacity:1;" d="M 21.574219 25.554688 C 21.574219 23.15625 17.972656 23.15625 17.972656 25.554688 C 17.972656 27.953125 21.574219 27.953125 21.574219 25.554688 Z M 21.574219 25.554688 "/>
<path style=" stroke:none;fill-rule:evenodd;fill:rgb(82.7%,82.7%,82.7%);fill-opacity:1;" d="M 37.574219 19.953125 C 37.574219 17.554688 33.972656 17.554688 33.972656 19.953125 C 33.972656 22.355469 37.574219 22.355469 37.574219 19.953125 Z M 37.574219 19.953125 "/>
<path style=" stroke:none;fill-rule:evenodd;fill:rgb(82.7%,82.7%,82.7%);fill-opacity:1;" d="M 37.574219 14.355469 C 37.574219 11.953125 33.972656 11.953125 33.972656 14.355469 C 33.972656 16.753906 37.574219 16.753906 37.574219 14.355469 Z M 37.574219 14.355469 "/>
<path style=" stroke:none;fill-rule:evenodd;fill:rgb(82.7%,82.7%,82.7%);fill-opacity:1;" d="M 53.574219 25.554688 C 53.574219 23.15625 49.972656 23.15625 49.972656 25.554688 C 49.972656 27.953125 53.574219 27.953125 53.574219 25.554688 Z M 53.574219 25.554688 "/>
<path style=" stroke:none;fill-rule:evenodd;fill:rgb(82.7%,82.7%,82.7%);fill-opacity:1;" d="M 53.574219 31.15625 C 53.574219 28.753906 49.972656 28.753906 49.972656 31.15625 C 49.972656 33.554688 53.574219 33.554688 53.574219 31.15625 Z M 53.574219 31.15625 "/>
<path style=" stroke:none;fill-rule:evenodd;fill:rgb(82.7%,82.7%,82.7%);fill-opacity:1;" d="M 69.574219 42.355469 C 69.574219 39.953125 65.972656 39.953125 65.972656 42.355469 C 65.972656 44.753906 69.574219 44.753906 69.574219 42.355469 Z M 69.574219 42.355469 "/>
<path style=" stroke:none;fill-rule:evenodd;fill:rgb(82.7%,82.7%,82.7%);fill-opacity:1;" d="M 69.574219 31.15625 C 69.574219 28.753906 65.972656 28.753906 65.972656 31.15625 C 65.972656 33.554688 69.574219 33.554688 69.574219 31.15625 Z M 69.574219 31.15625 "/>
<path style=" stroke:none;fill-rule:evenodd;fill:rgb(82.7%,82.7%,82.7%);fill-opacity:1;" d="M 85.574219 35.355469 C 85.574219 32.953125 81.972656 32.953125 81.972656 35.355469 C 81.972656 37.753906 85.574219 37.753906 85.574219 35.355469 Z M 85.574219 35.355469 "/>
<path style=" stroke:none;fill-rule:evenodd;fill:rgb(82.7%,82.7%,82.7%);fill-opacity:1;" d="M 85.574219 49.355469 C 85.574219 46.953125 81.972656 46.953125 81.972656 49.355469 C 81.972656 51.753906 85.574219 51.753906 85.574219 49.355469 Z M 85.574219 49.355469 "/>
<path style=" stroke:none;fill-rule:evenodd;fill:rgb(82.7%,82.7%,82.7%);fill-opacity:1;" d="M 101.574219 39.554688 C 101.574219 37.15625 97.972656 37.15625 97.972656 39.554688 C 97.972656 41.953125 101.574219 41.953125 101.574219 39.554688 Z M 101.574219 39.554688 "/>
<path style=" stroke:none;fill-rule:evenodd;fill:rgb(82.7%,82.7%,82.7%);fill-opacity:1;" d="M 101.574219 56.355469 C 101.574219 53.953125 97.972656 53.953125 97.972656 56.355469 C 97.972656 58.753906 101.574219 58.753906 101.574219 56.355469 Z M 101.574219 56.355469 "/>
<path style=" stroke:none;fill-rule:evenodd;fill:rgb(82.7%,82.7%,82.7%);fill-opacity:1;" d="M 117.574219 63.355469 C 117.574219 60.953125 113.972656 60.953125 113.972656 63.355469 C 113.972656 65.753906 117.574219 65.753906 117.574219 63.355469 Z M 117.574219 63.355469 "/>
<path style=" stroke:none;fill-rule:evenodd;fill:rgb(82.7%,82.7%,82.7%);fill-opacity:1;" d="M 117.574219 43.753906 C 117.574219 41.355469 113.972656 41.355469 113.972656 43.753906 C 113.972656 46.15625 117.574219 46.15625 117.574219 43.753906 Z M 117.574219 43.753906 "/>
<path style=" stroke:none;fill-rule:evenodd;fill:rgb(82.7%,82.7%,82.7%);fill-opacity:1;" d="M 133.574219 50.753906 C 133.574219 48.355469 129.972656 48.355469 129.972656 50.753906 C 129.972656 53.15625 133.574219 53.15625 133.574219 50.753906 Z M 133.574219 50.753906 "/>
<path style=" stroke:none;fill-rule:evenodd;fill:rgb(82.7%,82.7%,82.7%);fill-opacity:1;" d="M 133.574219 73.15625 C 133.574219 70.753906 129.972656 70.753906 129.972656 73.15625 C 129.972656 75.554688 133.574219 75.554688 133.574219 73.15625 Z M 133.574219 73.15625 "/>
<path style=" stroke:none;fill-rule:evenodd;fill:rgb(82.7%,82.7%,82.7%);fill-opacity:1;" d="M 149.574219 80.15625 C 149.574219 77.753906 145.972656 77.753906 145.972656 80.15625 C 145.972656 82.554688 149.574219 82.554688 149.574219 80.15625 Z M 149.574219 80.15625 "/>
<path style=" stroke:none;fill-rule:evenodd;fill:rgb(82.7%,82.7%,82.7%);fill-opacity:1;" d="M 149.574219 88.554688 C 149.574219 86.15625 145.972656 86.15625 145.972656 88.554688 C 145.972656 90.953125 149.574219 90.953125 149.574219 88.554688 Z M 149.574219 88.554688 "/>
<path style=" stroke:none;fill-rule:evenodd;fill:rgb(82.7%,82.7%,82.7%);fill-opacity:1;" d="M 165.574219 102.554688 C 165.574219 100.15625 161.972656 100.15625 161.972656 102.554688 C 161.972656 104.953125 165.574219 104.953125 165.574219 102.554688 Z M 165.574219 102.554688 "/>
<path style=" stroke:none;fill-rule:evenodd;fill:rgb(82.7%,82.7%,82.7%);fill-opacity:1;" d="M 165.574219 110.953125 C 165.574219 108.554688 161.972656 108.554688 161.972656 110.953125 C 161.972656 113.355469 165.574219 113.355469 165.574219 110.953125 Z M 165.574219 110.953125 "/>
<path style=" stroke:none;fill-rule:evenodd;fill:rgb(82.7%,82.7%,82.7%);fill-opacity:1;" d="M 181.574219 117.953125 C 181.574219 115.554688 177.972656 115.554688 177.972656 117.953125 C 177.972656 120.355469 181.574219 120.355469 181.574219 117.953125 Z M 181.574219 117.953125 "/>
<path style=" stroke:none;fill-rule:evenodd;fill:rgb(82.7%,82.7%,82.7%);fill-opacity:1;" d="M 181.574219 106.753906 C 181.574219 104.355469 177.972656 104.355469 177.972656 106.753906 C 177.972656 109.15625 181.574219 109.15625 181.574219 106.753906 Z M 181.574219 106.753906 "/>
<path style=" stroke:none;fill-rule:evenodd;fill:rgb(82.7%,82.7%,82.7%);fill-opacity:1;" d="M 197.574219 89.953125 C 197.574219 87.554688 193.972656 87.554688 193.972656 89.953125 C 193.972656 92.355469 197.574219 92.355469 197.574219 89.953125 Z M 197.574219 89.953125 "/>
<path style=" stroke:none;fill-rule:evenodd;fill:rgb(82.7%,82.7%,82.7%);fill-opacity:1;" d="M 197.574219 95.554688 C 197.574219 93.15625 193.972656 93.15625 193.972656 95.554688 C 193.972656 97.953125 197.574219 97.953125 197.574219 95.554688 Z M 197.574219 95.554688 "/>
<path style=" stroke:none;fill-rule:evenodd;fill:rgb(82.7%,82.7%,82.7%);fill-opacity:1;" d="M 213.574219 75.953125 C 213.574219 73.554688 209.972656 73.554688 209.972656 75.953125 C 209.972656 78.355469 213.574219 78.355469 213.574219 75.953125 Z M 213.574219 75.953125 "/>
<path style=" stroke:none;fill-rule:evenodd;fill:rgb(82.7%,82.7%,82.7%);fill-opacity:1;" d="M 213.574219 64.753906 C 213.574219 62.355469 209.972656 62.355469 209.972656 64.753906 C 209.972656 67.15625 213.574219 67.15625 213.574219 64.753906 Z M 213.574219 64.753906 "/>
<path style="fill:none;stroke-width:0.8;stroke-linecap:round;stroke-linejoin:round;stroke:rgb(0%,0%,0%);stroke-opacity:1;stroke-miterlimit:10;" d="M 287.999138 504.01975 L 303.999138 518.01975 " transform="matrix(1,0,0,-1,-108.2257,605.176)"/>
<path style="fill:none;stroke-width:0.8;stroke-linecap:round;stroke-linejoin:round;stroke:rgb(0%,0%,0%);stroke-opacity:1;stroke-miterlimit:10;" d="M 159.999138 571.222875 L 175.999138 557.222875 " transform="matrix(1,0,0,-1,-108.2257,605.176)"/>
<path style="fill:none;stroke-width:0.8;stroke-linecap:round;stroke-linejoin:round;stroke:rgb(0%,0%,0%);stroke-opacity:1;stroke-miterlimit:10;" d="M 143.999138 593.621313 L 159.999138 571.222875 " transform="matrix(1,0,0,-1,-108.2257,605.176)"/>
<path style="fill:none;stroke-width:0.8;stroke-linecap:round;stroke-linejoin:round;stroke:rgb(0%,0%,0%);stroke-opacity:1;stroke-miterlimit:10;" d="M 127.999138 582.422094 L 143.999138 593.621313 " transform="matrix(1,0,0,-1,-108.2257,605.176)"/>
<path style="fill:none;stroke-width:0.8;stroke-linecap:round;stroke-linejoin:round;stroke:rgb(0%,0%,0%);stroke-opacity:1;stroke-miterlimit:10;" d="M 111.999138 546.01975 L 127.999138 582.422094 " transform="matrix(1,0,0,-1,-108.2257,605.176)"/>
<path style="fill:none;stroke-width:0.8;stroke-linecap:round;stroke-linejoin:round;stroke:rgb(83.6%,0%,28.9%);stroke-opacity:1;stroke-miterlimit:10;" d="M 159.999138 571.222875 L 159.999138 576.820531 " transform="matrix(1,0,0,-1,-108.2257,605.176)"/>
<path style="fill-rule:evenodd;fill:rgb(83.6%,0%,28.9%);fill-opacity:1;stroke-width:0.8;stroke-linecap:round;stroke-linejoin:round;stroke:rgb(83.6%,0%,28.9%);stroke-opacity:1;stroke-miterlimit:10;" d="M 159.999138 576.820531 L 158.335075 571.820531 L 161.6632 571.820531 Z M 159.999138 576.820531 " transform="matrix(1,0,0,-1,-108.2257,605.176)"/>
<path style="fill:none;stroke-width:0.8;stroke-linecap:round;stroke-linejoin:round;stroke:rgb(83.6%,0%,28.9%);stroke-opacity:1;stroke-miterlimit:10;" d="M 175.999138 557.222875 L 175.999138 568.422094 " transform="matrix(1,0,0,-1,-108.2257,605.176)"/>
<path style="fill-rule:evenodd;fill:rgb(83.6%,0%,28.9%);fill-opacity:1;stroke-width:0.8;stroke-linecap:round;stroke-linejoin:round;stroke:rgb(83.6%,0%,28.9%);stroke-opacity:1;stroke-miterlimit:10;" d="M 175.999138 568.422094 L 174.335075 563.422094 L 177.6632 563.422094 Z M 175.999138 568.422094 " transform="matrix(1,0,0,-1,-108.2257,605.176)"/>
<path style="fill:none;stroke-width:0.8;stroke-linecap:round;stroke-linejoin:round;stroke:rgb(83.6%,0%,28.9%);stroke-opacity:1;stroke-miterlimit:10;" d="M 191.999138 548.820531 L 191.999138 562.820531 " transform="matrix(1,0,0,-1,-108.2257,605.176)"/>
<path style="fill-rule:evenodd;fill:rgb(83.6%,0%,28.9%);fill-opacity:1;stroke-width:0.8;stroke-linecap:round;stroke-linejoin:round;stroke:rgb(83.6%,0%,28.9%);stroke-opacity:1;stroke-miterlimit:10;" d="M 191.999138 562.820531 L 190.335075 557.820531 L 193.6632 557.820531 Z M 191.999138 562.820531 " transform="matrix(1,0,0,-1,-108.2257,605.176)"/>
<path style="fill:none;stroke-width:0.8;stroke-linecap:round;stroke-linejoin:round;stroke:rgb(83.6%,0%,28.9%);stroke-opacity:1;stroke-miterlimit:10;" d="M 207.999138 540.422094 L 207.999138 557.222875 " transform="matrix(1,0,0,-1,-108.2257,605.176)"/>
<path style="fill-rule:evenodd;fill:rgb(83.6%,0%,28.9%);fill-opacity:1;stroke-width:0.8;stroke-linecap:round;stroke-linejoin:round;stroke:rgb(83.6%,0%,28.9%);stroke-opacity:1;stroke-miterlimit:10;" d="M 207.999138 557.222875 L 206.335075 552.222875 L 209.6632 552.222875 Z M 207.999138 557.222875 " transform="matrix(1,0,0,-1,-108.2257,605.176)"/>
<path style="fill:none;stroke-width:0.8;stroke-linecap:round;stroke-linejoin:round;stroke:rgb(83.6%,0%,28.9%);stroke-opacity:1;stroke-miterlimit:10;" d="M 223.999138 532.01975 L 223.999138 551.621313 " transform="matrix(1,0,0,-1,-108.2257,605.176)"/>
<path style="fill-rule:evenodd;fill:rgb(83.6%,0%,28.9%);fill-opacity:1;stroke-width:0.8;stroke-linecap:round;stroke-linejoin:round;stroke:rgb(83.6%,0%,28.9%);stroke-opacity:1;stroke-miterlimit:10;" d="M 223.999138 551.621313 L 222.335075 546.621313 L 225.6632 546.621313 Z M 223.999138 551.621313 " transform="matrix(1,0,0,-1,-108.2257,605.176)"/>
<path style="fill:none;stroke-width:0.8;stroke-linecap:round;stroke-linejoin:round;stroke:rgb(83.6%,0%,28.9%);stroke-opacity:1;stroke-miterlimit:10;" d="M 239.999138 520.820531 L 239.999138 543.222875 " transform="matrix(1,0,0,-1,-108.2257,605.176)"/>
<path style="fill-rule:evenodd;fill:rgb(83.6%,0%,28.9%);fill-opacity:1;stroke-width:0.8;stroke-linecap:round;stroke-linejoin:round;stroke:rgb(83.6%,0%,28.9%);stroke-opacity:1;stroke-miterlimit:10;" d="M 239.999138 543.222875 L 238.335075 538.222875 L 241.6632 538.222875 Z M 239.999138 543.222875 " transform="matrix(1,0,0,-1,-108.2257,605.176)"/>
<path style="fill:none;stroke-width:0.8;stroke-linecap:round;stroke-linejoin:round;stroke:rgb(83.6%,0%,28.9%);stroke-opacity:1;stroke-miterlimit:10;" d="M 255.999138 512.422094 L 255.999138 520.820531 " transform="matrix(1,0,0,-1,-108.2257,605.176)"/>
<path style="fill-rule:evenodd;fill:rgb(83.6%,0%,28.9%);fill-opacity:1;stroke-width:0.8;stroke-linecap:round;stroke-linejoin:round;stroke:rgb(83.6%,0%,28.9%);stroke-opacity:1;stroke-miterlimit:10;" d="M 255.999138 520.820531 L 254.335075 515.820531 L 257.6632 515.820531 Z M 255.999138 520.820531 " transform="matrix(1,0,0,-1,-108.2257,605.176)"/>
<path style="fill:none;stroke-width:0.8;stroke-linecap:round;stroke-linejoin:round;stroke:rgb(83.6%,0%,28.9%);stroke-opacity:1;stroke-miterlimit:10;" d="M 271.999138 506.820531 L 271.999138 498.422094 " transform="matrix(1,0,0,-1,-108.2257,605.176)"/>
<path style="fill-rule:evenodd;fill:rgb(83.6%,0%,28.9%);fill-opacity:1;stroke-width:0.8;stroke-linecap:round;stroke-linejoin:round;stroke:rgb(83.6%,0%,28.9%);stroke-opacity:1;stroke-miterlimit:10;" d="M 271.999138 498.422094 L 273.6632 503.422094 L 270.335075 503.422094 Z M 271.999138 498.422094 " transform="matrix(1,0,0,-1,-108.2257,605.176)"/>
<path style="fill:none;stroke-width:0.8;stroke-linecap:round;stroke-linejoin:round;stroke:rgb(83.6%,0%,28.9%);stroke-opacity:1;stroke-miterlimit:10;" d="M 287.999138 504.01975 L 287.999138 492.820531 " transform="matrix(1,0,0,-1,-108.2257,605.176)"/>
<path style="fill-rule:evenodd;fill:rgb(83.6%,0%,28.9%);fill-opacity:1;stroke-width:0.8;stroke-linecap:round;stroke-linejoin:round;stroke:rgb(83.6%,0%,28.9%);stroke-opacity:1;stroke-miterlimit:10;" d="M 287.999138 492.820531 L 289.6632 497.820531 L 286.335075 497.820531 Z M 287.999138 492.820531 " transform="matrix(1,0,0,-1,-108.2257,605.176)"/>
<path style="fill:none;stroke-width:0.8;stroke-linecap:round;stroke-linejoin:round;stroke:rgb(83.6%,0%,28.9%);stroke-opacity:1;stroke-miterlimit:10;" d="M 303.999138 518.01975 L 303.999138 512.422094 " transform="matrix(1,0,0,-1,-108.2257,605.176)"/>
<path style="fill-rule:evenodd;fill:rgb(83.6%,0%,28.9%);fill-opacity:1;stroke-width:0.8;stroke-linecap:round;stroke-linejoin:round;stroke:rgb(83.6%,0%,28.9%);stroke-opacity:1;stroke-miterlimit:10;" d="M 303.999138 512.422094 L 305.6632 517.422094 L 302.335075 517.422094 Z M 303.999138 512.422094 " transform="matrix(1,0,0,-1,-108.2257,605.176)"/>
<path style="fill:none;stroke-width:0.8;stroke-linecap:round;stroke-linejoin:round;stroke:rgb(83.6%,0%,28.9%);stroke-opacity:1;stroke-miterlimit:10;" d="M 319.999138 523.621313 L 319.999138 534.820531 " transform="matrix(1,0,0,-1,-108.2257,605.176)"/>
<path style="fill-rule:evenodd;fill:rgb(83.6%,0%,28.9%);fill-opacity:1;stroke-width:0.8;stroke-linecap:round;stroke-linejoin:round;stroke:rgb(83.6%,0%,28.9%);stroke-opacity:1;stroke-miterlimit:10;" d="M 319.999138 534.820531 L 318.335075 529.820531 L 321.6632 529.820531 Z M 319.999138 534.820531 " transform="matrix(1,0,0,-1,-108.2257,605.176)"/>
<path style="fill:none;stroke-width:0.8;stroke-linecap:round;stroke-linejoin:round;stroke:rgb(83.6%,0%,28.9%);stroke-opacity:1;stroke-miterlimit:10;" d="M 127.999138 582.422094 L 127.999138 576.820531 " transform="matrix(1,0,0,-1,-108.2257,605.176)"/>
<path style="fill-rule:evenodd;fill:rgb(83.6%,0%,28.9%);fill-opacity:1;stroke-width:0.8;stroke-linecap:round;stroke-linejoin:round;stroke:rgb(83.6%,0%,28.9%);stroke-opacity:1;stroke-miterlimit:10;" d="M 127.999138 576.820531 L 129.6632 581.820531 L 126.335075 581.820531 Z M 127.999138 576.820531 " transform="matrix(1,0,0,-1,-108.2257,605.176)"/>
<path style="fill:none;stroke-width:0.8;stroke-linecap:round;stroke-linejoin:round;stroke:rgb(83.6%,0%,28.9%);stroke-opacity:1;stroke-miterlimit:10;" d="M 143.999138 593.621313 L 143.999138 588.01975 " transform="matrix(1,0,0,-1,-108.2257,605.176)"/>
<path style="fill-rule:evenodd;fill:rgb(83.6%,0%,28.9%);fill-opacity:1;stroke-width:0.8;stroke-linecap:round;stroke-linejoin:round;stroke:rgb(83.6%,0%,28.9%);stroke-opacity:1;stroke-miterlimit:10;" d="M 143.999138 588.01975 L 145.6632 593.01975 L 142.335075 593.01975 Z M 143.999138 588.01975 " transform="matrix(1,0,0,-1,-108.2257,605.176)"/>
<path style=" stroke:none;fill-rule:evenodd;fill:rgb(0%,0%,0%);fill-opacity:1;" d="M 5.574219 59.15625 C 5.574219 56.753906 1.972656 56.753906 1.972656 59.15625 C 1.972656 61.554688 5.574219 61.554688 5.574219 59.15625 Z M 5.574219 59.15625 "/>
<path style=" stroke:none;fill-rule:evenodd;fill:rgb(0%,0%,0%);fill-opacity:1;" d="M 21.574219 22.753906 C 21.574219 20.355469 17.972656 20.355469 17.972656 22.753906 C 17.972656 25.15625 21.574219 25.15625 21.574219 22.753906 Z M 21.574219 22.753906 "/>
<path style=" stroke:none;fill-rule:evenodd;fill:rgb(0%,0%,0%);fill-opacity:1;" d="M 37.574219 11.554688 C 37.574219 9.15625 33.972656 9.15625 33.972656 11.554688 C 33.972656 13.953125 37.574219 13.953125 37.574219 11.554688 Z M 37.574219 11.554688 "/>
<path style=" stroke:none;fill-rule:evenodd;fill:rgb(0%,0%,0%);fill-opacity:1;" d="M 53.574219 33.953125 C 53.574219 31.554688 49.972656 31.554688 49.972656 33.953125 C 49.972656 36.355469 53.574219 36.355469 53.574219 33.953125 Z M 53.574219 33.953125 "/>
<path style=" stroke:none;fill-rule:evenodd;fill:rgb(0%,0%,0%);fill-opacity:1;" d="M 69.574219 47.953125 C 69.574219 45.554688 65.972656 45.554688 65.972656 47.953125 C 65.972656 50.355469 69.574219 50.355469 69.574219 47.953125 Z M 69.574219 47.953125 "/>
<path style=" stroke:none;fill-rule:evenodd;fill:rgb(0%,0%,0%);fill-opacity:1;" d="M 85.574219 56.355469 C 85.574219 53.953125 81.972656 53.953125 81.972656 56.355469 C 81.972656 58.753906 85.574219 58.753906 85.574219 56.355469 Z M 85.574219 56.355469 "/>
<path style=" stroke:none;fill-rule:evenodd;fill:rgb(0%,0%,0%);fill-opacity:1;" d="M 101.574219 64.753906 C 101.574219 62.355469 97.972656 62.355469 97.972656 64.753906 C 97.972656 67.15625 101.574219 67.15625 101.574219 64.753906 Z M 101.574219 64.753906 "/>
<path style=" stroke:none;fill-rule:evenodd;fill:rgb(0%,0%,0%);fill-opacity:1;" d="M 117.574219 73.15625 C 117.574219 70.753906 113.972656 70.753906 113.972656 73.15625 C 113.972656 75.554688 117.574219 75.554688 117.574219 73.15625 Z M 117.574219 73.15625 "/>
<path style=" stroke:none;fill-rule:evenodd;fill:rgb(0%,0%,0%);fill-opacity:1;" d="M 133.574219 84.355469 C 133.574219 81.953125 129.972656 81.953125 129.972656 84.355469 C 129.972656 86.753906 133.574219 86.753906 133.574219 84.355469 Z M 133.574219 84.355469 "/>
<path style=" stroke:none;fill-rule:evenodd;fill:rgb(0%,0%,0%);fill-opacity:1;" d="M 149.574219 92.753906 C 149.574219 90.355469 145.972656 90.355469 145.972656 92.753906 C 145.972656 95.15625 149.574219 95.15625 149.574219 92.753906 Z M 149.574219 92.753906 "/>
<path style=" stroke:none;fill-rule:evenodd;fill:rgb(0%,0%,0%);fill-opacity:1;" d="M 165.574219 98.355469 C 165.574219 95.953125 161.972656 95.953125 161.972656 98.355469 C 161.972656 100.753906 165.574219 100.753906 165.574219 98.355469 Z M 165.574219 98.355469 "/>
<path style=" stroke:none;fill-rule:evenodd;fill:rgb(0%,0%,0%);fill-opacity:1;" d="M 181.574219 101.15625 C 181.574219 98.753906 177.972656 98.753906 177.972656 101.15625 C 177.972656 103.554688 181.574219 103.554688 181.574219 101.15625 Z M 181.574219 101.15625 "/>
<path style=" stroke:none;fill-rule:evenodd;fill:rgb(0%,0%,0%);fill-opacity:1;" d="M 197.574219 87.15625 C 197.574219 84.753906 193.972656 84.753906 193.972656 87.15625 C 193.972656 89.554688 197.574219 89.554688 197.574219 87.15625 Z M 197.574219 87.15625 "/>
<path style=" stroke:none;fill-rule:evenodd;fill:rgb(0%,0%,0%);fill-opacity:1;" d="M 213.574219 81.554688 C 213.574219 79.15625 209.972656 79.15625 209.972656 81.554688 C 209.972656 83.953125 213.574219 83.953125 213.574219 81.554688 Z M 213.574219 81.554688 "/>
<path style="fill:none;stroke-width:0.8;stroke-linecap:round;stroke-linejoin:round;stroke:rgb(0%,0%,0%);stroke-opacity:1;stroke-dasharray:2,3;stroke-miterlimit:10;" d="M 111.999138 546.01975 L 327.999138 546.01975 " transform="matrix(1,0,0,-1,-108.2257,605.176)"/>
<path style="fill:none;stroke-width:0.8;stroke-linecap:round;stroke-linejoin:round;stroke:rgb(0%,0%,0%);stroke-opacity:1;stroke-miterlimit:10;" d="M 175.999138 557.222875 L 191.999138 548.820531 " transform="matrix(1,0,0,-1,-108.2257,605.176)"/>
<path style="fill:none;stroke-width:0.8;stroke-linecap:round;stroke-linejoin:round;stroke:rgb(0%,0%,0%);stroke-opacity:1;stroke-miterlimit:10;" d="M 191.999138 548.820531 L 207.999138 540.422094 " transform="matrix(1,0,0,-1,-108.2257,605.176)"/>
<path style="fill:none;stroke-width:0.8;stroke-linecap:round;stroke-linejoin:round;stroke:rgb(0%,0%,0%);stroke-opacity:1;stroke-miterlimit:10;" d="M 207.999138 540.422094 L 223.999138 532.01975 " transform="matrix(1,0,0,-1,-108.2257,605.176)"/>
<path style="fill:none;stroke-width:0.8;stroke-linecap:round;stroke-linejoin:round;stroke:rgb(0%,0%,0%);stroke-opacity:1;stroke-miterlimit:10;" d="M 223.999138 532.01975 L 239.999138 520.820531 " transform="matrix(1,0,0,-1,-108.2257,605.176)"/>
<path style="fill:none;stroke-width:0.8;stroke-linecap:round;stroke-linejoin:round;stroke:rgb(0%,0%,0%);stroke-opacity:1;stroke-miterlimit:10;" d="M 239.999138 520.820531 L 255.999138 512.422094 " transform="matrix(1,0,0,-1,-108.2257,605.176)"/>
<path style="fill:none;stroke-width:0.8;stroke-linecap:round;stroke-linejoin:round;stroke:rgb(0%,0%,0%);stroke-opacity:1;stroke-miterlimit:10;" d="M 255.999138 512.422094 L 271.999138 506.820531 " transform="matrix(1,0,0,-1,-108.2257,605.176)"/>
<path style="fill:none;stroke-width:0.8;stroke-linecap:round;stroke-linejoin:round;stroke:rgb(0%,0%,0%);stroke-opacity:1;stroke-miterlimit:10;" d="M 271.999138 506.820531 L 287.999138 504.01975 " transform="matrix(1,0,0,-1,-108.2257,605.176)"/>
<path style="fill:none;stroke-width:0.8;stroke-linecap:round;stroke-linejoin:round;stroke:rgb(0%,0%,0%);stroke-opacity:1;stroke-miterlimit:10;" d="M 303.999138 518.01975 L 319.999138 523.621313 " transform="matrix(1,0,0,-1,-108.2257,605.176)"/>
<path style=" stroke:none;fill-rule:evenodd;fill:rgb(100%,100%,100%);fill-opacity:1;" d="M 141.890625 59.15625 C 141.890625 57.15625 138.890625 57.15625 138.890625 59.15625 C 138.890625 61.15625 141.890625 61.15625 141.890625 59.15625 Z M 141.890625 59.15625 "/>
<path style=" stroke:none;fill-rule:evenodd;fill:rgb(0%,0%,0%);fill-opacity:1;" d="M 142.1875 59.15625 C 142.1875 56.753906 138.589844 56.753906 138.589844 59.15625 C 138.589844 61.554688 142.1875 61.554688 142.1875 59.15625 Z M 141.589844 59.15625 C 141.589844 57.554688 139.1875 57.554688 139.1875 59.15625 C 139.1875 60.753906 141.589844 60.753906 141.589844 59.15625 Z M 141.589844 59.15625 "/>
<g style="fill:rgb(0%,0%,0%);fill-opacity:1;">
  <use xlink:href="#glyph0-1" x="31.3208" y="7.545"/>
</g>
<g style="fill:rgb(0%,0%,0%);fill-opacity:1;">
  <use xlink:href="#glyph1-1" x="1" y="67.145"/>
</g>
<g style="fill:rgb(0%,0%,0%);fill-opacity:1;">
  <use xlink:href="#glyph1-2" x="173.7618" y="97.1452"/>
</g>
<g style="fill:rgb(0%,0%,0%);fill-opacity:1;">
  <use xlink:href="#glyph2-1" x="141.7223" y="45.155"/>
</g>
<g style="fill:rgb(0%,0%,0%);fill-opacity:1;">
  <use xlink:href="#glyph3-1" x="146.4543" y="46.649"/>
  <use xlink:href="#glyph3-2" x="149.283685" y="46.649"/>
  <use xlink:href="#glyph3-3" x="153.117304" y="46.649"/>
</g>
<g style="fill:rgb(0%,0%,0%);fill-opacity:1;">
  <use xlink:href="#glyph4-1" x="157.6483" y="45.155"/>
</g>
<g style="fill:rgb(0%,0%,0%);fill-opacity:1;">
  <use xlink:href="#glyph5-1" x="160.7373" y="45.155"/>
</g>
<g style="fill:rgb(0%,0%,0%);fill-opacity:1;">
  <use xlink:href="#glyph6-1" x="163.7153" y="46.649"/>
</g>
<g style="fill:rgb(0%,0%,0%);fill-opacity:1;">
  <use xlink:href="#glyph7-1" x="167.9203" y="45.155"/>
</g>
<path style="fill:none;stroke-width:0.4;stroke-linecap:round;stroke-linejoin:round;stroke:rgb(0%,0%,0%);stroke-opacity:1;stroke-miterlimit:10;" d="M 254.932731 556.875219 C 252.557731 554.523656 250.698356 551.70725 249.467888 548.601781 " transform="matrix(1,0,0,-1,-108.2257,605.176)"/>
<path style="fill-rule:evenodd;fill:rgb(0%,0%,0%);fill-opacity:1;stroke-width:0.4;stroke-linecap:round;stroke-linejoin:round;stroke:rgb(0%,0%,0%);stroke-opacity:1;stroke-miterlimit:10;" d="M 249.81945 551.578344 C 249.639763 550.593969 249.522575 549.597875 249.467888 548.601781 C 250.112419 549.367406 250.803825 550.090063 251.534294 550.773656 Z M 249.81945 551.578344 " transform="matrix(1,0,0,-1,-108.2257,605.176)"/>
<g style="fill:rgb(0%,0%,0%);fill-opacity:1;">
  <use xlink:href="#glyph2-1" x="58.4885" y="79.1538"/>
</g>
<g style="fill:rgb(0%,0%,0%);fill-opacity:1;">
  <use xlink:href="#glyph3-1" x="63.2205" y="80.6478"/>
  <use xlink:href="#glyph3-2" x="66.049886" y="80.6478"/>
  <use xlink:href="#glyph3-3" x="69.883504" y="80.6478"/>
</g>
<g style="fill:rgb(0%,0%,0%);fill-opacity:1;">
  <use xlink:href="#glyph4-1" x="74.4145" y="79.1538"/>
</g>
<g style="fill:rgb(0%,0%,0%);fill-opacity:1;">
  <use xlink:href="#glyph5-1" x="77.5035" y="79.1538"/>
</g>
<g style="fill:rgb(0%,0%,0%);fill-opacity:1;">
  <use xlink:href="#glyph6-2" x="80.4815" y="80.6478"/>
</g>
<g style="fill:rgb(0%,0%,0%);fill-opacity:1;">
  <use xlink:href="#glyph7-1" x="84.6865" y="79.1538"/>
</g>
<path style="fill:none;stroke-width:0.4;stroke-linecap:round;stroke-linejoin:round;stroke:rgb(0%,0%,0%);stroke-opacity:1;stroke-miterlimit:10;" d="M 191.014763 535.164281 C 193.389763 537.515844 195.249138 540.33225 196.479606 543.441625 " transform="matrix(1,0,0,-1,-108.2257,605.176)"/>
<path style="fill-rule:evenodd;fill:rgb(0%,0%,0%);fill-opacity:1;stroke-width:0.4;stroke-linecap:round;stroke-linejoin:round;stroke:rgb(0%,0%,0%);stroke-opacity:1;stroke-miterlimit:10;" d="M 196.128044 540.465063 C 196.307731 541.449438 196.424919 542.441625 196.479606 543.441625 C 195.835075 542.676 195.147575 541.949438 194.4132 541.26975 Z M 196.128044 540.465063 " transform="matrix(1,0,0,-1,-108.2257,605.176)"/>
<path style=" stroke:none;fill-rule:evenodd;fill:rgb(100%,100%,100%);fill-opacity:1;" d="M 90.605469 59.15625 C 90.605469 57.15625 87.605469 57.15625 87.605469 59.15625 C 87.605469 61.15625 90.605469 61.15625 90.605469 59.15625 Z M 90.605469 59.15625 "/>
<path style=" stroke:none;fill-rule:evenodd;fill:rgb(0%,0%,0%);fill-opacity:1;" d="M 90.90625 59.15625 C 90.90625 56.753906 87.308594 56.753906 87.308594 59.15625 C 87.308594 61.554688 90.90625 61.554688 90.90625 59.15625 Z M 90.308594 59.15625 C 90.308594 57.554688 87.90625 57.554688 87.90625 59.15625 C 87.90625 60.753906 90.308594 60.753906 90.308594 59.15625 Z M 90.308594 59.15625 "/>
<g style="fill:rgb(0%,0%,0%);fill-opacity:1;">
  <use xlink:href="#glyph1-3" x="88.8806" y="66.87216"/>
</g>
</g>
</svg>
