<?xml version="1.0" encoding="UTF-8"?>
<svg xmlns="http://www.w3.org/2000/svg" xmlns:xlink="http://www.w3.org/1999/xlink" width="90pt" height="25pt" viewBox="0 0 90 25" version="1.1">
<defs>
<g>
<symbol overflow="visible" id="glyph0-0">
<path style="stroke:none;" d=""/>
</symbol>
<symbol overflow="visible" id="glyph0-1">
<path style="stroke:none;" d="M 0.703125 -1.109375 C 0.578125 -0.765625 0.484375 -0.703125 0.234375 -0.65625 L -0.15625 -0.59375 L -0.15625 0 L 2.25 0 L 2.25 -0.5625 L 1.703125 -0.65625 C 1.53125 -0.6875 1.4375 -0.765625 1.4375 -0.921875 C 1.4375 -0.984375 1.453125 -1.046875 1.46875 -1.125 L 1.890625 -2.359375 L 4.53125 -2.359375 L 4.96875 -1.09375 C 5 -1.015625 5.015625 -0.953125 5.015625 -0.890625 C 5.015625 -0.765625 4.9375 -0.6875 4.75 -0.65625 L 4.203125 -0.5625 L 4.203125 0 L 6.765625 0 L 6.765625 -0.59375 L 6.375 -0.65625 C 6.125 -0.703125 6.015625 -0.765625 5.90625 -1.109375 L 3.765625 -7.171875 L 2.84375 -7.171875 L 0.703125 -1.109375 Z M 3.3125 -5.875 L 4.28125 -3.0625 L 2.140625 -3.0625 L 3.09375 -5.875 L 3.203125 -6.3125 L 3.3125 -5.875 Z M 3.3125 -5.875 "/>
</symbol>
<symbol overflow="visible" id="glyph1-0">
<path style="stroke:none;" d=""/>
</symbol>
<symbol overflow="visible" id="glyph1-1">
<path style="stroke:none;" d="M 6.734375 -3.59375 C 6.734375 -5.734375 5.921875 -7.28125 3.8125 -7.28125 C 1.359375 -7.28125 0.421875 -5.484375 0.421875 -3.59375 C 0.421875 -1.453125 1.21875 0.09375 3.34375 0.09375 C 5.78125 0.09375 6.734375 -1.6875 6.734375 -3.59375 Z M 3.453125 -6.546875 C 4.9375 -6.546875 5.765625 -5.4375 5.765625 -3.65625 C 5.765625 -2.75 5.546875 -1.578125 5.1875 -1.1875 C 4.84375 -0.78125 4.34375 -0.640625 3.703125 -0.640625 C 2.203125 -0.640625 1.390625 -1.734375 1.390625 -3.53125 C 1.390625 -4.421875 1.609375 -5.59375 1.953125 -5.984375 C 2.296875 -6.390625 2.796875 -6.546875 3.453125 -6.546875 Z M 3.453125 -6.546875 "/>
</symbol>
<symbol overflow="visible" id="glyph2-0">
<path style="stroke:none;" d=""/>
</symbol>
<symbol overflow="visible" id="glyph2-1">
<path style="stroke:none;" d="M 5.734375 0 L 5.6875 -1.765625 L 5.015625 -1.765625 L 4.953125 -1.015625 C 4.9375 -0.765625 4.8125 -0.734375 4.578125 -0.734375 L 2.25 -0.734375 L 2.25 -3.375 L 4.578125 -3.375 L 4.578125 -4.109375 L 2.25 -4.109375 L 2.25 -6.453125 L 4.5625 -6.453125 C 4.8125 -6.453125 4.921875 -6.40625 4.9375 -6.15625 L 5 -5.46875 L 5.640625 -5.46875 L 5.703125 -7.171875 L 0.578125 -7.171875 L 0.578125 -6.625 L 1.109375 -6.5625 C 1.359375 -6.53125 1.390625 -6.40625 1.390625 -6.15625 L 1.390625 -1.0625 C 1.390625 -0.8125 1.359375 -0.734375 1.109375 -0.6875 L 0.578125 -0.59375 L 0.578125 0 L 5.734375 0 Z M 5.734375 0 "/>
</symbol>
<symbol overflow="visible" id="glyph3-0">
<path style="stroke:none;" d=""/>
</symbol>
<symbol overflow="visible" id="glyph3-1">
<path style="stroke:none;" d="M 6.109375 -6.125 C 6.109375 -6.375 6.15625 -6.453125 6.40625 -6.5 L 6.921875 -6.59375 L 6.921875 -7.171875 L 4.46875 -7.171875 L 4.46875 -6.59375 L 5 -6.5 C 5.25 -6.453125 5.296875 -6.375 5.296875 -6.125 L 5.296875 -2.546875 C 5.296875 -1.71875 5.15625 -1.28125 4.921875 -1.0625 C 4.640625 -0.8125 4.203125 -0.703125 3.8125 -0.703125 C 2.875 -0.703125 1.953125 -1.0625 1.953125 -2.46875 L 1.953125 -6.125 C 1.953125 -6.375 2 -6.453125 2.25 -6.5 L 2.765625 -6.59375 L 2.765625 -7.171875 L 0.28125 -7.171875 L 0.28125 -6.59375 L 0.8125 -6.5 C 1.0625 -6.453125 1.09375 -6.375 1.09375 -6.125 L 1.09375 -2.3125 C 1.09375 -0.765625 1.90625 0.09375 3.5 0.09375 C 4.75 0.09375 6.109375 -0.546875 6.109375 -2.3125 L 6.109375 -6.125 Z M 6.109375 -6.125 "/>
</symbol>
</g>
</defs>
<g id="surface0">
<path style="fill:none;stroke-width:0.4;stroke-linecap:butt;stroke-linejoin:round;stroke:rgb(0%,0%,0%);stroke-opacity:1;stroke-miterlimit:10;" d="M 243.999219 536.000781 L 243.999219 552.000781 L 259.999219 552.000781 L 259.999219 536.000781 L 259.999219 536.000781 C 259.999219 531.582813 256.417188 528.000781 251.999219 528.000781 C 247.58125 528.000781 243.999219 531.582813 243.999219 536.000781 Z M 243.999219 536.000781 " transform="matrix(1,0,0,-1,-243.3,552.2)"/>
<path style=" stroke:none;fill-rule:evenodd;fill:rgb(71%,27.8%,44.7%);fill-opacity:1;" d="M 20.699219 16.199219 L 20.699219 0.199219 L 36.699219 0.199219 L 36.699219 16.199219 L 36.699219 16.199219 C 36.699219 20.617188 33.117188 24.199219 28.699219 24.199219 C 24.28125 24.199219 20.699219 20.617188 20.699219 16.199219 Z M 20.699219 16.199219 "/>
<path style="fill:none;stroke-width:0.4;stroke-linecap:butt;stroke-linejoin:round;stroke:rgb(0%,0%,0%);stroke-opacity:1;stroke-miterlimit:10;" d="M 295.999219 536.000781 L 295.999219 552.000781 L 311.999219 552.000781 L 311.999219 536.000781 L 311.999219 536.000781 C 311.999219 531.582813 308.417188 528.000781 303.999219 528.000781 C 299.58125 528.000781 295.999219 531.582813 295.999219 536.000781 Z M 295.999219 536.000781 " transform="matrix(1,0,0,-1,-243.3,552.2)"/>
<path style=" stroke:none;fill-rule:evenodd;fill:rgb(71%,27.8%,44.7%);fill-opacity:1;" d="M 72.699219 16.199219 L 72.699219 0.199219 L 88.699219 0.199219 L 88.699219 16.199219 L 88.699219 16.199219 C 88.699219 20.617188 85.117188 24.199219 80.699219 24.199219 C 76.28125 24.199219 72.699219 20.617188 72.699219 16.199219 Z M 72.699219 16.199219 "/>
<g style="fill:rgb(0%,0%,0%);fill-opacity:1;">
  <use xlink:href="#glyph0-1" x="5.397" y="15.2"/>
</g>
<g style="fill:rgb(100%,100%,100%);fill-opacity:1;">
  <use xlink:href="#glyph1-1" x="25.1285" y="15.19"/>
</g>
<g style="fill:rgb(0%,0%,0%);fill-opacity:1;">
  <use xlink:href="#glyph2-1" x="57.612" y="15.2"/>
</g>
<g style="fill:rgb(100%,100%,100%);fill-opacity:1;">
  <use xlink:href="#glyph3-1" x="77.1085" y="15.19"/>
</g>
</g>
</svg>
